Name,CyrillicName,Sex,WeightClassKg,Event,Equipment,Tested,Division,BirthDate,BodyweightKg,Squat1Kg,Squat2Kg,Squat3Kg,Squat4Kg,Best3SquatKg,Bench1Kg,Bench2Kg,Bench3Kg,Bench4Kg,Best3BenchKg,Deadlift1Kg,Deadlift2Kg,Deadlift3Kg,Deadlift4Kg,Best3DeadliftKg,TotalKg,Place
Alena Filimonova,Алена Филимонова,F,67.5,SBD,Wraps,Yes,Amateur Open,1982-08-30,65.3,50,,,,50,40,50,,,50,50,,,,50,150,1
Chingiz Isaev,Чингиз Исаев,M,52,SBD,Wraps,Yes,Amateur Teen 16-17,1991-01-26,50.6,80,-85,-85,,80,60,65,67.5,,67.5,110,115,120,,120,267.5,1
Igor Maslov,Игорь Маслов,M,56,SBD,Wraps,Yes,Amateur Teen 13-15,1993-03-24,54,105,-110,110,,110,75,80,-82.5,,80,115,125,-132.5,,125,315,1
Andrey Goryachev,Андрей Горячев,M,56,SBD,Wraps,Yes,Amateur Teen 16-17,1991-05-14,54.9,100,-110,110,,110,57.5,62.5,-67.5,,62.5,110,120,-130,,120,292.5,1
Anton Rozhanskiy,Антон Рожанский,M,56,SBD,Wraps,Yes,Amateur Teen 18-19,1990-02-12,56,100,-105,-105,,100,-65,-65,-65,,,,,,,,,DQ
Aleksey Kozhevnikov,Алексей Кожевников,M,60,SBD,Wraps,Yes,Amateur Teen 18-19,1989-12-10,58.2,-135,135,140,,140,-90,-90,95,,95,140,150,155,,155,390,1
Anatoliy Zebrev,Анатолий Зебрев,M,60,SBD,Wraps,Yes,Amateur Teen 18-19,1989-12-20,57.2,130,140,-150,,140,65,70,75,,75,130,145,-155,,145,360,2
Albert Nabatchikov,Альберт Набатчиков,M,60,SBD,Wraps,Yes,Amateur Open,1981-10-12,58.25,130,150,155,,155,85,90,92.5,,92.5,150,160,-165,,160,407.5,1
Aleksandr Kashin,Александр Кашин,M,67.5,SBD,Wraps,Yes,Amateur Teen 13-15,1993-04-29,66.7,77.5,82.5,92.5,,92.5,52.5,62.5,72.5,,72.5,142.5,152.5,-160,,152.5,317.5,1
Albert Atabaev,Альберт Атабаев,M,67.5,SBD,Wraps,Yes,Amateur Teen 16-17,1991-08-22,64.5,110,120,125,,125,85,90,-95,,90,-140,145,-152.5,,145,360,1
Igor Fedorov,Игорь Федоров,M,67.5,SBD,Wraps,Yes,Amateur Teen 16-17,1991-07-31,63.85,110,115,125,,125,70,75,-80,,75,125,135,-147.5,,135,335,2
Dmitriy Trunov,Дмитрий Трунов,M,67.5,SBD,Wraps,Yes,Amateur Teen 18-19,1989-04-06,67.5,130,140,145,,145,85,90,95,,95,160,175,-185,,175,415,1
Yuriy Kiselyov,Юрий Киселёв,M,67.5,SBD,Wraps,Yes,Amateur Masters 70-74,1937-11-12,66,100,-110,,,100,70,75,80,,80,130,150,160,,160,340,1
Aleksey Ivanov,Алексей Иванов,M,75,SBD,Wraps,Yes,Amateur Teen 16-17,1991-08-12,71.3,130,-140,140,,140,105,110,115,,115,160,180,-185,,180,435,1
Igor Tolstyakov,Игорь Толстяков,M,75,SBD,Wraps,Yes,Amateur Teen 16-17,1990-07-26,74.15,-120,-130,130,,130,100,-110,-110,,100,170,190,-200,,190,420,2
Sergey Nechaev,Сергей Нечаев,M,75,SBD,Wraps,Yes,Amateur Teen 16-17,1991-06-15,75,120,140,-160,,140,85,95,100,,100,160,175,-192.5,,175,415,3
Konstantin Kobezev,Константин Кобезев,M,75,SBD,Wraps,Yes,Amateur Teen 18-19,1989-04-11,72.3,115,-125,-130,,115,85,95,-100,,95,-150,150,180,,180,390,1
Mikhail Bulba,Михаил Бульба,M,75,SBD,Wraps,Yes,Amateur Open,1982-10-06,70.9,125,130,135,,135,105,110,-112.5,,110,150,165,,,165,410,1
Gennadiy Pereladov,Геннадий Переладов,M,75,SBD,Wraps,Yes,Amateur Masters 70-74,1936-06-06,73.65,110,-120,120,,120,90,95,100,,100,160,170,180,,180,400,1
Ivan Dernovoy,Иван Дерновой,M,82.5,SBD,Wraps,Yes,Amateur Teen 18-19,1988-09-08,82.5,140,-150,150,,150,90,100,-105,,100,180,190,-200,,190,440,1
Amir Yakhin,Амир Яхин,M,82.5,SBD,Wraps,Yes,Amateur Juniors 20-23,1985-01-09,81.45,165,175,190,,190,130,142.5,150,,150,215,-252.5,-252.5,,215,555,1
Dmitriy Lukyanov,Дмитрий Лукьянов,M,82.5,SBD,Wraps,Yes,Amateur Open,1982-09-28,81.9,200,205,-212.5,,205,150,155,157.5,,157.5,230,240,247.5,,247.5,610,1
Ivan Mikhaylyuk,Иван Михайлюк,M,82.5,SBD,Wraps,Yes,Amateur Open,1977-01-15,81.95,-200,200,-210,,200,130,140,-145,,140,-230,230,-260,,230,570,2
Sarkis Trapizonyan,Саркис Трапизонян,M,82.5,SBD,Wraps,Yes,Amateur Masters 40-44,1967-06-26,75.5,150,160,,,160,90,-95,-95,,90,170,180,-190,,180,430,1
Dmitriy Kirichenko,Дмитрий Кириченко,M,90,SBD,Wraps,Yes,Amateur Teen 16-17,1991-01-28,87.25,160,170,-180,,170,120,130,,,130,190,200,,,200,500,1
Aleksey Kharauzov,Алексей Хараузов,M,90,SBD,Wraps,Yes,Amateur Open,1973-10-25,89.05,210,222.5,230,,230,190,200.5,205,,205,240,260,-265,,260,695,1
Omar Aytekov,Омар Айтеков,M,90,SBD,Wraps,Yes,Amateur Open,1979-10-21,90,210,230,240,,240,-160,165,-170,,165,235,-250,260,,260,665,2
Vasiliy Fursa,Василий Фурса,M,90,SBD,Wraps,Yes,Amateur Open,1979-08-05,85.6,-190,-190,190,,190,130,-140,-140,,130,225,235,-240,,235,555,3
Ilya Timko,Илья Тимко,M,100,SBD,Wraps,Yes,Amateur Juniors 20-23,1984-09-22,95.1,190,205,,,205,120,130,,,130,220,240,-250,,240,575,1
Vladimir Koneev,Владимир Конеев,M,100,SBD,Wraps,Yes,Amateur Open,1974-03-30,97.1,220,-230,230,,230,-140,140,145,,145,270,277.5,285,,285,660,1
Roman Shevchenko,Роман Шевченко,M,100,SBD,Wraps,Yes,Amateur Open,1981-06-17,94.5,170,-175,175,,175,-140,145,-150,,145,240,-270.5,,,240,560,2
Eldar Babaev,Эльдар Бабаев,M,100,SBD,Wraps,Yes,Amateur Open,1981-06-29,96,-170,175,180,,180,-165,-170,-170,,,,,,,,,DQ
Vladimir Minin,Владимир Минин,M,100,SBD,Wraps,Yes,Amateur Masters 40-44,1967-08-29,100,250,257.5,,,257.5,145,150,155,,155,230,242.5,252.5,,252.5,665,1
Aleksandr Yumatov,Александр Юматов,M,110,SBD,Wraps,Yes,Amateur Teen 18-19,1989-10-11,110,-180,180,200,,200,140,-160,-160,,140,180,210,-250,,210,550,1
Aleksandr Shishkin,Александр Шишкин,M,110,SBD,Wraps,Yes,Amateur Juniors 20-23,1984-06-09,101.4,180,190,-200,,190,120,-130,-130,,120,220,230,-240,,230,540,1
Aleksey Istomin,Алексей Истомин,M,110,SBD,Wraps,Yes,Amateur Open,1980-11-16,108.4,-240,240,245,,245,190,200,,,200,240,260,280,,280,725,1
Nikolay Mokeev,Николай Мокеев,M,110,SBD,Wraps,Yes,Amateur Open,1980-10-18,104.1,245,255,265,,265,170,180,185,,185,220,230,240,,240,690,2
Sergey Starodubskiy,Сергей Стародубский,M,110,SBD,Wraps,Yes,Amateur Open,1977-12-20,106.3,-220,220,-235,,220,150,-165,175,,175,220,240,255,,255,650,3
Artem Prisyazhnyy,Артем Присяжный,M,110,SBD,Wraps,Yes,Amateur Open,1981-05-30,106.85,-190,-190,190,,190,157.5,-165,-165,,157.5,240,255,-270,,255,602.5,4
Aleksandr Zaytsev,Александр Зайцев,M,110,SBD,Wraps,Yes,Amateur Open,1980-04-06,106.9,-260,-260,-260,,,,,,,,,,,,,,DQ
Egber Kurbanov,Эгбер Курбанов,M,110,SBD,Wraps,Yes,Amateur Masters 40-44,1968-02-21,105,190,-210,-210,,190,150,160,-167.5,,160,200,215,230,,230,580,1
Oleg Khapaev,Олег Хапаев,M,110,SBD,Wraps,Yes,Amateur Masters 40-44,1964-05-23,110,180,-190,-195,,180,170,180,-190,,180,200,210,220,,220,580,2
Sergey Lukyanov,Сергей Лукьянов,M,125,SBD,Wraps,Yes,Amateur Open,1973-05-27,119.1,260,275,-285,,275,200,215,220,,220,260,280,-290,,280,775,1
Aleksandr Teterin,Александр Тетерин,M,125,SBD,Wraps,Yes,Amateur Open,1974-11-15,124.3,190,200,,,200,125,132.5,-137.5,,132.5,270,280,-282.5,,280,612.5,2
Aleksandr Stepanenko,Александр Степаненко,M,140,SBD,Wraps,Yes,Amateur Open,1974-07-25,125.5,-250,250,270,,270,160,175,185,,185,290,310,320,,320,775,1
Elena Arkhipova,Елена Архипова,F,52,SBD,Multi-ply,Yes,Amateur Juniors 20-23,1987-01-10,50.5,-80,90,95,,95,50,-55,-60,,50,90,110,,,110,255,1
Veronika Rudnevskaya,Вероника Рудневская,F,52,SBD,Multi-ply,Yes,Amateur Open,1974-04-24,51.5,-110,110,-115,,110,-60,-60,-60,,,-115,,,,,,DQ
Mariya Berezenko,Мария Березенко,F,56,SBD,Multi-ply,Yes,Amateur Teen 18-19,1989-05-15,55.2,125,140,150,,150,70,75,-77.5,,75,115,125,135,,135,360,1
Marina Tuz,Марина Туз,F,56,SBD,Multi-ply,Yes,Amateur Open,1971-03-14,53.7,110,-120,120,,120,-62.5,-62.5,-62.5,,,-110,,,,,,DQ
Yuliya Umerenkova,Юлия Умеренкова,F,67.5,SBD,Multi-ply,Yes,Amateur Open,1980-12-09,67.25,-180,-180,180,-200.5,180,62.5,88,-92.5,,88,155,171,-175,,171,439,2
Ekaterina Efimova,Екатерина Ефимова,F,75,SBD,Multi-ply,Yes,Amateur Teen 13-15,1992-05-25,74.9,95,-100,100,,100,30,35,40,,40,85,95,105,,105,245,1
Marina Shabaeva,Марина Шабаева,F,90,SBD,Multi-ply,Yes,Amateur Open,1971-06-01,86.4,155,165,-170,,165,-95,95,-100,,95,145,155,160,,160,420,1
Timur Orlikov,Тимур Орликов,M,56,SBD,Multi-ply,Yes,Amateur Teen 13-15,1993-09-15,55.25,130,135,140,-145,140,65,-70,-70,,65,-135,140,150,160,150,355,1
Evgeniy Abdysha,Евгений Абдыша,M,56,SBD,Multi-ply,Yes,Amateur Teen 16-17,1991-03-26,54.25,100,-110,110,,110,65,70,-72.5,,70,125,-135,-135,,125,305,1
Aleksandr Osipovskiy,Александр Осиповский,M,56,SBD,Multi-ply,Yes,Amateur Teen 18-19,1988-11-13,55.7,-110,110,120,,120,70,-75,75,,75,105,120,-135,,120,315,1
Evgeniy Seroshtan,Евгений Сероштан,M,67.5,SBD,Multi-ply,Yes,Amateur Teen 16-17,1990-08-31,67.5,170,-185,185,,185,105,115,125,-133,125,180,200,-217.5,,200,510,2
Grigor Ispiryan,Григор Испирян,M,67.5,SBD,Multi-ply,Yes,Amateur Teen 16-17,1990-12-30,67.5,-180,-180,,,,,,,,,,,,,,,DQ
Zaur Gusenov,Заур Гусейнов,M,67.5,SBD,Multi-ply,Yes,Amateur Juniors 20-23,1986-11-21,65.4,190,200,-210,,200,-115,115,120,-128,120,160,170,175,,175,495,1
Mikhail Moseyko,Михаил Мосейко,M,67.5,SBD,Multi-ply,Yes,Amateur Juniors 20-23,1984-10-06,67.45,130,140,150,,150,-120,-120,-120,,,,,,,,,DQ
Sergey Prosviryak,Сергей Просвиряк,M,67.5,SBD,Multi-ply,Yes,Amateur Open,1983-12-01,67.45,180,190,205,,205,-110,-120,-120,,,,,,,,,DQ
Vladislav Lopatin,Владислав Лопатин,M,75,SBD,Multi-ply,Yes,Amateur Teen 16-17,1990-05-14,72.95,195,205,-215,,205,170,175,,,175,185,192.5,-197.5,,192.5,572.5,1
Pavel Volkov,Павел Волков,M,75,SBD,Multi-ply,Yes,Amateur Teen 16-17,1991-04-15,72.4,190,-205,-205,,190,-130,135,-145,,135,200,212.5,215.5,220.5,215.5,540,2
Denis Mustafin,Денис Мустафин,M,75,SBD,Multi-ply,Yes,Amateur Teen 18-19,1988-06-08,71.8,150,160,170,,170,110,-115,,,110,140,150,160,,160,440,2
Maksim Maltsev,Максим Мальцев,M,75,SBD,Multi-ply,Yes,Amateur Teen 18-19,1990-03-01,75,-220,-220,-220,,,,,,,,,,,,,,DQ
Aleksandr Smirnov,Александр Смирнов,M,75,SBD,Multi-ply,Yes,Amateur Open,1983-12-18,73.9,205,215,-230,,215,-130,-130,130,,130,190,-200,-200,,190,535,4
Aleksandr Panaskin,Александр Панаскин,M,82.5,SBD,Multi-ply,Yes,Amateur Teen 16-17,1991-06-27,82.5,170,200,-220,,200,90,130,140,-150,140,180,200,-210,,200,540,2
Vladimir Konkin,Владимир Конкин,M,82.5,SBD,Multi-ply,Yes,Amateur Teen 18-19,1989-06-21,80.15,240,-265,265,-270,265,-135,-135,-135,,,,,,,,,DQ
Aleksandr Dubrovin,Александр Дубровин,M,82.5,SBD,Multi-ply,Yes,Amateur Juniors 20-23,1987-11-15,79.55,-230,240,-250,,240,170,-175,175,,175,220,235,-245,,235,650,4
Daniel Khasanshin,Даниэл Хасаншин,M,82.5,SBD,Multi-ply,Yes,Amateur Juniors 20-23,1986-11-28,80.1,-225,235,245,,245,125,135,145,,145,210,222.5,225,,225,615,5
Vitaliy Dubrovin,Виталий Дубровин,M,82.5,SBD,Multi-ply,Yes,Amateur Juniors 20-23,1987-11-15,79.2,220,230,-240,,230,150,-160,-160,,150,220,-230,232.5,,232.5,612.5,6
Aleksandr Glovatskiy,Александр Гловацкий,M,82.5,SBD,Multi-ply,Yes,Amateur Juniors 20-23,1984-10-30,81.3,-280,-280,-280,,,,,,,,,,,,,,DQ
Sergey Ayvazov,Сергей Айвазов,M,82.5,SBD,Multi-ply,Yes,Amateur Open,1977-07-19,78.3,330,350,-370,,350,-180,-180,180,,180,260,-292.5,-292.5,,260,790,2
Aleksey Safonov,Алексей Сафонов,M,82.5,SBD,Multi-ply,Yes,Amateur Open,1976-10-03,81.3,240,265,275,,275,140,150,160,,160,230,-250,-250,,230,665,4
Vitaliy Tereshchenko,Віталій Терещенко,M,82.5,SBD,Multi-ply,Yes,Amateur Open,1974-06-09,81.1,-230,240,260,,260,120,130,,,130,-250,-250,250,,250,640,5
Ernest Gazaryan,Эрнест Газарян,M,82.5,SBD,Multi-ply,Yes,Amateur Open,1979-09-27,80.4,-220,-230,230,,230,150,-160,,,150,180,200,-210,,200,580,6
Evgeniy Panferov,Евгений Панферов,M,90,SBD,Multi-ply,Yes,Amateur Teen 16-17,1991-03-31,90,240,-250,-255,,240,135,145,150,,150,200,220,235,,235,625,1
Vitaliy Balashov,Виталий Балашов,M,90,SBD,Multi-ply,Yes,Amateur Teen 18-19,1988-10-18,85.55,230,240,-250,,240,-120,120,-135,,120,250,260,-265,,260,620,1
Ilya Selivanov,Илья Селиванов,M,90,SBD,Multi-ply,Yes,Amateur Teen 18-19,1989-03-02,85.7,185,195,210,,210,125,135,140,,140,155,175,185,,185,535,4
Rafik Zeynalov,Рафик Зейналов,M,90,SBD,Multi-ply,Yes,Amateur Juniors 20-23,1987-07-22,88.9,-225,225,-235,,225,130,142.5,152.5,,152.5,200,215,-225,,215,592.5,4
Grigoriy Nikolskiy,Григорий Никольский,M,90,SBD,Multi-ply,Yes,Amateur Open,1983-05-16,88.1,160,170,-177.5,,170,110,-115,-115,,110,170,180,190,,190,470,6
Pavel Petrenko,Павел Петренко,M,100,SBD,Multi-ply,Yes,Amateur Juniors 20-23,1985-06-12,95.9,200,210,222.5,,222.5,140,150,160,,160,200,210,220,,220,602.5,4
Ivan Maslov,Иван Маслов,M,100,SBD,Multi-ply,Yes,Amateur Juniors 20-23,1986-03-27,98.75,190,205,220,,220,150,170,-180,,170,180,190,,,190,580,5
Aleksey Isakov,Алексей Исаков,M,100,SBD,Multi-ply,Yes,Amateur Open,1972-02-16,97.55,260,275,280,,280,165,175,-180,,175,220,240,-262.5,,240,695,6
Oleg Pisachenko,Олег Писаченко,M,100,SBD,Multi-ply,Yes,Amateur Open,1965-11-12,99,245,,,,245,170,,,,170,220,,,,220,635,9
Oleg Kozin,Олег Козин,M,100,SBD,Multi-ply,Yes,Amateur Open,1970-07-24,98.4,240,-260,260,,260,-195,-195,-195,,,-235,,,,,,DQ
Oleg Pisachenko,Олег Писаченко,M,100,SBD,Multi-ply,Yes,Amateur Masters 40-44,1965-11-12,99,230,240,245,,245,-170,170,-175,,170,210,220,-225,,220,635,3
Oleg Kholodov,Олег Холодов,M,100,SBD,Multi-ply,Yes,Amateur Masters 45-49,1961-11-27,94,-200,-210,-210,,,,,,,,,,,,,,DQ
Sergey Starodubskiy,Сергей Стародубский,M,110,SBD,Multi-ply,Yes,Amateur Open,1977-12-20,106.3,-285,,,,,-225,,,,,-230,,,,,,DQ
Sergey Kirillov,Сергей Кириллов,M,110,SBD,Multi-ply,Yes,Amateur Masters 50-54,1954-11-08,103.4,-170,,,,,-160,,,,,-190,,,,,,DQ
Vladimir Sushchak,Владимир Сущак,M,140,SBD,Multi-ply,Yes,Amateur Open,1972-09-25,131,200,,,,200,250,260,,,260,200,,,,200,660,3
Ekaterina Shkolnaya,Екатерина Школьная,F,52,B,Raw,Yes,Amateur Teen 13-15,1993-08-12,49.9,,,,,,35,40,,,40,,,,,,40,1
Nataliya Bubenshchikova,Наталия Бубенщикова,F,52,B,Raw,Yes,Amateur Open,1973-09-07,51.5,,,,,,55,57.5,60,,60,,,,,,60,1
Svetlana Grigoreva,Светлана Григорьева,F,52,B,Raw,Yes,Amateur Open,1969-08-01,50.9,,,,,,57.5,-62.5,-62.5,,57.5,,,,,,57.5,2
Alisa Skopina,Алиса Скопина,F,56,B,Raw,Yes,Amateur Teen 16-17,1990-05-31,54.35,,,,,,40,-52.5,52.5,,52.5,,,,,,52.5,1
Oksana Butina,Оксана Бутина,F,56,B,Raw,Yes,Amateur Juniors 20-23,1985-07-06,52.4,,,,,,-45,47.5,-52.5,,47.5,,,,,,47.5,1
Ekaterina Naddaka-Bortsova,Екатерина Наддака-Борцова,F,56,B,Raw,Yes,Amateur Open,1982-07-20,55.9,,,,,,42.5,47.5,-52.5,,47.5,,,,,,47.5,1
Irina Ivashechkina,Ирина Ивашечкина,F,56,B,Raw,Yes,Amateur Open,1971-07-10,52.1,,,,,,35,40,-45,,40,,,,,,40,2
Tatyana Avakyan,Татьяна Авакян,F,56,B,Raw,Yes,Amateur Masters 40-44,1964-03-02,55.8,,,,,,42.5,47.5,-52.5,,47.5,,,,,,47.5,1
Natalya Goncharova,Наталья Гончарова,F,60,B,Raw,Yes,Amateur Open,1974-09-06,59.05,,,,,,-75,75,-77.5,,75,,,,,,75,1
Alena Filimonova,Алена Филимонова,F,67.5,B,Raw,Yes,Amateur Open,1982-08-30,65.3,,,,,,50,60,-62.5,,60,,,,,,60,1
Galina Tsverova,Галина Цверова,F,75,B,Raw,Yes,Amateur Masters 75-79,1931-07-31,74.9,,,,,,30,-35,-35,,30,,,,,,30,1
Sergey Sergeev,Сергей Сергеев,M,52,B,Raw,Yes,Amateur Teen 18-19,1990-02-17,51.7,,,,,,92.5,100,105,,105,,,,,,105,1
Arman Petrosyan,Арман Петросян,M,56,B,Raw,Yes,Amateur Teen 13-15,1993-03-28,54.05,,,,,,55,62.5,65,,65,,,,,,65,1
Fakhri Guliev,Фахри Гулиев,M,56,B,Raw,Yes,Amateur Teen 16-17,1991-11-11,55.2,,,,,,100,105,-110,,105,,,,,,105,1
Artur Mirakyan,Артур Миракян,M,56,B,Raw,Yes,Amateur Teen 16-17,1990-04-05,54.3,,,,,,95,100,-105,,100,,,,,,100,2
Vladislav Kadin,Владислав Кадин,M,60,B,Raw,Yes,Amateur Teen 13-15,1993-03-26,59.95,,,,,,-65,70,-77.5,,70,,,,,,70,1
Sergey Guliev,Сергей Гулиев,M,60,B,Raw,Yes,Amateur Teen 13-15,1994-08-21,56.65,,,,,,-60,65,-67.5,,65,,,,,,65,2
Aleksandr Skiba,Александр Скиба,M,60,B,Raw,Yes,Amateur Teen 13-15,1993-01-30,57.9,,,,,,-75,-75,-75,,,,,,,,,DQ
Yashar Nabiev,Яшар Набиев,M,60,B,Raw,Yes,Amateur Teen 16-17,1990-03-31,57.85,,,,,,120,-125,125,125.5,125,,,,,,125,1
Vage Vartanyan,Вагэ Вартанян,M,60,B,Raw,Yes,Amateur Teen 16-17,1991-09-02,59.1,,,,,,115,-120,-120,,115,,,,,,115,2
Ivan Anuchin,Иван Анучин,M,60,B,Raw,Yes,Amateur Teen 16-17,1990-04-17,59.65,,,,,,60,70,75,,75,,,,,,75,3
Mikhail Varfolomeev,Михаил Варфоломеев,M,60,B,Raw,Yes,Amateur Open,1981-02-13,59.85,,,,,,90,95,-100,,95,,,,,,95,1
Suren Chatyan,Сурен Чатян,M,67.5,B,Raw,Yes,Amateur Teen 13-15,1992-04-08,67.5,,,,,,60,-65,-65,,60,,,,,,60,1
Nail Amrakhov,Наиль Амрахов,M,67.5,B,Raw,Yes,Amateur Teen 13-15,1993-08-01,64.7,,,,,,-65,-65,-65,,,,,,,,,DQ
Pavel Kazantsev,Павел Казанцев,M,67.5,B,Raw,Yes,Amateur Teen 16-17,1990-10-05,65.45,,,,,,90,95,-100,,95,,,,,,95,1
Pargev Khachatryan,Паргев Хачатрян,M,67.5,B,Raw,Yes,Amateur Teen 16-17,1991-10-03,67,,,,,,92.5,95,-102.5,,95,,,,,,95,2
Albert Atabaev,Альберт Атабаев,M,67.5,B,Raw,Yes,Amateur Teen 16-17,1991-08-22,65.5,,,,,,82.5,87.5,92.5,,92.5,,,,,,92.5,3
Pavel Grigoryan,Павел Григорян,M,67.5,B,Raw,Yes,Amateur Teen 18-19,1989-12-15,66,,,,,,-125,-125,-130,,,,,,,,,DQ
Timur Abdumuminov,Тимур Абдумуминов,M,67.5,B,Raw,Yes,Amateur Juniors 20-23,1985-06-26,63.95,,,,,,125,-130,-130,,125,,,,,,125,1
Renat Timushev,Ренат Тимушев,M,67.5,B,Raw,Yes,Amateur Open,1978-07-16,64.35,,,,,,-115,115,-130,,115,,,,,,115,1
Arkadiy Osipyan,Аркадий Осипян,M,67.5,B,Raw,Yes,Amateur Masters 45-49,1963-02-11,67,,,,,,95,,,,95,,,,,,95,1
Yuriy Kiselyov,Юрий Киселёв,M,67.5,B,Raw,Yes,Amateur Masters 70-74,1937-11-12,66,,,,,,70,75,-80,,75,,,,,,75,1
Georgiy Lambrianidis,Георгий Ламбрианидис,M,75,B,Raw,Yes,Amateur Teen 13-15,1992-05-01,70.2,,,,,,100,110,-117.5,,110,,,,,,110,1
Grigoriy Kembike,Григорий Кембике,M,75,B,Raw,Yes,Amateur Teen 13-15,1993-04-18,69.4,,,,,,-95,-95,95,,95,,,,,,95,2
Egor Kletsko,Егор Клецко,M,75,B,Raw,Yes,Amateur Teen 16-17,1992-01-20,73.5,,,,,,100,-110,110,,110,,,,,,110,1
Sergey Nechaev,Сергей Нечаев,M,75,B,Raw,Yes,Amateur Teen 16-17,1991-06-15,75,,,,,,90,100,-110,,100,,,,,,100,2
Evgeniy Sukhovenko,Евгений Суховенко,M,75,B,Raw,Yes,Amateur Teen 16-17,1991-03-14,71.6,,,,,,-82,-82,85,,85,,,,,,85,3
Anatoliy Fedotov,Анатолий Федотов,M,75,B,Raw,Yes,Amateur Teen 18-19,1989-06-17,71.3,,,,,,-127.5,127.5,132.5,,132.5,,,,,,132.5,1
Boris Arutyunyan,Борис Арутюнян,M,75,B,Raw,Yes,Amateur Teen 18-19,,74.75,,,,,,-115,-115,-120,,,,,,,,,DQ
Artem Sychkov,Артем Сычков,M,75,B,Raw,Yes,Amateur Juniors 20-23,1985-10-02,71.9,,,,,,125,135,-140,,135,,,,,,135,1
Vasiliy Shabanov,Василий Шабанов,M,75,B,Raw,Yes,Amateur Juniors 20-23,1985-05-09,69.9,,,,,,120,-125,-125,,120,,,,,,120,2
Sergey Moskvin,Сергей Москвин,M,75,B,Raw,Yes,Amateur Open,1983-11-04,72.15,,,,,,130,-140,-140,,130,,,,,,130,1
Rustem Khusainov,Рустем Хусаинов,M,75,B,Raw,Yes,Amateur Open,1974-02-01,74.8,,,,,,125,-132.5,-132.5,,125,,,,,,125,2
Viktor Kosenko,Виктор Косенко,M,75,B,Raw,Yes,Amateur Open,1972-03-30,74.85,,,,,,-115,115,-120,,115,,,,,,115,3
Yuliya Semiglazova,Юлия Семиглазова,F,75,B,Raw,Yes,Amateur Open,1977-08-15,72.3,,,,,,-72.5,-72.5,-72.5,,,,,,,,,DQ
Aleksandr Bulimin,Александр Булимин,M,75,B,Raw,Yes,Amateur Open,1980-10-24,72.3,,,,,,-155,-162.5,-162.5,,,,,,,,,DQ
Igor Ivanov #10,Игорь Иванов,M,75,B,Raw,Yes,Amateur Masters 40-44,1967-08-25,73.8,,,,,,-130,130,140,,140,,,,,,140,1
Konstantin Chekin,Константин Чекин,M,75,B,Raw,Yes,Amateur Masters 40-44,1968-02-11,73.75,,,,,,90,-95,-95,,90,,,,,,90,2
Vladimir Reshetnikov,Владимир Решетников,M,75,B,Raw,Yes,Amateur Masters 45-49,1960-04-16,75,,,,,,162.5,-170,-170,,162.5,,,,,,162.5,1
Gennadiy Pereladov,Геннадий Переладов,M,75,B,Raw,Yes,Amateur Masters 70-74,1936-06-06,73.65,,,,,,-90,,,,,,,,,,,DQ
Artem Logunov,Артем Логунов,M,82.5,B,Raw,Yes,Amateur Teen 16-17,1991-01-30,78.6,,,,,,120,-132.5,-132.5,,120,,,,,,120,1
Vasiliy Mukhachev,Василий Мухачев,M,82.5,B,Raw,Yes,Amateur Teen 16-17,1991-04-23,75.1,,,,,,90,95,100,,100,,,,,,100,2
Artem Klassovich,Артем Классович,M,82.5,B,Raw,Yes,Amateur Teen 18-19,1989-03-14,75.55,,,,,,110,120,125,,125,,,,,,125,1
Pavel Alenin,Павел Аленин,M,82.5,B,Raw,Yes,Amateur Teen 18-19,1989-11-04,79.5,,,,,,125,-132.5,-132.5,,125,,,,,,125,2
Vitaliy Dubrovin,Виталий Дубровин,M,82.5,B,Raw,Yes,Amateur Juniors 20-23,1987-11-15,79.2,,,,,,140,145,-150,,145,,,,,,145,1
Andrey Makarenkov,Андрей Макаренков,M,82.5,B,Raw,Yes,Amateur Juniors 20-23,1985-11-19,80.3,,,,,,140,-150,-150,,140,,,,,,140,2
Evgeniy Rychkov,Евгений Рычков,M,82.5,B,Raw,Yes,Amateur Juniors 20-23,1985-07-08,77.95,,,,,,125,132.5,137.5,,137.5,,,,,,137.5,3
Evgeniy Narozhnyy,Евгений Нарожный,M,82.5,B,Raw,Yes,Amateur Juniors 20-23,1988-01-27,81.8,,,,,,-132.5,-132.5,-132.5,,,,,,,,,DQ
Sergey Grishko,Сергей Гришко,M,82.5,B,Raw,Yes,Amateur Open,1980-01-07,78.35,,,,,,185,190,,,190,,,,,,190,1
Mikhail Veber,Михаил Вебер,M,82.5,B,Raw,Yes,Amateur Open,1971-07-29,82.5,,,,,,181,186,,,186,,,,,,186,2
Andrey Galayda,Андрей Галайда,M,82.5,B,Raw,Yes,Amateur Open,1972-02-07,81.9,,,,,,175,-185,-185,,175,,,,,,175,3
Aleksey Blintsov,Алексей Блинцов,M,82.5,B,Raw,Yes,Amateur Open,1980-03-13,80.2,,,,,,-160,160,-172.5,,160,,,,,,160,4
Sergey Shulga,Сергей Шульга,M,82.5,B,Raw,Yes,Amateur Open,1979-06-13,81.9,,,,,,150,-155,155,,155,,,,,,155,5
Andrey Nerubenko,Андрей Нерубенко,M,82.5,B,Raw,Yes,Amateur Open,1979-11-28,82.5,,,,,,150,-155,155,,155,,,,,,155,6
Mikhail Levadnyy,Михаил Левадный,M,82.5,B,Raw,Yes,Amateur Open,1981-03-20,80,,,,,,150,-172.5,,,150,,,,,,150,7
Dmitriy Ivashechkin,Дмитрий Ивашечкин,M,82.5,B,Raw,Yes,Amateur Open,1971-01-04,76.9,,,,,,120,130,-135,,130,,,,,,130,8
Vitaliy Tenishchev,Виталий Тенищев,M,82.5,B,Raw,Yes,Amateur Open,1983-01-31,80.9,,,,,,-132.5,-132.5,-132.5,,,,,,,,,DQ
Vladimir Tyumentsov,Владимир Тюменцов,M,82.5,B,Raw,Yes,Amateur Masters 45-49,1960-04-18,81.75,,,,,,120,130,132.5,,132.5,,,,,,132.5,1
Igor Taratin,Игорь Таратин,M,82.5,B,Raw,Yes,Amateur Masters 50-54,1955-07-06,81.8,,,,,,90,-95,95,,95,,,,,,95,1
Nikolay Kolbasin,Николай Колбасин,M,90,B,Raw,Yes,Amateur Teen 18-19,1988-06-16,87.7,,,,,,140,-155,-155,,140,,,,,,140,1
Aleksandr Kapustyanskiy,Александр Капустянский,M,90,B,Raw,Yes,Amateur Teen 18-19,1989-04-14,87.75,,,,,,110,120,-125,,120,,,,,,120,2
Aleksnadr Moskovoy,Алекснадр Московой,M,90,B,Raw,Yes,Amateur Teen 18-19,1988-06-04,84.1,,,,,,110,-120,-120,,110,,,,,,110,3
Konstantin Vanin,Константин Ванин,M,90,B,Raw,Yes,Amateur Juniors 20-23,1986-07-07,89,,,,,,155,160,165,170,165,,,,,,165,1
Maksim Markov,Максим Марков,M,90,B,Raw,Yes,Amateur Juniors 20-23,1985-11-07,87.35,,,,,,150,155,-157.5,,155,,,,,,155,2
Sergey Dubin,Сергей Дубин,M,90,B,Raw,Yes,Amateur Juniors 20-23,1985-06-27,87.6,,,,,,-135,-137.5,137.5,,137.5,,,,,,137.5,3
Sergey Komarov,Сергей Комаров,M,90,B,Raw,Yes,Amateur Juniors 20-23,1984-09-16,87.9,,,,,,137.5,-155,-155,,137.5,,,,,,137.5,4
Aleksey Kharauzov,Алексей Хараузов,M,90,B,Raw,Yes,Amateur Open,1973-10-25,89.9,,,,,,185,195,205,,205,,,,,,205,1
Omar Aytekov,Омар Айтеков,M,90,B,Raw,Yes,Amateur Open,1979-10-21,90,,,,,,160,165,-170,,165,,,,,,165,2
Vladimir Matrokhin,Владимир Матрохин,M,90,B,Raw,Yes,Amateur Open,1976-08-15,88.4,,,,,,140,155,-160,,155,,,,,,155,3
Aleksandr Sanakoev,Александр Санакоев,M,90,B,Raw,Yes,Amateur Open,1980-01-17,89.1,,,,,,155,-160,-160,,155,,,,,,155,4
Aleksandr Brykalov,Александр Брыкалов,M,90,B,Raw,Yes,Amateur Open,1973-12-12,87.55,,,,,,140,-155,-155,,140,,,,,,140,5
Ruslan Gribukov,Руслан Грибуков,M,90,B,Raw,Yes,Amateur Open,1977-09-06,88.8,,,,,,-150,-150,-150,,,,,,,,,DQ
Aleksandr Belyaev,Александр Беляев,M,90,B,Raw,Yes,Amateur Masters 45-49,1962-09-23,88.55,,,,,,125,135,142.5,,142.5,,,,,,142.5,1
Vasiliy Shmoylov,Василий Шмойлов,M,90,B,Raw,Yes,Amateur Masters 45-49,1960-04-28,90,,,,,,-110,115,-120,,115,,,,,,115,2
Vladimir Muran,Владимир Муран,M,90,B,Raw,Yes,Amateur Masters 50-54,1957-05-19,86.45,,,,,,-137.5,-137.5,-137.5,,,,,,,,,DQ
Aleksandr Averin,Александр Аверин,M,100,B,Raw,Yes,Amateur Juniors 20-23,1987-05-21,95.7,,,,,,152.5,157.5,162.5,,162.5,,,,,,162.5,1
Armen Mattevosyan,Армен Маттевосян,M,100,B,Raw,Yes,Amateur Juniors 20-23,1986-07-27,97.8,,,,,,140,145,150,,150,,,,,,150,2
Ivan Matyushenko,Иван Матюшенко,M,100,B,Raw,Yes,Amateur Juniors 20-23,1984-11-16,99.45,,,,,,150,-155,-157.5,,150,,,,,,150,3
Anton Kostyukov,Антон Костюков,M,100,B,Raw,Yes,Amateur Juniors 20-23,1986-09-12,97.9,,,,,,130,-140,-140,,130,,,,,,130,4
Konstantin Mochalov,Константин Мочалов,M,100,B,Raw,Yes,Amateur Open,1979-10-21,97.7,,,,,,187.5,-195,-195,,187.5,,,,,,187.5,1
Roman Zalyubovskiy,Роман Залюбовский,M,100,B,Raw,Yes,Amateur Open,1977-10-10,98,,,,,,180,185,-187.5,,185,,,,,,185,2
Dzhamal Mamatkulov,Джамал Маматкулов,M,100,B,Raw,Yes,Amateur Open,1977-01-01,98.15,,,,,,175,-180,-180,,175,,,,,,175,3
Aleksey Isakov,Алексей Исаков,M,100,B,Raw,Yes,Amateur Open,1972-02-16,97.55,,,,,,162.5,170,-180,,170,,,,,,170,4
Aleksandr Petrov,Александр Петров,M,100,B,Raw,Yes,Amateur Open,1979-07-19,98.35,,,,,,170,-180,-180,,170,,,,,,170,5
Andrey Kanatkin,Андрей Канаткин,M,100,B,Raw,Yes,Amateur Open,1974-09-01,97,,,,,,155,162.5,,,162.5,,,,,,162.5,6
Eldar Babaev,Эльдар Бабаев,M,100,B,Raw,Yes,Amateur Open,1981-06-29,96,,,,,,160,-165,-165,,160,,,,,,160,7
Evgeniy Gubin,Евгений Губин,M,100,B,Raw,Yes,Amateur Open,1975-12-12,98.2,,,,,,145,-162.5,-162.5,,145,,,,,,145,8
Vitaliy Bakhturin,Виталий Бахтурин,M,100,B,Raw,Yes,Amateur Open,1977-07-15,99.1,,,,,,135,145,-152.5,,145,,,,,,145,9
Oleg Pisachenko,Олег Писаченко,M,100,B,Raw,Yes,Amateur Masters 40-44,1965-11-12,98.5,,,,,,135,145,150,,150,,,,,,150,1
Valeriy Tsyganov,Валерий Цыганов,M,100,B,Raw,Yes,Amateur Masters 50-54,1956-01-21,97.35,,,,,,110,115,120,,120,,,,,,120,1
Aleksandr Yumatov,Александр Юматов,M,110,B,Raw,Yes,Amateur Teen 18-19,1989-10-11,110,,,,,,140,150,-160,,150,,,,,,150,1
Suren Karapetyan-Mitsenko,Сурен Карапетян-Миценко,M,110,B,Raw,Yes,Amateur Open,1982-05-09,107,,,,,,180,200,-210,,200,,,,,,200,1
Aleksey Istomin,Алексей Истомин,M,110,B,Raw,Yes,Amateur Open,1980-11-16,109.9,,,,,,190,200,-207.5,,200,,,,,,200,2
Denis Zatsepin,Денис Зацепин,M,110,B,Raw,Yes,Amateur Open,1981-05-06,107.8,,,,,,167.5,-170,-170,,167.5,,,,,,167.5,3
Vyacheslav Mironov,Вячеслав Миронов,M,110,B,Raw,Yes,Amateur Open,1976-05-17,102.9,,,,,,115,-130,-130,,115,,,,,,115,4
Eduard Panshin,Эдуард Паншин,M,110,B,Raw,Yes,Amateur Open,1970-08-02,104.7,,,,,,-160,,,,,,,,,,,DQ
Aleksandr Zaytsev,Александр Зайцев,M,110,B,Raw,Yes,Amateur Open,1980-04-06,106.9,,,,,,-170,,,,,,,,,,,DQ
Igor Simanovskiy,Игорь Симановский,M,110,B,Raw,Yes,Amateur Masters 40-44,1965-03-28,108.8,,,,,,180,-195,-195,,180,,,,,,180,1
Oleg Khapaev,Олег Хапаев,M,110,B,Raw,Yes,Amateur Masters 40-44,1964-05-23,109.9,,,,,,180,-185,-185,,180,,,,,,180,2
Vladimir Karpov,Владимир Карпов,M,110,B,Raw,Yes,Amateur Masters 40-44,1964-10-23,106.6,,,,,,150,157.5,170,,170,,,,,,170,3
Egber Kurbanov,Эгбер Курбанов,M,110,B,Raw,Yes,Amateur Masters 40-44,1968-02-21,105.8,,,,,,147.5,157.5,-167.5,,157.5,,,,,,157.5,4
Sergey Lishchuk,Сергей Лищук,M,110,B,Raw,Yes,Amateur Masters 40-44,1967-11-05,101.8,,,,,,140,-145,,,140,,,,,,140,5
Vladimir Gusev,Владимир Гусев,M,110,B,Raw,Yes,Amateur Masters 45-49,1958-05-13,105.3,,,,,,167.5,175,-180,,175,,,,,,175,1
Vladimir Klim,Владимир Клим,M,110,B,Raw,Yes,Amateur Masters 50-54,1958-02-26,107.8,,,,,,-140,140,-147.5,,140,,,,,,140,1
Aleksey Kremnev,Алексей Кремнев,M,125,B,Raw,Yes,Amateur Juniors 20-23,1985-07-15,120.75,,,,,,-125,130,137.5,,137.5,,,,,,137.5,1
Sergey Lukyanov,Сергей Лукьянов,M,125,B,Raw,Yes,Amateur Open,1973-05-27,118.9,,,,,,210,-217.5,-217.5,,210,,,,,,210,1
Ivan Kulchitskiy,Иван Кульчицкий,M,125,B,Raw,Yes,Amateur Open,1981-11-28,111.35,,,,,,180,190,200,,200,,,,,,200,2
Vagif Safarov,Вагиф Сафаров,M,125,B,Raw,Yes,Amateur Open,1969-11-15,117,,,,,,175,185,-192.5,,185,,,,,,185,3
Evgeniy Butenko,Евгений Бутенко,M,125,B,Raw,Yes,Amateur Open,1976-04-27,116.7,,,,,,-175,175,180,,180,,,,,,180,4
Sergey Kharlamov,Сергей Харламов,M,125,B,Raw,Yes,Amateur Open,1969-04-09,119.2,,,,,,170,175,-182.5,,175,,,,,,175,5
Ramil Safonov,Рамил Сафонов,M,125,B,Raw,Yes,Amateur Open,1968-04-08,120.1,,,,,,175,-180,-180,,175,,,,,,175,6
Denis Fomin,Денис Фомин,M,125,B,Raw,Yes,Amateur Open,1977-07-15,123.65,,,,,,175,-180,,,175,,,,,,175,7
Sergey Prikhodko,Сергей Приходько,M,125,B,Raw,Yes,Amateur Masters 50-54,1956-10-15,114.5,,,,,,110,120,125,,125,,,,,,125,1
Yuriy Smirnov #1,Юрий Смирнов,M,140,B,Raw,Yes,Amateur Open,1971-12-18,136.1,,,,,,227.5,,,,227.5,,,,,,227.5,1
Aleksandr Karmazin,Александр Кармазин,M,140,B,Raw,Yes,Amateur Open,1982-06-28,130.6,,,,,,200,207.5,,,207.5,,,,,,207.5,2
Elena Arkhipova,Елена Архипова,F,52,B,Multi-ply,Yes,Amateur Juniors 20-23,1987-01-10,50.5,,,,,,50,-60,-60,,50,,,,,,50,1
Marina Tuz,Марина Туз,F,56,B,Multi-ply,Yes,Amateur Open,1971-03-14,53.75,,,,,,-57.5,57.5,-62.5,,57.5,,,,,,57.5,1
Elena Shtikh,Елена Штих,F,60,B,Multi-ply,Yes,Amateur Open,1983-06-02,58.7,,,,,,75,80,-85,,80,,,,,,80,1
Natalya Bako,Наталья Бако,F,82.5,B,Multi-ply,Yes,Amateur Open,1973-03-21,80.75,,,,,,110,-122.5,-130,,110,,,,,,110,2
Marina Shabaeva,Марина Шабаева,F,90,B,Multi-ply,Yes,Amateur Open,1971-06-01,86.4,,,,,,-92.5,,,,,,,,,,,DQ
Sergey Grechko,Сергей Гречко,M,52,B,Multi-ply,Yes,Amateur Teen 13-15,1992-11-08,52,,,,,,-80,80,-90,,80,,,,,,80,1
Pavel Efremov,Павел Ефремов,M,52,B,Multi-ply,Yes,Amateur Teen 18-19,1988-04-13,40,,,,,,,,,,,,,,,,,DQ
Fakhri Guliev,Фахри Гулиев,M,56,B,Multi-ply,Yes,Amateur Teen 16-17,1991-11-11,55.55,,,,,,105,112.5,-117.5,,112.5,,,,,,112.5,1
Temirlan Margoshvili,Темирлан Маргошвили,M,60,B,Multi-ply,Yes,Amateur Teen 16-17,1990-11-29,59.95,,,,,,95,-107.5,-122.5,,95,,,,,,95,1
Andrey Priymak,Андрей Приймак,M,67.5,B,Multi-ply,Yes,Amateur Teen 13-15,1992-12-27,67.45,,,,,,-90,90,100,,100,,,,,,100,1
Grigor Ispiryan,Григор Испирян,M,67.5,B,Multi-ply,Yes,Amateur Teen 16-17,1990-12-30,67.5,,,,,,120,130,-140,,130,,,,,,130,2
Aleksandr Anokhin,Александр Анохин,M,67.5,B,Multi-ply,Yes,Amateur Teen 16-17,1991-07-30,67.5,,,,,,125,-140,-140,,125,,,,,,125,3
Denis Knyaginin,Денис Княгинин,M,67.5,B,Multi-ply,Yes,Amateur Teen 18-19,1988-10-11,67.5,,,,,,-125,130,140,,140,,,,,,140,1
Vitaliy Pshenichnyy,Виталий Пшеничный,M,67.5,B,Multi-ply,Yes,Amateur Teen 18-19,1988-09-13,66.7,,,,,,110,-125,-125,,110,,,,,,110,2
Mikhail Moseyko,Михаил Мосейко,M,67.5,B,Multi-ply,Yes,Amateur Juniors 20-23,1984-10-06,66.2,,,,,,100,115,-125,,115,,,,,,115,2
Andrey Pushkaryov,Андрей Пушкарёв,M,67.5,B,Multi-ply,Yes,Amateur Juniors 20-23,1987-09-24,63,,,,,,100,110,-122.5,,110,,,,,,110,3
Valentin Kornev,Валентин Корнев,M,67.5,B,Multi-ply,Yes,Amateur Open,1981-12-02,66.7,,,,,,120,-130,132.5,,132.5,,,,,,132.5,1
Yuriy Kiselyov,Юрий Киселёв,M,67.5,B,Multi-ply,Yes,Amateur Masters 70-74,1937-11-12,66,,,,,,75,82.5,-90,,82.5,,,,,,82.5,1
Vladislav Lopatin,Владислав Лопатин,M,75,B,Multi-ply,Yes,Amateur Teen 16-17,1990-05-14,75,,,,,,170,180,182.5,,182.5,,,,,,182.5,1
Ilya Chudin,Илья Чудин,M,75,B,Multi-ply,Yes,Amateur Teen 16-17,1990-06-26,74.7,,,,,,140,150,-157.5,,150,,,,,,150,2
Aleksandr Simonov,Александр Симонов,M,75,B,Multi-ply,Yes,Amateur Juniors 20-23,1985-06-22,72.65,,,,,,130,-137.5,137.5,,137.5,,,,,,137.5,2
Viktor Mistratov,Виктор Мистратов,M,75,B,Multi-ply,Yes,Amateur Open,1981-02-10,74.75,,,,,,-175,175,187.5,,187.5,,,,,,187.5,2
Dmitriy Avdyukhin,Дмитрий Авдюхин,M,75,B,Multi-ply,Yes,Amateur Open,1981-08-08,74.6,,,,,,155,160,-177.5,,160,,,,,,160,5
Vladimir Belyaev,Владимир Беляев,M,75,B,Multi-ply,Yes,Amateur Open,1981-10-31,73.7,,,,,,152.5,157.5,,,157.5,,,,,,157.5,6
Maksim Udovichenko,Максим Удовиченко,M,82.5,B,Multi-ply,Yes,Amateur Teen 16-17,1990-09-16,81.45,,,,,,150,-160,-160,,150,,,,,,150,1
Aleksandr Panaskin,Александр Панаскин,M,82.5,B,Multi-ply,Yes,Amateur Teen 16-17,1991-06-27,81.6,,,,,,140,-150,150,,150,,,,,,150,2
Vladimir Konkin,Владимир Конкин,M,82.5,B,Multi-ply,Yes,Amateur Teen 18-19,1989-06-21,80.15,,,,,,90,125,140,,140,,,,,,140,2
Rinat Abubekirov,Ринат Абубекиров,M,82.5,B,Multi-ply,Yes,Amateur Juniors 20-23,1986-10-01,80.1,,,,,,170,175,180,,180,,,,,,180,3
Maksim Priymakov,Максим Приймаков,M,82.5,B,Multi-ply,Yes,Amateur Juniors 20-23,1987-11-09,78.4,,,,,,-130,130,-150,,130,,,,,,130,7
Valeriy Soroka,Валерий Сорока,M,82.5,B,Multi-ply,Yes,Amateur Juniors 20-23,1986-02-19,81.65,,,,,,130,-140,-140,,130,,,,,,130,8
Aleksandr Dubrovin,Александр Дубровин,M,82.5,B,Multi-ply,Yes,Amateur Juniors 20-23,1987-11-15,79.55,,,,,,170,-180,-180,,170,,,,,,170,4
Evgeniy Nechaev,Евгений Нечаев,M,82.5,B,Multi-ply,Yes,Amateur Open,1978-02-10,82,,,,,,240,-250,-250,,240,,,,,,240,1
Mikhail Veber,Михаил Вебер,M,82.5,B,Multi-ply,Yes,Amateur Open,1971-07-29,81.8,,,,,,215,-225,-242.5,,215,,,,,,215,5
Evgeniy Rusakov,Евгений Русаков,M,82.5,B,Multi-ply,Yes,Amateur Open,1980-01-28,80.2,,,,,,-175,-180,180,,180,,,,,,180,8
Sergey Grishko,Сергей Гришко,M,82.5,B,Multi-ply,Yes,Amateur Open,1980-01-07,78.35,,,,,,-222.5,-225,-225,,,,,,,,,DQ
Sergey Shulga,Сергей Шульга,M,82.5,B,Multi-ply,Yes,Amateur Open,1979-06-13,81.9,,,,,,-170,-180,-180,,,,,,,,,DQ
Boris Parshukov,Борис Паршуков,M,90,B,Multi-ply,Yes,Amateur Teen 16-17,1991-05-29,89.1,,,,,,140,-150,-150,,140,,,,,,140,1
Ilya Selivanov,Илья Селиванов,M,90,B,Multi-ply,Yes,Amateur Teen 18-19,1989-03-02,85.7,,,,,,125,137.5,-142.5,,137.5,,,,,,137.5,2
Leonid Sinodalov,Леонид Синодалов,M,90,B,Multi-ply,Yes,Amateur Juniors 20-23,1984-04-29,89.45,,,,,,190,197.5,202.5,-207.5,202.5,,,,,,202.5,3
Ayrat Fayzullin,Айрат Файзуллин,M,90,B,Multi-ply,Yes,Amateur Open,1972-03-05,90,,,,,,-185,190,-212.5,,190,,,,,,190,4
Konstantin Talda,Константин Талда,M,90,B,Multi-ply,Yes,Amateur Open,1971-01-09,89.8,,,,,,-180,180,-200,,180,,,,,,180,5
Ivan Kutygin,Иван Кутыгин,M,90,B,Multi-ply,Yes,Amateur Open,1983-10-22,87.25,,,,,,165,172.5,177.5,,177.5,,,,,,177.5,6
Aleksandr Bormotov,Александр Бормотов,M,90,B,Multi-ply,Yes,Amateur Open,1983-02-23,89.1,,,,,,-167.5,-170,-170,,,,,,,,,DQ
Oleg Stoyakin,Олег Стоякин,M,100,B,Multi-ply,Yes,Amateur Teen 16-17,1991-03-12,96.45,,,,,,90,100,-105,,100,,,,,,100,1
Valeriy Kurochkin,Валерий Курочкин,M,100,B,Multi-ply,Yes,Amateur Open,1978-11-09,97.65,,,,,,210,-240,-240,,210,,,,,,210,3
Oleg Kozin,Олег Козин,M,100,B,Multi-ply,Yes,Amateur Open,1970-07-24,98.4,,,,,,-192.5,-192.5,-192.5,,,,,,,,,DQ
Suren Karapetyan-Mitsenko,Сурен Карапетян-Миценко,M,110,B,Multi-ply,Yes,Amateur Open,1982-05-09,107.5,,,,,,220,-235,-235,,220,,,,,,220,8
Maksim Baydin,Максим Байдин,M,110,B,Multi-ply,Yes,Amateur Open,1977-08-18,106.3,,,,,,-240,-240,-240,,,,,,,,,DQ
Sergey Kirillov,Сергей Кириллов,M,110,B,Multi-ply,Yes,Amateur Masters 50-54,1954-11-08,103.8,,,,,,160,-167.5,-170,,160,,,,,,160,3
Ivan Kulchitskiy,Иван Кульчицкий,M,125,B,Multi-ply,Yes,Amateur Open,1981-11-28,111.35,,,,,,230,240,-250,,240,,,,,,240,5
Aleksey Belousov,Алексей Белоусов,M,125,B,Multi-ply,Yes,Amateur Open,1972-10-05,114.3,,,,,,180,200,-210,,200,,,,,,200,8
Sergey Kharlamov,Сергей Харламов,M,125,B,Multi-ply,Yes,Amateur Open,1969-04-09,119.2,,,,,,-200,-215,-215,,,,,,,,,DQ
Yuriy Lukyanchik,Юрий Лукьянчик,M,125,B,Multi-ply,Yes,Amateur Masters 40-44,1967-08-14,122.35,,,,,,155,165,172.5,,172.5,,,,,,172.5,2
Yuriy Smirnov #1,Юрий Смирнов,M,140,B,Multi-ply,Yes,Amateur Open,1971-12-18,136.1,,,,,,282.5,-287.5,-290,,282.5,,,,,,282.5,2
Anastasiya Sergienko,Анастасия Сергиенко,F,48,B,Multi-ply,No,Pro Juniors 20-23,1987-09-14,46.95,,,,,,-70,-75,75,-85.5,75,,,,,,75,1
Marina Zotova,Марина Зотова,F,48,B,Multi-ply,No,Pro Open,1983-09-23,46.3,,,,,,50,-82.5,-82.5,,50,,,,,,50,1
Lyudmila Grishechkina,Людмила Гришечкина,F,52,B,Multi-ply,No,Pro Teen 18-19,1989-06-13,52,,,,,,70,-75,-75,,70,,,,,,70,1
Marina Gileva,Марина Гилева,F,56,B,Multi-ply,No,Pro Open,1973-07-02,56,,,,,,75,85,-97.5,,85,,,,,,85,1
Yuliya Medvedeva #1,Юлия Медведева,F,67.5,B,Multi-ply,No,Pro Open,1979-07-08,66.9,,,,,,-135,135,-145.5,,135,,,,,,135,1
Tatyana Mazaeva,Татьяна Мазаева,F,67.5,B,Multi-ply,No,Pro Open,1977-12-02,67.5,,,,,,-100,100,105,,105,,,,,,105,2
Nadezhda Shabanova,Надежда Шабанова,F,67.5,B,Multi-ply,No,Pro Masters 50-54,1954-05-26,66.5,,,,,,82.5,92.5,,,92.5,,,,,,92.5,1
Evgeniya Sukhova,Евгения Сухова,F,75,B,Multi-ply,No,Pro Open,1980-08-12,74.35,,,,,,150,160,170,,170,,,,,,170,1
Svetlana Sinacheva,Светлана Синачева,F,75,B,Multi-ply,No,Pro Open,1966-12-15,71.9,,,,,,115,117.5,120,,120,,,,,,120,2
Svetlana Sinacheva,Светлана Синачева,F,75,B,Multi-ply,No,Pro Masters 40-44,1966-12-15,71.9,,,,,,120,,,,120,,,,,,120,1
Viktoriya Sheludko,Виктория Шелудько,F,82.5,B,Multi-ply,No,Pro Open,1973-12-24,77.35,,,,,,145,152.5,157.5,,157.5,,,,,,157.5,1
Mikhail Pridannikov,Михаил Приданников,M,56,B,Multi-ply,No,Pro Juniors 20-23,1986-03-20,55.9,,,,,,-130,130,145,,145,,,,,,145,1
Narek Ispiryan,Нарек Испирян,M,60,B,Multi-ply,No,Pro Teen 18-19,1989-07-09,59.3,,,,,,-110,115,-125,,115,,,,,,115,1
Valentin Chuvashkin,Валентин Чувашкин,M,67.5,B,Multi-ply,No,Pro Teen 16-17,1990-05-11,66,,,,,,110,120,130,-132.5,130,,,,,,130,1
Soslan Togoev,Сослан Тогоев,M,67.5,B,Multi-ply,No,Pro Juniors 20-23,1986-07-16,67,,,,,,-130,130,147.5,,147.5,,,,,,147.5,1
Anton Menshov,Антон Меньшов,M,75,B,Multi-ply,No,Pro Teen 18-19,1989-09-06,74.95,,,,,,-150,-150,150,,150,,,,,,150,1
Aleksandr Konstantinov,Александр Константинов,M,75,B,Multi-ply,No,Pro Teen 18-19,1988-09-11,72.2,,,,,,-180,-180,-180,,,,,,,,,DQ
Dmitriy Stoyanov,Дмитрий Стоянов,M,75,B,Multi-ply,No,Pro Juniors 20-23,1987-05-12,74.1,,,,,,160,-175,,,160,,,,,,160,1
Ilya Kokorev,Илья Кокорев,M,75,B,Multi-ply,No,Pro Open,1973-01-19,73.9,,,,,,210,-220,,,210,,,,,,210,1
Omar Gadzhiev,Омар Гаджиев,M,75,B,Multi-ply,No,Pro Open,1974-06-13,74,,,,,,-175,-175,180,,180,,,,,,180,3
Sergey Gavrilenko,Сергей Гавриленко,M,75,B,Multi-ply,No,Pro Open,1982-01-12,74.5,,,,,,180,-185,,,180,,,,,,180,4
Sergey Kalinin,Сергей Калинин,M,82.5,B,Multi-ply,No,Pro Teen 18-19,1989-07-20,79.7,,,,,,155,170,-185,,170,,,,,,170,1
Dmitriy Khovanskiy,Дмитрий Хованский,M,82.5,B,Multi-ply,No,Pro Juniors 20-23,1986-05-26,82,,,,,,200,210,217.5,,217.5,,,,,,217.5,1
Denis Demchenko,Денис Демченко,M,82.5,B,Multi-ply,No,Pro Juniors 20-23,1987-07-18,80.7,,,,,,-190,190,-210,,190,,,,,,190,2
Aleksey Ovsyannikov,Алексей Овсянников,M,82.5,B,Multi-ply,No,Pro Juniors 20-23,1986-11-24,82.5,,,,,,-140,140,145,,145,,,,,,145,5
Mikhail Ushakov,Михаил Ушаков,M,82.5,B,Multi-ply,No,Pro Juniors 20-23,1986-11-06,82.2,,,,,,-130,135,-142.5,,135,,,,,,135,6
Pavel Petukhov,Павел Петухов,M,82.5,B,Multi-ply,No,Pro Open,1978-10-22,81.55,,,,,,220,-230,230,,230,,,,,,230,2
Abdula Gadzhiev,Абдула Гаджиев,M,82.5,B,Multi-ply,No,Pro Open,1973-02-03,79.5,,,,,,210,217.5,225,,225,,,,,,225,3
Maksim Netkach,Максим Неткач,M,82.5,B,Multi-ply,No,Pro Open,1978-03-23,80.3,,,,,,-217.5,217.5,222.5,,222.5,,,,,,222.5,4
Aleksandr Metelev,Александр Метелев,M,82.5,B,Multi-ply,No,Pro Open,1972-11-24,82.25,,,,,,215,-222.5,-225.5,,215,,,,,,215,6
Andrey Bogatkov,Андрей Богатков,M,82.5,B,Multi-ply,No,Pro Open,1975-05-12,81.35,,,,,,190,-200,-200,,190,,,,,,190,7
Andrey Starodubtsev,Андрей Стародубцев,M,82.5,B,Multi-ply,No,Pro Open,1978-10-03,81,,,,,,-190,-190,-190,,,,,,,,,DQ
Andrey Podoprigora,Андрей Подопригора,M,82.5,B,Multi-ply,No,Pro Open,1973-11-13,81,,,,,,-170,-170,,,,,,,,,,DQ
Aleksey Savosin,Алексей Савосин,M,82.5,B,Multi-ply,No,Pro Open,1969-03-21,81.45,,,,,,-190,-217.5,-217.5,,,,,,,,,DQ
Yuriy Petryakov,Юрий Петряков,M,82.5,B,Multi-ply,No,Pro Masters 40-44,1964-02-23,82.05,,,,,,-170,170,,,170,,,,,,170,1
Yuriy Korikov,Юрий Кориков,M,82.5,B,Multi-ply,No,Pro Masters 45-49,1962-04-24,81,,,,,,-160,-160,-160,,,,,,,,,DQ
Valeriy Stoyanov,Валерий Стоянов,M,82.5,B,Multi-ply,No,Pro Masters 50-54,1957-11-25,76.7,,,,,,120,-130,,,120,,,,,,120,1
Ivan Zyablikov,Иван Зябликов,M,82.5,B,Multi-ply,No,Pro Masters 55-59,1948-08-21,81.05,,,,,,-165,-165,-165,,,,,,,,,DQ
Anton Sokolov,Антон Соколов,M,90,B,Multi-ply,No,Pro Teen 18-19,1988-10-16,88.7,,,,,,150,162.5,-172.5,,162.5,,,,,,162.5,1
Sergey Strelnikov,Сергей Стрельников,M,90,B,Multi-ply,No,Pro Juniors 20-23,1986-06-17,89.9,,,,,,190,205,-215,,205,,,,,,205,1
Ivan Doronin,Иван Доронин,M,90,B,Multi-ply,No,Pro Juniors 20-23,1985-08-10,87.85,,,,,,185,-195,202.5,,202.5,,,,,,202.5,2
Dmitriy Panchenko,Дмитрий Панченко,M,90,B,Multi-ply,No,Pro Juniors 20-23,1984-08-15,89.75,,,,,,190,-202.5,202.5,,202.5,,,,,,202.5,4
Pavel Evtushenko,Павел Евтушенко,M,90,B,Multi-ply,No,Pro Juniors 20-23,1985-01-09,89.1,,,,,,-260,-260,-260,,,,,,,,,DQ
Pavel Isakov,Павел Исаков,M,90,B,Multi-ply,No,Pro Open,1972-02-16,90,,,,,,230,242.5,250,,250,,,,,,250,1
Artem Mirzoyan #2,Артем Мирзоян,M,90,B,Multi-ply,No,Pro Open,1976-08-12,89.9,,,,,,-230,230,,,230,,,,,,230,2
Ivan Vasyunin,Иван Васюнин,M,90,B,Multi-ply,No,Pro Open,1983-08-01,89.9,,,,,,202.5,215,-230,,215,,,,,,215,3
Vitaliy Goryunov,Виталий Горюнов,M,90,B,Multi-ply,No,Pro Open,1982-02-16,88.8,,,,,,-210,-210,-210,,,,,,,,,DQ
Sergey Nayman,Сергей Найман,M,90,B,Multi-ply,No,Pro Open,1974-12-27,88.95,,,,,,-225,-232.5,-232.5,,,,,,,,,DQ
Mikhail Royanov,Михаил Роянов,M,90,B,Multi-ply,No,Pro Open,1977-03-04,89.1,,,,,,-240,-240,-242.5,,,,,,,,,DQ
Sergey Matveev,Сергей Матвеев,M,90,B,Multi-ply,No,Pro Open,1982-10-03,89.95,,,,,,-255,-255,-255,,,,,,,,,DQ
Aleksandr Zavyalov,Александр Завьялов,M,90,B,Multi-ply,No,Pro Masters 50-54,1957-05-15,88.25,,,,,,170,-175,-175,,170,,,,,,170,1
Vyacheslav Pyatakhin,Вячеслав Пятахин,M,90,B,Multi-ply,No,Pro Masters 55-59,1952-06-20,88.75,,,,,,-175,-175,,,,,,,,,,DQ
Evgeniy Khudoleev,Евгений Худолеев,M,90,B,Multi-ply,No,Pro Masters 60-64,1946-09-10,86.7,,,,,,-160,-160,160,,160,,,,,,160,1
Aleksey Avramenko,Алексей Авраменко,M,100,B,Multi-ply,No,Pro Teen 18-19,1988-09-17,96.5,,,,,,210,-230,-230,,210,,,,,,210,1
Gor Ayvazyan,Гор Айвазян,M,100,B,Multi-ply,No,Pro Juniors 20-23,1986-05-16,97.45,,,,,,250,260,265,-276,265,,,,,,265,1
Aleksandr Borshchev,Александр Борщев,M,100,B,Multi-ply,No,Pro Juniors 20-23,1986-04-24,98.7,,,,,,250,265,-270,,265,,,,,,265,2
Mikhail Andreev,Михаил Андреев,M,100,B,Multi-ply,No,Pro Juniors 20-23,1985-09-27,99.95,,,,,,210,220,227.5,,227.5,,,,,,227.5,3
Aleksandr Kvasnikov,Александр Квасников,M,100,B,Multi-ply,No,Pro Juniors 20-23,1987-04-07,100,,,,,,-210,-215,-215,,,,,,,,,DQ
Emin Galib Ogly Mamedov,Емин Галиб Оглы Мамедов,M,100,B,Multi-ply,No,Pro Open,1974-08-30,95.5,,,,,,280,-285,-285,,280,,,,,,280,1
Roman Chebotaryov,Роман Чеботарёв,M,100,B,Multi-ply,No,Pro Open,1983-05-17,98.8,,,,,,-240,240,-260,,240,,,,,,240,2
Gennadiy Chernobrovkin,Геннадий Чернобровкин,M,100,B,Multi-ply,No,Pro Open,1981-01-27,98.9,,,,,,190,210,-220,,210,,,,,,210,4
Sergey Sedov,Сергей Седов,M,100,B,Multi-ply,No,Pro Open,1972-11-03,94.5,,,,,,190,205,-215,,205,,,,,,205,5
Yuriy Bizin,Юрий Бизин,M,100,B,Multi-ply,No,Pro Open,1978-09-03,95,,,,,,200,-220,-230,,200,,,,,,200,6
Artem Levchenko,Артем Левченко,M,100,B,Multi-ply,No,Pro Open,1983-10-20,94,,,,,,-210,-210,-210,,,,,,,,,DQ
Aleksey Melnik,Алексей Мельник,M,100,B,Multi-ply,No,Pro Open,1977-07-17,95.9,,,,,,-230,-230,-230,,,,,,,,,DQ
Arsen Mirzoyan,Арсен Мирзоян,M,100,B,Multi-ply,No,Pro Open,1978-11-13,97.95,,,,,,-260,-260,-260,,,,,,,,,DQ
Valeriy Simagin,Валерий Симагин,M,100,B,Multi-ply,No,Pro Open,1971-06-17,98.25,,,,,,-250,-250,-250,,,,,,,,,DQ
Denis Kholkin,Денис Холкин,M,100,B,Multi-ply,No,Pro Open,1983-11-25,99.75,,,,,,-170,-170,-170,,,,,,,,,DQ
Igor Smolyakov,Игорь Смоляков,M,100,B,Multi-ply,No,Pro Open,1971-02-25,99.95,,,,,,-260,-260,-260,,,,,,,,,DQ
Aleksandr Kolesnikov,Александр Колесников,M,100,B,Multi-ply,No,Pro Open,1975-07-28,99.95,,,,,,-260,-260,-265,,,,,,,,,DQ
Sergey Belikov,Сергей Беликов,M,100,B,Multi-ply,No,Pro Masters 40-44,1964-09-30,97.25,,,,,,-255,255,-265,,255,,,,,,255,1
Oleg Chernyavskiy #1,Олег Чернявский,M,100,B,Multi-ply,No,Pro Masters 40-44,1967-05-24,99.7,,,,,,190,202.5,210,,210,,,,,,210,2
Andrey Paley,Андрей Палей,M,100,B,Multi-ply,No,Pro Masters 45-49,1961-10-11,99.8,,,,,,275,285,-300.5,,285,,,,,,285,1
Andrey Paley,Андрей Палей,M,100,B,Multi-ply,No,Pro Open,1961-10-11,99.8,,,,,,275,285,-300.5,,285,,,,,,285,1
Sergey Subbota,Сергей Суббота,M,100,B,Multi-ply,No,Pro Masters 45-49,1961-10-02,97.7,,,,,,190,210,-220,,210,,,,,,210,1
Yuriy Ostrov,Юрий Остров,M,100,B,Multi-ply,No,Pro Masters 45-49,1962-02-05,100,,,,,,-200,-200,-200,,,,,,,,,DQ
Valeriy Akentyev,Валерий Акентьев,M,100,B,Multi-ply,No,Pro Masters 50-54,1958-03-13,94.45,,,,,,205,222.5,-240,,222.5,,,,,,222.5,1
Yuriy Pestichev,Юрий Пестичев,M,110,B,Multi-ply,No,Pro Teen 18-19,1988-04-26,103.35,,,,,,190,200,210,,210,,,,,,210,1
Valentin Trepshin,Валентин Трепшин,M,110,B,Multi-ply,No,Pro Juniors 20-23,1987-06-10,104.4,,,,,,220,237.5,250,,250,,,,,,250,1
Dmitriy Luchina,Дмитрий Лучина,M,110,B,Multi-ply,No,Pro Juniors 20-23,1984-10-20,105.4,,,,,,230,-240,-240,,230,,,,,,230,2
Alexey Neklyudov,Алексей Неклюдов,M,110,B,Multi-ply,No,Pro Masters 40-44,1964-07-27,109.1,,,,,,-340,-340,340,-350.5,340,,,,,,340,1
Aleksandr Tretyakov,Александр Третьяков,M,110,B,Multi-ply,No,Pro Masters 40-44,1967-06-14,108,,,,,,290,315,-322.5,,315,,,,,,315,2
Alexey Neklyudov,Алексей Неклюдов,M,110,B,Multi-ply,No,Pro Open,1964-07-27,109.1,,,,,,-340,-340,340,-350.5,340,,,,,,340,1
Aleksandr Tretyakov,Александр Третьяков,M,110,B,Multi-ply,No,Pro Open,1967-06-14,108,,,,,,290,315,-322.5,,315,,,,,,315,2
Timur Andreev,Тимур Андреев,M,110,B,Multi-ply,No,Pro Open,1983-07-17,108.15,,,,,,-255,260,270,,270,,,,,,270,1
Andrey Likhman,Андрей Лихман,M,110,B,Multi-ply,No,Pro Open,1977-05-01,107,,,,,,-260,260,-280,,260,,,,,,260,2
Vyacheslav Rakhmanov,Вячеслав Рахманов,M,110,B,Multi-ply,No,Pro Open,1968-07-25,108.75,,,,,,250,260,-267.5,,260,,,,,,260,3
Aleksey Kostylev,Алексей Костылев,M,110,B,Multi-ply,No,Pro Open,1973-09-04,107.5,,,,,,250,-260,-265,,250,,,,,,250,4
Vladimir Omelkov,Владимир Омельков,M,110,B,Multi-ply,No,Pro Open,1970-05-10,104.5,,,,,,230,242.5,-250,,242.5,,,,,,242.5,5
Aleksandr Lebedev,Александр Лебедев,M,110,B,Multi-ply,No,Pro Open,1980-08-15,109.85,,,,,,220,230,-240,,230,,,,,,230,6
Vladislav Manyukov,Владислав Манюков,M,110,B,Multi-ply,No,Pro Open,1972-08-27,105.2,,,,,,200,-220,220,,220,,,,,,220,7
Vitaliy Belyakov,Виталий Беляков,M,110,B,Multi-ply,No,Pro Open,1983-07-10,106.8,,,,,,210,-220,-220,,210,,,,,,210,9
Vadim Bespalov,Вадим Беспалов,M,110,B,Multi-ply,No,Pro Open,1979-04-20,104,,,,,,170,180,-195,,180,,,,,,180,10
Oleg Zaytsev,Олег Зайцев,M,110,B,Multi-ply,No,Pro Open,1969-04-19,110,,,,,,180,-210,-220,,180,,,,,,180,11
Dmitriy Gorbachev,Дмитрий Горбачев,M,110,B,Multi-ply,No,Pro Open,1970-03-06,107.6,,,,,,-310,-310,-310,,,,,,,,,DQ
Aleksey Kiselev,Алексей Киселев,M,110,B,Multi-ply,No,Pro Open,1974-04-27,107.7,,,,,,-200,-200,-200,,,,,,,,,DQ
Nikolay Pyshmintsev,Николай Пышминцев,M,110,B,Multi-ply,No,Pro Open,1981-01-04,108,,,,,,-272.5,-272.5,-272.5,,,,,,,,,DQ
Vladimir Poletaev,Владимир Полетаев,M,110,B,Multi-ply,No,Pro Open,1972-10-17,109.45,,,,,,-280,-280,-280,,,,,,,,,DQ
Ivan Kurpishev,Иван Курпишев,M,110,B,Multi-ply,No,Pro Open,1969-04-02,109.9,,,,,,-315,-315,-320,,,,,,,,,DQ
Vladimir Tolmachev,Владимир Толмачев,M,110,B,Multi-ply,No,Pro Masters 40-44,1965-11-14,104.6,,,,,,-160,160,170,,170,,,,,,170,1
Pavel Yagovkin,Павел Яговкин,M,110,B,Multi-ply,No,Pro Masters 45-49,1959-07-27,109.2,,,,,,225,-230.5,-230.5,,225,,,,,,225,1
Konstantin Bobrov,Константин Бобров,M,110,B,Multi-ply,No,Pro Masters 50-54,1957-05-10,104.65,,,,,,182.5,190,-200,,190,,,,,,190,1
Aleksandr Krupin,Александр Крупин,M,110,B,Multi-ply,No,Pro Masters 50-54,1957-01-30,103.4,,,,,,170,180,187.5,,187.5,,,,,,187.5,2
Dmitriy Krymskiy,Дмитрий Крымский,M,125,B,Multi-ply,No,Pro Teen 18-19,1989-10-31,116.85,,,,,,210,222.5,230,232.5,230,,,,,,230,1
Aleksey Shlykov,Алексей Шлыков,M,125,B,Multi-ply,No,Pro Juniors 20-23,1984-08-13,124.8,,,,,,280,290,-300,,290,,,,,,290,1
Sergey Bronnikov,Сергей Бронников,M,125,B,Multi-ply,No,Pro Juniors 20-23,1986-07-30,120.85,,,,,,220,232.5,-240,,232.5,,,,,,232.5,2
Oleg Kushnarev,Олег Кушнарев,M,125,B,Multi-ply,No,Pro Open,1973-03-14,114.6,,,,,,-340,340,-355,,340,,,,,,340,1
Vasiliy Matsur,Василий Мацур,M,125,B,Multi-ply,No,Pro Open,1984-02-02,119.4,,,,,,265,275,282.5,,282.5,,,,,,282.5,2
Sakhil Idrisov,Сахил Идрисов,M,125,B,Multi-ply,No,Pro Open,1974-03-12,116.4,,,,,,270,-285,-285,,270,,,,,,270,3
Lev Chernykh,Лев Черных,M,125,B,Multi-ply,No,Pro Open,1966-08-01,122.65,,,,,,-252.5,252.5,262.5,,262.5,,,,,,262.5,1
Lev Chernykh,Лев Черных,M,125,B,Multi-ply,No,Pro Masters 40-44,1966-08-01,122.65,,,,,,-252.5,252.5,262.5,,262.5,,,,,,262.5,1
Dmitriy Dushkin,Дмитрий Душкин,M,125,B,Multi-ply,No,Pro Open,1977-05-29,113.55,,,,,,-240,260,-280,,260,,,,,,260,4
Aleksey Tarasov,Алексей Тарасов,M,125,B,Multi-ply,No,Pro Open,1976-03-21,121.6,,,,,,232.5,-247.5,,,232.5,,,,,,232.5,6
Dmitriy Shishlyannikov,Дмитрий Шишлянников,M,125,B,Multi-ply,No,Pro Open,1980-04-23,113.35,,,,,,225,-235,-235,,225,,,,,,225,7
Dmitriy Brushnevskiy,Дмитрий Брушневский,M,125,B,Multi-ply,No,Pro Open,1978-01-31,123,,,,,,200,-215,,,200,,,,,,200,9
Andrey Kostromin,Андрей Костромин,M,125,B,Multi-ply,No,Pro Open,1968-03-20,122.35,,,,,,250,260,-262.5,,260,,,,,,260,1
Valeriy Novolokov,Валерий Новолоков,M,125,B,Multi-ply,No,Pro Masters 40-44,1964-03-13,112.4,,,,,,-240,-240,-240,,,,,,,,,DQ
Ilya Voronin,Илья Воронин,M,140,B,Multi-ply,No,Pro Teen 16-17,1990-10-02,131.85,,,,,,150,160,175,-180,175,,,,,,175,1
Aleksandr Korshkov,Александр Коршков,M,140,B,Multi-ply,No,Pro Juniors 20-23,1986-01-06,126,,,,,,280,290,-300,,290,,,,,,290,1
Valeriy Snegirev,Валерий Снегирев,M,140,B,Multi-ply,No,Pro Open,1977-06-10,132.1,,,,,,-300,300,310,,310,,,,,,310,1
Sergey Molchanov,Сергей Молчанов,M,140,B,Multi-ply,No,Pro Open,1973-03-15,125.45,,,,,,-275,-275,-275,,,,,,,,,DQ
Irakliy Kondzhariya,Ираклий Конджария,M,140,B,Multi-ply,No,Pro Open,1977-09-12,128.3,,,,,,-290,-290,-300,,,,,,,,,DQ
Vladimir Maksimov,Владимир Максимов,M,140,B,Multi-ply,No,Pro Masters 40-44,1966-06-07,131.65,,,,,,-385,385,392.5,-400.5,392.5,,,,,,392.5,1
Georgiy Lopatskiy,Георгий Лопацкий,M,140,B,Multi-ply,No,Pro Masters 45-49,1962-05-16,125.8,,,,,,-246,250,256,260,256,,,,,,256,1
Kirill Sarychev,Кирилл Сарычев,M,140+,B,Single-ply,No,Pro Teen 18-19,1989-01-01,150.2,,,,,,270,300,-315,,300,,,,,,300,1
Kirill Sarychev,Кирилл Сарычев,M,140+,B,Single-ply,No,Pro Open,1989-01-01,150.2,,,,,,270,300,-315,,300,,,,,,300,1
Timur Akhmedov,Тимур Ахмедов,M,140+,B,Multi-ply,No,Pro Juniors 20-23,1986-03-29,153,,,,,,190,200,-210,,200,,,,,,200,1
Aleksandr Laptev,Александр Лаптев,M,140+,B,Multi-ply,No,Pro Open,1983-11-28,140.1,,,,,,-280,280,290,,290,,,,,,290,1
Dmitriy Shabalin #1,Дмитрий Шабалин,M,140+,B,Multi-ply,No,Pro Open,1969-01-19,141.5,,,,,,-315,-315,-325,,,,,,,,,DQ
Elena Kostyleva,Елена Костылева,F,44,SBD,Multi-ply,No,Pro Teen 16-17,1991-06-07,42.8,-80,-85,85,,85,40,-45,-45,,40,75,82.5,90,,90,215,1
Marina Zotova,Марина Зотова,F,48,SBD,Multi-ply,No,Pro Open,1983-09-23,46.3,-130,130,-140,,130,-85,-85,-85,,,,,,,,,DQ
Lyudmila Grishechkina,Людмила Гришечкина,F,52,SBD,Multi-ply,No,Pro Teen 18-19,1989-06-13,52,100,110,117.5,,117.5,-70,-70,70,-75,70,110,120,-130,,120,307.5,1
Irina Ignatovich,Ирина Игнатович,F,52,SBD,Multi-ply,No,Pro Open,1982-07-20,50.7,-140,147.5,157.5,,157.5,65,70,-75,,70,135,-140,-145,,135,362.5,1
Lidiya Tomchina,Лидия Томчина,F,60,SBD,Multi-ply,No,Pro Juniors 20-23,1984-07-28,59.85,170,-185,-185,,170,70,-80,80,,80,140,155,-160,,155,405,1
Marina Medvedeva,Марина Медведева,F,60,SBD,Multi-ply,No,Pro Open,1974-09-05,59,190,210,-222.5,,210,100,-112.5,112.5,,112.5,165,180,190,200.5,190,512.5,1
Yuliya Medvedeva #1,Юлия Медведева,F,67.5,SBD,Multi-ply,No,Pro Open,1979-07-08,66.9,190,-205,205,,205,130,-140,140,,140,180,190,-195,,190,535,1
Tatyana Mazaeva,Татьяна Мазаева,F,67.5,SBD,Multi-ply,No,Pro Open,1977-12-02,67.5,140,150,,,150,105,-110,-110,,105,150,160,,,160,415,3
Elena Povolotskaya,Елена Поволоцкая,F,75,SBD,Multi-ply,No,Pro Open,1978-02-16,74.2,220,235,,,235,120,125,-130,,125,200,212.5,225,,225,585,1
Evgeniya Sukhova,Евгения Сухова,F,82.5,SBD,Multi-ply,No,Pro Open,1980-08-12,75.9,200,210,-220,,210,150,160,165,-170,165,-200,200,215,,215,590,1
Yegor Pavlyuk,Егор Павлюк,M,52,SBD,Multi-ply,No,Pro Teen 13-15,1992-12-17,51.55,-165,-165,165,-180,165,50,-57.5,-57.5,,50,125,-140,-140,,125,340,1
Mikhail Pridannikov,Михаил Приданников,M,56,SBD,Multi-ply,No,Pro Juniors 20-23,1986-03-20,55.9,190,202.5,-210,,202.5,-135,-135,135,,135,145,157.5,-165,,157.5,495,1
Aleksandr Dambinov,Александр Дамбинов,M,56,SBD,Multi-ply,No,Pro Masters 70-74,1936-03-12,56,-70,70,75,,75,60,65,-70,,65,115,122.5,127.5,,127.5,267.5,1
Aleksandr Murzin,Александр Мурзин,M,60,SBD,Multi-ply,No,Pro Teen 18-19,1989-09-11,60,200,210,-230,,210,95,105,-115,,105,-190,190,200,,200,515,1
Narek Ispiryan,Нарек Испирян,M,60,SBD,Multi-ply,No,Pro Teen 18-19,1989-07-09,59.3,-165,-165,165,,165,95,105,-112.5,,105,170,-180,180,-182.5,180,450,2
Aleksandr Pavlyuchenko,Александр Павлюченко,M,60,SBD,Multi-ply,No,Pro Open,1968-11-19,60,-200,-200,-200,,,,,,,,,,,,,,DQ
Valentin Chuvashkin,Валентин Чувашкин,M,67.5,SBD,Multi-ply,No,Pro Teen 16-17,1990-05-11,66,200,215,227.5,242.5,227.5,110,122.5,132.5,,132.5,180,-200,217.5,-220,217.5,577.5,1
Dmitriy Papin,Дмитрий Папин,M,67.5,SBD,Multi-ply,No,Pro Teen 18-19,1989-10-04,66.45,210,220,230,,230,-120,125,130,,130,210,220,-225,,220,580,1
Ivan Bezrukov,Иван Безруков,M,67.5,SBD,Multi-ply,No,Pro Teen 18-19,1989-01-05,64.55,150,160,-175,,160,80,-90,-90,,80,-170,175,-185,,175,415,2
Mikhail Borodin,Михаил Бородин,M,67.5,SBD,Multi-ply,No,Pro Juniors 20-23,1987-02-11,60.7,-150,150,160,,160,75,85,90,,90,175,185,195,,195,445,1
Vladimir Petyanov,Владимир Петянов,M,67.5,SBD,Multi-ply,No,Pro Juniors 20-23,1985-07-26,67.5,-290,-290,-290,,,,,,,,,,,,,,DQ
Aleksandr Ivanov,Александр Иванов,M,67.5,SBD,Multi-ply,No,Pro Open,1983-06-20,63.5,225,235,-245,,235,115,125,135,,135,200,220,230,,230,600,1
Evgeniy Bagin,Евгений Багин,M,67.5,SBD,Multi-ply,No,Pro Open,1982-08-16,67.3,-240,-240,-240,,,,,,,,,,,,,,DQ
Maksim Maltsev,Максим Мальцев,M,75,SBD,Multi-ply,No,Pro Teen 18-19,1990-03-01,74.9,-200,-210,210,,210,125,135,-140,,135,190,210,-225,,210,555,1
Mikhail Kalabin,Михаил Калабин,M,75,SBD,Multi-ply,No,Pro Teen 18-19,1989-02-05,69.65,150,-160,-160,,150,-100,100,-115,,100,170,175,180,,180,430,3
Aleksey Lazarev,Алексей Лазарев,M,75,SBD,Multi-ply,No,Pro Juniors 20-23,1985-04-06,75,285,300,-305,,300,160,172.5,180,,180,-255,270,285,,285,765,1
Sergey Yanshin,Сергей Яньшин,M,75,SBD,Multi-ply,No,Pro Juniors 20-23,1987-05-28,75,280,295,-302.5,,295,-195,195,,,195,215,230,240,,240,730,2
Vladimir Petyanov,Владимир Петянов,M,75,SBD,Multi-ply,No,Pro Juniors 20-23,1985-07-26,68.3,270,290,,,290,-140,140,-150,,140,200,-220,-230,,200,630,3
German Petyanov,Герман Петянов,M,75,SBD,Multi-ply,No,Pro Juniors 20-23,1985-07-26,73.6,-280,-280,-280,,,,,,,,,,,,,,DQ
Denis Shepilov,Денис Шепилов,M,75,SBD,Multi-ply,No,Pro Open,1978-01-01,74.7,275,290,-305,,290,-180,185,200,,200,245,255,-270,,255,745,1
Anatoliy Glazunov,Анатолий Глазунов,M,75,SBD,Multi-ply,No,Pro Open,1972-02-09,71.4,-260,280,-290,,280,170,180,190,,190,220,240,-250,,240,710,2
Denis Podgornyy,Денис Подгорный,M,75,SBD,Multi-ply,No,Pro Open,1977-10-04,75,240,260,,,260,172.5,182.5,-187.5,,182.5,240,-250,250,,250,692.5,3
Sergey Titov,Сергей Титов,M,82.5,SBD,Multi-ply,No,Pro Teen 16-17,1990-05-30,78.5,240,255.5,265,,265,130,-150,-165.5,,130,210,-220,-225,,210,605,1
Nikita Dubrovin,Никита Дубровин,M,82.5,SBD,Multi-ply,No,Pro Teen 18-19,1988-09-27,79.95,-255,255,-270,,255,-155,155,-160,,155,230,240,250,,250,660,1
Sergey Kalinin,Сергей Калинин,M,82.5,SBD,Multi-ply,No,Pro Teen 18-19,1989-07-20,80.95,215,-230,240,,240,-160,-170,170,,170,210,220,-230,,220,630,2
Andrey Alpeev,Андрей Алпеев,M,82.5,SBD,Multi-ply,No,Pro Teen 18-19,1989-04-21,78.45,-142.5,145,155,,155,-95,95,-100,,95,160,185,195,,195,445,3
Aleksey Pisarenko,Алексей Писаренко,M,82.5,SBD,Multi-ply,No,Pro Juniors 20-23,1985-06-09,81.95,280,295,305,,305,170,182.5,190,,190,240,260,-275,,260,755,1
Aleksandr Bazhin,Александр Бажин,M,82.5,SBD,Multi-ply,No,Pro Juniors 20-23,1984-09-26,82.05,290,-300,-300,,290,160,170,-172.5,,170,240,260,-265,,260,720,2
Dmitriy Stoyanov,Дмитрий Стоянов,M,82.5,SBD,Multi-ply,No,Pro Juniors 20-23,1987-05-12,75.5,-240,240,-260,,240,150,160,172.5,,172.5,200,220,237.5,,237.5,650,3
Aleksandr Filyushkin,Александр Филюшкин,M,82.5,SBD,Multi-ply,No,Pro Juniors 20-23,1986-09-30,78.15,200,-215,-220,,200,160,175,-182.5,,175,-200,-200,200,,200,575,7
Maksim Tomchin,Максим Томчин,M,82.5,SBD,Multi-ply,No,Pro Open,1980-11-13,81.4,-365,365,-380,,365,190,200,-205,,200,290,305,-318,,305,870,1
Rinat Khusainov,Ринат Хусаинов,M,82.5,SBD,Multi-ply,No,Pro Open,1983-07-04,82.4,-300,300,315,,315,150,160,170,,170,250,270,280,,280,765,3
Stanislav Pryakhin,Станислав Пряхин,M,82.5,SBD,Multi-ply,No,Pro Open,1975-03-18,81.9,350,-365,-365,,350,-215,-217.5,-217.5,,,,,,,,,DQ
Igor Moroz,Игорь Мороз,M,82.5,SBD,Multi-ply,No,Pro Masters 40-44,1965-09-17,82.25,280,-300,-300,,280,160,170,175,,175,220,245,265,,265,720,1
Yuriy Alekseev #1,Юрий Алексеев,M,82.5,SBD,Multi-ply,No,Pro Masters 40-44,1966-01-14,81.25,220,-242.5,-242.5,,220,-170,-170,-170,,,,,,,,,DQ
Gennadiy Bogdanov,Геннадий Богданов,M,82.5,SBD,Multi-ply,No,Pro Masters 40-44,1968-01-12,82.35,290,,,,290,-210,-210,-210,,,,,,,,,DQ
Valeriy Stoyanov,Валерий Стоянов,M,82.5,SBD,Multi-ply,No,Pro Masters 50-54,1957-11-25,77,-180,192.5,-205,,192.5,120,130,-135,,130,180,192.5,200,,200,522.5,1
Valeriy Glazunov,Валерий Глазунов,M,82.5,SBD,Multi-ply,No,Pro Masters 55-59,1948-12-18,79.5,-250,250,-300,,250,160,180,-187.5,,180,220,-240,240,,240,670,1
Yuriy Chepets,Юрий Чепец,M,82.5,SBD,Multi-ply,No,Pro Masters 60-64,1943-04-19,76.8,215,235,250,,250,170,180,-185,,180,190,205,215,,215,645,1
Dmitriy Duskryadchenko,Дмитрий Дускрядченко,M,90,SBD,Multi-ply,No,Pro Teen 16-17,1991-12-01,83.1,205,215,220,,220,-135,-135,135,,135,185,195,-210,,195,550,2
Anton Sokolov,Антон Соколов,M,90,SBD,Multi-ply,No,Pro Teen 18-19,1988-10-16,88.7,200,210,-225,,210,-150,155,,,155,200,220,-230,,220,585,2
Oleg Baskaev,Олег Баскаев,M,90,SBD,Multi-ply,No,Pro Teen 18-19,1988-07-01,85.2,190,-210,-210,,190,130,-140,140,,140,190,200,210,,210,540,3
Albert Sabadze,Альберт Сабадзе,M,90,SBD,Multi-ply,No,Pro Juniors 20-23,1986-05-25,89.75,300,320,330,,330,200,210,-215,,210,300,310,-330.5,,310,850,1
Ivan Doronin,Иван Доронин,M,90,SBD,Multi-ply,No,Pro Juniors 20-23,1985-08-10,87.1,260,270,280,,280,185,195,200,,200,250,260,-270,,260,740,2
Vladimir Grigorev,Владимир Григорьев,M,90,SBD,Multi-ply,No,Pro Juniors 20-23,1986-07-21,85.7,260,-280,-280,,260,150,165,-175,,165,240,260,270,,270,695,3
Konstantin Pribytkov,Константин Прибытков,M,90,SBD,Multi-ply,No,Pro Juniors 20-23,1985-08-25,87.35,270,285,-290,,285,-185,-190,-190,,,,,,,,,DQ
Andrey Sharapov,Андрей Шарапов,M,90,SBD,Multi-ply,No,Pro Open,1978-11-25,89.3,370,385,400.5,,400.5,235,-242.5,-245,,235,300,-310,-310,,300,935,1
Stepan Novikov,Степан Новиков,M,90,SBD,Multi-ply,No,Pro Open,1982-11-25,89,375,400,,,400,200,-215,,,200,300,315,-325,,315,915,2
Valeriy Nochvin,Валерий Ночвин,M,90,SBD,Multi-ply,No,Pro Open,1960-11-06,88.55,260,-275,275,,275,215,225,-230,,225,260,270,,,270,770,3
Sergey Natalchenko,Сергей Натальченко,M,90,SBD,Multi-ply,No,Pro Open,1983-08-05,88.5,290,305,320,,320,150,-160,160,,160,270,-290,-290,,270,750,4
Andrey Solovev,Андрей Соловьев,M,90,SBD,Multi-ply,No,Pro Open,1972-11-05,86.5,240,250,-260,,250,-170,170,180,,180,250,-260,260,,260,690,5
Yuriy Alekseev #1,Юрий Алексеев,M,90,SBD,Multi-ply,No,Pro Masters 40-44,1966-01-14,83.5,180,190,-210,,190,140,-150,150,,150,170,190,-200,,190,530,1
Evgeniy Khudoleev,Евгений Худолеев,M,90,SBD,Multi-ply,No,Pro Masters 60-64,1946-09-10,86.7,200,220,230,,230,-150,150,-160,,150,200,220,230,,230,610,1
Aleksandr Romanov,Александр Романов,M,100,SBD,Multi-ply,No,Pro Teen 18-19,1988-05-11,93.1,320,350,380,-400,380,-220,220,235,-255,235,260,285,-307.5,,285,900,1
Nikolay Piskunov,Николай Пискунов,M,100,SBD,Multi-ply,No,Pro Teen 18-19,1989-02-24,97.85,300,-320,320,,320,170,-180,180,,180,-250,250,-275,,250,750,2
Gegam Kakoyan,Гегам Какоян,M,100,SBD,Multi-ply,No,Pro Juniors 20-23,1984-04-02,91.5,280,295,,,295,180,190,-195,,190,280,-300,-300,,280,765,1
Evgeniy Batorevich,Евгений Баторевич,M,100,SBD,Multi-ply,No,Pro Juniors 20-23,1986-11-28,97.55,305,315,-322.5,,315,190,-200,-200,,190,220,230,240,,240,745,2
Eduard Bogdanov,Эдуард Богданов,M,100,SBD,Multi-ply,No,Pro Juniors 20-23,1987-11-20,96.2,230,250,260,,260,150,160,-180,,160,230,240,-250,,240,660,3
Aleksandr Kvasnikov,Александр Квасников,M,100,SBD,Multi-ply,No,Pro Juniors 20-23,1987-04-07,100,-270,-270,-270,,,,,,,,,,,,,,DQ
Yuriy Ustinov,Юрий Устинов,M,100,SBD,Multi-ply,No,Pro Open,1975-05-10,99.8,300,320,340,,340,200,215,222.5,,222.5,280,300,-315,,300,862.5,1
Sergey Zaytsev,Сергей Зайцев,M,100,SBD,Multi-ply,No,Pro Open,1977-10-13,98.3,280,300,315,,315,200,215,220,,220,280,295,305,,305,840,2
Igor Umerenkov,Игорь Умеренков,M,100,SBD,Multi-ply,No,Pro Open,1980-09-13,95,-300,300,-330,,300,180,192.5,200,,200,300,-315,-315,,300,800,3
Sergey Kuznetsov,Сергей Кузнецов,M,100,SBD,Multi-ply,No,Pro Open,1977-01-01,95,285,300,310,,310,185,190,-195,,190,260,270,275,,275,775,4
Pavel Chidingov,Павел Чидингов,M,100,SBD,Multi-ply,No,Pro Open,1969-07-02,99.95,280,-300,300,,300,200,-215,-215,,200,220,-250,-250,,220,720,5
Boris Vinogradov,Борис Виноградов,M,100,SBD,Multi-ply,No,Pro Open,1968-11-23,94.75,245,-252.5,-252.5,,245,190,-195,195,,195,240,245,250,,250,690,7
Aleksandr Moiseev,Александр Моисеев,M,100,SBD,Multi-ply,No,Pro Open,1983-01-04,99,245,255,260,,260,145,155,-160,,155,225,230,235,,235,650,8
Ivan Poryadin,Иван Порядин,M,100,SBD,Multi-ply,No,Pro Open,1982-06-06,97.9,300,310,,,310,,,,,,,,,,,,DQ
Andrey Sizov,Андрей Сизов,M,100,SBD,Multi-ply,No,Pro Masters 40-44,1968-01-29,92.2,270,290,-300,,290,-180,180,-190,,180,-300,300,307.5,,307.5,777.5,1
Vladimir Ladeyshchikov,Владимир Ладейщиков,M,100,SBD,Multi-ply,No,Pro Masters 40-44,1967-08-21,98.5,280,300,310,,310,150,-165,165,,165,280,297.5,-302.5,,297.5,772.5,2
Oleg Tokarev,Олег Токарев,M,100,SBD,Multi-ply,No,Pro Masters 50-54,1954-02-28,99.45,250,280,-300,,280,185,200,-210,,200,250,270,-280,,270,750,1
Pavel Efremov,Павел Ефремов,M,110,SBD,Multi-ply,No,Pro Teen 18-19,1988-04-13,103.45,280,302.5,312.5,,312.5,190,205,215,,215,262.5,282.5,-302.5,,282.5,810,1
Aleksey Okun,Алексей Окунь,M,110,SBD,Multi-ply,No,Pro Juniors 20-23,1987-08-15,107,240,260,-285,,260,140,-160,170,,170,270,295,-310,,295,725,1
Mikhail Brylin,Михаил Брылин,M,110,SBD,Multi-ply,No,Pro Open,1984-04-19,108.7,-370,370,390,,390,240,-253,253,-255,253,330,350,-360,,350,992.5,1
Dmitriy Sorokin,Дмитрий Сорокин,M,110,SBD,Multi-ply,No,Pro Open,1971-03-22,107.2,305,320,330,,330,210,225,235,,235,285,-300,-300,,285,850,2
Aleksandr Ryabets,Александр Рябец,M,110,SBD,Multi-ply,No,Pro Open,1983-09-08,104.55,300,315,322.5,,322.5,190,-200,-200,,190,300,320,-330,,320,832.5,3
Maksim Sukhovienko,Максим Суховиенко,M,110,SBD,Multi-ply,No,Pro Open,1980-06-22,108.7,240,-260,270,,270,180,195,-205,,195,240,250,260,,260,725,4
Vladimir Omelkov,Владимир Омельков,M,110,SBD,Multi-ply,No,Pro Open,1970-05-10,104.5,,,,,,,,,,,,,,,,,DQ
Aleksey Kharchev,Алексей Харчев,M,110,SBD,Multi-ply,No,Pro Open,1976-07-11,105.8,370,380,-390,,380,-225,-225,-225,,,,,,,,,DQ
Vadim Pavlyuk,Вадим Павлюк,M,110,SBD,Multi-ply,No,Pro Masters 40-44,1966-01-02,110,340,-365,-365,,340,150,-210,-210,,150,270,,,,270,760,1
Oleg Chernyavskiy #1,Олег Чернявский,M,110,SBD,Multi-ply,No,Pro Masters 40-44,1967-05-24,101.2,250,260,-270,,260,195,-205,-205,,195,230,245,255,,255,710,2
Emin Gasanov,Эмин Гасанов,M,125,SBD,Multi-ply,No,Pro Juniors 20-23,1985-05-25,120,270,280,,,280,185,195,200,,200,250,265,-270,,265,745,1
Mikhail Glazunov,Михаил Глазунов,M,125,SBD,Multi-ply,No,Pro Open,1974-02-09,118.2,350,-370,370,,370,250,265,270,,270,330,340,360,,360,1000,1
Aleksey Moskvichyov,Алексей Москвичёв,M,125,SBD,Multi-ply,No,Pro Open,1982-03-02,119,-380,380,390,,390,-250,250,260,,260,320,-330,-330,,320,970,2
Bakhtiyar Velibekov,Бахтияр Велибеков,M,125,SBD,Multi-ply,No,Pro Open,1971-03-01,112.8,290,320,340,,340,240,-260,-260,,240,280,-300,-300,,280,860,3
Vyacheslav Shadrin,Вячеслав Шадрин,M,125,SBD,Multi-ply,No,Pro Masters 40-44,1968-02-21,122.3,140,,,,140,150,175,,,175,200,,,,200,515,1
Alexander Maksimushkin,Александр Максимушкин,M,125,SBD,Multi-ply,No,Pro Masters 55-59,1950-11-03,112.35,280,310,320.5,,320.5,80,,,,80,230,250,,,250,650,1
Vadim Bratanov,Вадим Братанов,M,140,SBD,Multi-ply,No,Pro Open,1979-03-25,125.8,360,380,400,,400,-225,-225,225,,225,290,310,320,,320,945,1
Oleg Kuzmenko,Олег Кузьменко,M,140,SBD,Multi-ply,No,Pro Open,1971-06-27,131,290,305,-320,,305,200,215,-220,,215,285,300,-305,,300,820,2
Artur Stepanov,Артур Степанов,M,140,SBD,Multi-ply,No,Pro Open,1978-03-08,127.45,-370,-390,-390,,,,,,,,,,,,,,DQ
Lev Bergert,Лев Бергерт,M,140,SBD,Multi-ply,No,Pro Masters 40-44,1966-07-13,128.8,260,,,,260,225,235,240,,240,240,,,,240,740,1
Kirill Sarychev,Кирилл Сарычев,M,140+,SBD,Single-ply,No,Pro Teen 18-19,,150.2,340,370,400,,400,270,300,310,,310,290,320,,,320,1030,1
Kirill Migalin,Кирилл Мигалин,M,140+,SBD,Multi-ply,No,Pro Open,1983-04-18,146.7,-340,355,370,,370,220,-235,,,220,300,-310,,,300,890,2
Igor Nastynov,Игорь Настынов,M,140+,SBD,Multi-ply,No,Pro Masters 45-49,1961-03-14,150.5,380,430,-470,,430,240,-260,-270,,240,325,-345,,,325,995,1
