Tested,Equipment,Place,Name,Division,BirthYear,BodyweightKg,Squat1Kg,Squat2Kg,Squat3Kg,Best3SquatKg,Bench1Kg,Bench2Kg,Bench3Kg,Best3BenchKg,Bench4Kg,Deadlift1Kg,Deadlift2Kg,Deadlift3Kg,Best3DeadliftKg,TotalKg,WeightClassKg,Sex,CyrillicName,Event
No,Raw,1,Rimma Khabibullina,Pro Teen 18-19,1990,50.5,115,-125,125,125,-65,65,-70,65,,105,110,,110,300,52,F,Римма Хабибуллина,SBD
No,Raw,1,Alina Isakova,Pro Teen 16-17,1992,59.3,150,-165,-165,150,90,-95,,90,,120,130,,130,370,60,F,Алина Исакова,SBD
No,Raw,1,Natalya Sborovskaya,Pro Teen 18-19,1990,59.4,-125,-125,125,125,-65,65,-70,65,,130,-150,150,150,340,60,F,Наталья Сборовская,SBD
No,Raw,1,Ekaterina Ustyuzhaninova,Pro Juniors 20-23,1988,66.8,185,195,-205,195,100,105,,105,,140,-150,-150,140,440,67.5,F,Екатерина Устюжанинова,SBD
No,Raw,1,Aleksey Likhach,Pro Teen 18-19,1990,59.9,130,142.5,-150,142.5,70,,,70,,180,,,180,392.5,60,M,Алексей Лихач,SBD
No,Raw,1,Roman Akhmetzyanov,Pro Juniors 20-23,1988,67.5,140,150,162.5,162.5,90,100,105,105,,200,210,-212.5,210,477.5,67.5,M,Роман Ахметзянов,SBD
No,Raw,1,Dmitriy Solonnikov,Pro Open,1986,67.1,130,145,155,155,90,100,107.5,107.5,,-170,190,-210.5,190,452.5,67.5,M,Дмитрий Солонников,SBD
No,Raw,1,Leonid Malakichev,Pro Juniors 20-23,1988,83.7,170,190,-200,190,130,150,-155,150,,210,235,,235,575,90,M,Леонид Малакичев,SBD
No,Raw,2,Valeriy Rusinov,Pro Juniors 20-23,1986,87.7,165,175,180,180,-130,130,-140,130,,200,210,225,225,535,90,M,Валерий Русинов,SBD
No,Raw,1,Leonid Sheloumov,Pro Open,1982,89.8,-230,230,-245,230,140,-150,-150,140,,260,-280,,260,630,90,M,Леонид Шелоумов,SBD
No,Raw,1,Vladimir Sadreev,Pro Masters 40-44,1969,89,200,215,220,220,140,145,152.5,152.5,,-200,200,215,215,587.5,90,M,Владимир Садреев,SBD
No,Raw,1,Efim Karasik,Pro Masters 45-49,1964,88.8,150,200,215,215,-110,130,-145,130,,-250,270,-300,270,615,90,M,Ефим Карасик,SBD
No,Raw,2,Aleksandr Nikitin,Pro Submasters 33-39,1973,87.8,140,150,160,160,130,140,-145,140,,185,195,205,205,505,90,M,Александр Никитин,SBD
No,Raw,1,Ivan Tsigelnik,Pro Teen 18-19,1990,96,120,135,145,145,85,95,-105,95,,-160,170,190,190,430,100,M,Иван Цигельник,SBD
No,Raw,1,Dmitriy Nazarov,Pro Juniors 20-23,1987,92.3,165,170,180,180,135,145,-160,145,,-175,175,185,185,510,100,M,Дмитрий Назаров,SBD
No,Raw,1,Denis Poddubnyy,Pro Open,1979,99.8,275,-285,-285,275,170,175,180,180,,275,287.5,-295,287.5,742.5,100,M,Денис Поддубный,SBD
No,Raw,2,Maksim Kozlovich,Pro Open,1983,96.6,220,235,245,245,175,190,-200,190,,250,270,,270,705,100,M,Максим Козлович,SBD
No,Raw,3,Aleksey Melnikov,Pro Open,1978,99.4,230,240,,240,185,192.5,197.5,197.5,,260,-270,,260,697.5,100,M,Алексей Мельников,SBD
No,Raw,4,Evgeniy Glyadelov,Pro Open,1983,95.5,-180,180,190,190,130,140,150,150,,220,230,,230,570,100,M,Евгений Гляделов,SBD
No,Raw,1,Aleksandr Babkin,Pro Masters 50-54,1955,93,-170,-170,170,170,120,125,130,130,,170,180,190,190,490,100,M,Александр Бабкин,SBD
No,Raw,DQ,Valentin Bulanov,Pro Teen 18-19,1990,124.2,-250,-250,-250,,,,,,,,,,,,125,M,Валентин Буланов,SBD
No,Raw,1,Dmitriy Lebedev,Pro Juniors 20-23,1987,120.7,120,140,,140,110,-125,-125,110,,140,180,-210,180,430,125,M,Дмитрий Лебедев,SBD
No,Raw,1,Valeriy Bekker,Pro Open,1980,113.9,240,250,260,260,185,192.5,200,200,,-290,290,-300,290,750,125,M,Валерий Беккер,SBD
No,Multi-ply,1,Aleksey Likhach,Pro Teen 18-19,1990,59.9,215,-225,-235,215,90,100,-110,100,,200,210,-220,210,525,60,M,Алексей Лихач,SBD
No,Multi-ply,1,Aleksandr Murzin,Pro Juniors 20-23,1989,66.1,215,-230,230,230,115,125,,125,,-195,195,-205,195,550,67.5,M,Александр Мурзин,SBD
No,Multi-ply,1,Sergey Bychkov,Pro Masters 40-44,1964,67.5,145,160,-175,160,90,-100,-100,90,,150,-165,165,165,415,67.5,M,Сергей Бычков,SBD
No,Multi-ply,1,Dmitriy Ovcharov,Pro Juniors 20-23,1989,75,220,240,-245,240,-170,170,-180,170,,210,220,,220,630,75,M,Дмитрий Овчаров,SBD
No,Multi-ply,1,Sergey Glazkov,Pro Teen 16-17,1992,81.9,220,240,250,250,130,140,-145,140,,180,-190,,180,570,82.5,M,Сергей Глазков,SBD
No,Multi-ply,1,Vasiliy Ludin,Pro Juniors 20-23,1988,82.2,285,295,300,300,-175,175,180,180,,240,255,-265,255,735,82.5,M,Василий Лудин,SBD
No,Multi-ply,2,Alexander Sapozhnikov,Pro Juniors 20-23,1989,80,250,260,270,270,-150,150,160,160,,270,290,-305,290,720,82.5,M,Александр Сапожников,SBD
No,Multi-ply,3,Rinat Valiullin,Pro Juniors 20-23,1989,81.2,230,-250,250,250,110,120,,120,,225,235,-242.5,235,605,82.5,M,Ринат Валиуллин,SBD
No,Multi-ply,1,Oleg Valiev,Pro Open,1985,81.2,250,265,275,275,150,160,,160,,225,235,-242.5,235,670,82.5,M,Олег Валиев,SBD
No,Multi-ply,1,Andrey Guz,Pro Teen 18-19,1990,87.8,250,270,-290,270,180,,,180,,210,,,210,660,90,M,Андрей Гузь,SBD
No,Multi-ply,1,Roman Gorkovchuk,Pro Juniors 20-23,1988,89.4,290,-305,-305,290,200,210,,210,,210,225,,225,725,90,M,Роман Горковчук,SBD
No,Multi-ply,1,Andrey Sharapov,Pro Open,1978,90,400,420,-445,420,225,-232.5,-232.5,225,,300,320,-342.5,320,965,90,M,Андрей Шарапов,SBD
No,Multi-ply,2,Pavel Volkov,Pro Open,1984,88.5,290,-305,310,310,155,165,170,170,,270,-292.2,300,300,780,90,M,Павел Волков,SBD
No,Multi-ply,3,Aleksandr Dorokhov,Pro Open,1983,88.4,250,265,-280,265,-145,145,,145,,220,230,-245,230,640,90,M,Александр Дорохов,SBD
No,Multi-ply,1,Nikolay Vorobyev,Pro Masters 40-44,1965,86.2,-250,250,-270,250,-190,190,200,200,,210,230,,230,680,90,M,Николай Воробьев,SBD
No,Multi-ply,1,Vladimir Kopchuk,Pro Masters 50-54,1957,87.7,220,240,270.5,270.5,140,150,-160,150,,210,-227.5,230,230,650.5,90,M,Владимир Копчук,SBD
No,Multi-ply,1,Aleksandr Filimonov,Pro Juniors 20-23,1987,99.8,240,250,-270,250,175,182.5,187.5,187.5,,230,240,-250,240,677.5,100,M,Александр Филимонов,SBD
No,Multi-ply,3,Vladimir Zanko,Pro Open,1983,96.9,265,280,295,295,-205,205,-210,205,,230,240,-250,240,740,100,M,Владимир Занько,SBD
No,Multi-ply,4,Evgeniy Mozgunov,Pro Open,1979,98.2,-270,270,-280,270,170,-190,-200,170,,240,260,-280,260,700,100,M,Евгений Мозгунов,SBD
No,Multi-ply,DQ,Dmitriy Chertushkin,Pro Masters 40-44,1965,98.4,230,245,-260,245,-180,-180,-180,,,-210,,,,,100,M,Дмитрий Чертушкин,SBD
No,Multi-ply,1,Andrey Ermenin,Pro Masters 45-49,1964,94.1,210,-225,225,225,150,157.5,167.5,167.5,,210,227.5,230,230,622.5,100,M,Андрей Ерменин,SBD
No,Multi-ply,1,Oleg Tokarev,Pro Masters 55-59,1954,100,260,280,-300,280,210,-220,-220,210,,250,265,280,280,770,100,M,Олег Токарев,SBD
No,Multi-ply,2,Vladimir Vizgin,Pro Masters 55-59,1952,98.3,220,240,250,250,140,150,160,160,,200,220,-230,220,630,100,M,Владимир Визгин,SBD
No,Multi-ply,1,Aleksey Kozlov #1,Pro Submasters 33-39,1970,100,320,350,370.5,370.5,210,220,-230,220,,280,310,345,345,935.5,100,M,Алексей Козлов,SBD
No,Multi-ply,2,Oleg Filippovich,Pro Submasters 33-39,1970,97.8,310,330,340,340,190,-200,-200,190,,250,270,280,280,810,100,M,Олег Филиппович,SBD
No,Multi-ply,1,Artem Savelyev,Pro Juniors 20-23,1988,107.6,350,-380.5,-380.5,350,180,192.5,200,200,,300,315,-330,315,865,110,M,Артем Савельев,SBD
No,Multi-ply,1,Timur Andreev,Pro Open,1983,106.8,-400,400,-420.5,400,260,275,-280,275,,350,-365,365,365,1040,110,M,Тимур Андреев,SBD
No,Multi-ply,2,Artem Guseletov,Pro Open,1981,103.4,330,-350,350,350,-220,220,230,230,,310,335,337.5,337.5,917.5,110,M,Артем Гуселетов,SBD
No,Multi-ply,1,Konstantin Makovskiy,Pro Masters 50-54,1957,109.4,260,270,280,280,-185,-185,185,185,,240,-260,-260,240,705,110,M,Константин Маковский,SBD
No,Multi-ply,3,Dmitriy Sorokin,Pro Submasters 33-39,1971,106.2,325,340,355,355,230,245,255,255,,290,-305,-305,290,900,110,M,Дмитрий Сорокин,SBD
No,Multi-ply,1,Vyacheslav Sushin,Pro Submasters 33-39,1972,119.3,230,255,265,265,-170,170,175,175,,210,240,,240,680,125,M,Вячеслав Сушин,SBD
No,Multi-ply,1,Oleg Kuzmenko,Pro Submasters 33-39,1971,126.5,-300,300,320,320,200,-215,-215,200,,-285,285,-300,285,805,140,M,Олег Кузьменко,SBD
Yes,Raw,1,Olga Nazemnova,Amateur Teen 13-15,1996,28,27.5,30,32.5,32.5,22.5,25,27.5,27.5,,30,35,-40,35,95,44,F,Ольга Наземнова,SBD
Yes,Raw,1,Ekaterina Romanova,Amateur Teen 18-19,1990,42.9,50,55,-60,55,-35,37.5,-40,37.5,,50,55,60,60,152.5,44,F,Екатерина Романова,SBD
Yes,Raw,1,Roza Ovechkina,Amateur Open,1980,47.4,40,50,55,55,35,40,-42.5,40,,75,85,90,90,185,48,F,Роза Овечкина,SBD
Yes,Raw,1,Olesya Pervyshina,Amateur Open,1980,53.9,60,-70,72.5,72.5,45,47.5,50,50,,75,85,-97.5,85,207.5,56,F,Олеся Первышина,SBD
Yes,Raw,1,Darya Bredneva,Amateur Teen 16-17,1992,58.3,60,62.5,65,65,42.5,45,47.5,47.5,,85,90,97.5,97.5,210,60,F,Дарья Бреднева,SBD
Yes,Raw,DQ,Alena Sokolova,Amateur Open,1977,65.7,-95,-95,-95,,,,,,,,,,,,67.5,F,Алена Соколова,SBD
Yes,Raw,1,Pavel Rushentsev,Amateur Teen 13-15,1994,48.9,50,60,65,65,35,40,-45,40,,50,60,70,70,175,52,M,Павел Рушенцев,SBD
Yes,Raw,1,Anton Omarov,Amateur Open,1984,64.4,150,160,165,165,100,110,-115,110,,170,180,-190,180,455,67.5,M,Антон Омаров,SBD
Yes,Raw,DQ,Konstantin Sidenko,Amateur Masters 40-44,1967,64.7,-107.5,-107.5,-107.5,,,,,,,,,,,,67.5,M,Константин Сиденко,SBD
Yes,Raw,1,Aleksandr Yatmanov,Amateur Masters 45-49,1964,66.9,170,180,-185,180,-105,112.5,-117.5,112.5,,170,,,170,462.5,67.5,M,Александр Ятманов,SBD
Yes,Raw,1,Sergey Olisov,Amateur Teen 16-17,1992,74.5,140,145,-150,145,115,120,-125,120,,180,-190,-190,180,445,75,M,Сергей Олисов,SBD
Yes,Raw,DQ,Artem Mukhomorov,Amateur Teen 18-19,1991,73.7,-160,-160,-160,,,,,,,,,,,,75,M,Артем Мухоморов,SBD
Yes,Raw,1,Vyacheslav Sapozhnikov,Amateur Juniors 20-23,1988,73.5,120,130,140,140,90,100,-107.5,100,,150,170,-180,170,410,75,M,Вячеслав Сапожников,SBD
Yes,Raw,1,Ilya Gizatullin,Amateur Submasters 33-39,1974,74.2,155,160,-165,160,105,110,-112.5,110,,-205,205,-210,205,475,75,M,Илья Гизатуллин,SBD
Yes,Raw,DQ,Anton Safronov,Amateur Teen 18-19,1990,81.2,-165,-165,,,,,,,,,,,,,82.5,M,Антон Сафронов,SBD
Yes,Raw,DQ,Ruslan Chelebadze,Amateur Open,1981,79.8,-180,-180,-180,,,,,,,,,,,,82.5,M,Руслан Челебадзе,SBD
Yes,Raw,1,Aleksey Zykov,Amateur Submasters 33-39,1976,78.6,175,-180,-180,175,115,-120,120,120,,210,217.5,,217.5,512.5,82.5,M,Алексей Зыков,SBD
Yes,Raw,1,Sergei Terentyev,Amateur Teen 16-17,1992,86.3,100,110,122.5,122.5,97.5,-105,-110,97.5,,160,170,-177.5,170,390,90,M,Сергей Терентьев,SBD
Yes,Raw,1,Evgeniy Sobyanin,Amateur Teen 18-19,1990,90,140,150,160,160,120,130,135,135,,160,180,187.5,187.5,482.5,90,M,Евгений Собянин,SBD
Yes,Raw,1,Vasiliy Danilov,Amateur Juniors 20-23,1988,86.6,165,177.5,185,185,125,132.5,-137.5,132.5,,-175,185,-190,185,502.5,90,M,Василий Данилов,SBD
Yes,Raw,2,Vasiliy Shlykov,Amateur Open,1980,88.5,-150,-150,150,150,-110,110,115,115,,165,175,185,185,450,90,M,Василий Шлыков,SBD
Yes,Raw,1,Aleksey Bazhenov,Amateur Open,1977,87.8,185,195,210,210,145,152.5,-157.5,152.5,,200,217.5,225,225,587.5,90,M,Алексей Баженов,SBD
Yes,Raw,2,Leonid Okorokov,Amateur Open,1982,85.6,180,-190,-190,180,130,135,137.5,137.5,,190,200,210,210,527.5,90,M,Леонид Окороков,SBD
Yes,Raw,1,Ilya Nalimov,Amateur Juniors 20-23,1988,99.1,165,175,180,180,125,135,-140,135,,180,192.5,205,205,520,100,M,Илья Налимов,SBD
Yes,Raw,2,Ivan Gostinin,Amateur Juniors 20-23,1987,95,140,155,165,165,115,-122.5,-122.5,115,,180,200,220,220,500,100,M,Иван Гостинин,SBD
Yes,Raw,1,Vladimir Obzhilyanskiy,Amateur Open,1983,103.1,200,220,230,230,125,135,140,140,,230,250,265,265,635,110,M,Владимир Обжилянский,SBD
Yes,Raw,DQ,Maksim Zverev,Amateur Open,1982,105.7,-200,-200,-220,,,,,,,,,,,,110,M,Максим Зверев,SBD
Yes,Multi-ply,1,Yuliya Ermakova,Amateur Teen 13-15,1994,48.7,80,85,90,90,40,-42.5,42.5,42.5,,85,95,105,105,237.5,52,F,Юлия Ермакова,SBD
Yes,Multi-ply,1,Tatyana Rykunova,Amateur Submasters 33-39,1971,52,110,-115,-115,110,-60,-60,60,60,,95,100,-105,100,270,52,F,Татьяна Рыкунова,SBD
Yes,Multi-ply,1,Margarita Gass,Amateur Juniors 20-23,1988,56,130,-140,140,140,75,80,-85,80,,100,115,-125,115,335,56,F,Маргарита Гасс,SBD
Yes,Multi-ply,1,Pavel Izmodenov,Amateur Teen 13-15,1994,45.8,-90,90,100,100,47.5,52.5,-55,52.5,,95,-102.5,102.5,102.5,255,52,M,Павел Измоденов,SBD
Yes,Multi-ply,2,Artem Gorbachev,Amateur Teen 13-15,1996,47.3,85,95,100,100,47.5,-52.5,52.5,52.5,,85,95,102.5,102.5,255,52,M,Артем Горбачев,SBD
Yes,Multi-ply,1,Aleksey Boldyrev,Amateur Teen 13-15,1996,58.2,115,125,-130,125,47.5,52.5,-55,52.5,,-120,120,130,130,307.5,60,M,Алексей Болдырев,SBD
Yes,Multi-ply,1,Konstantin Nikolchenko,Amateur Teen 16-17,1992,59.5,145,-155,-160,145,90,-95,115,115,,130,140,-150,140,400,60,M,Константин Никольченко,SBD
Yes,Multi-ply,1,Mikhail Fateev,Amateur Juniors 20-23,1989,59.6,-190,200,210,210,142.5,150,-153,150,,190,-207.5,-207.5,190,550,60,M,Михаил Фатеев,SBD
Yes,Multi-ply,1,Evgeniy Glazkov,Amateur Teen 16-17,1993,65.2,195,210,225,225,-105,-105,105,105,,160,175,190,190,520,67.5,M,Евгений Глазков,SBD
Yes,Multi-ply,1,Anton Mogilevsky,Amateur Teen 18-19,1991,63.5,160,170,-180,170,130,140,-145,140,,165,175,180,180,490,67.5,M,Антон Могилевский,SBD
Yes,Multi-ply,DQ,Viktor Orlov,Amateur Teen 16-17,1993,63.4,-155,-155,,,,,,,,,,,,,67.5,M,Виктор Орлов,SBD
Yes,Multi-ply,1,Andrey Kadochnikov,Amateur Juniors 20-23,1988,65.4,215,222.5,227.5,227.5,115,125,132.5,132.5,,195,210,220,220,580,67.5,M,Андрей Кадочников,SBD
Yes,Multi-ply,1,Evgeniy Leontyev,Amateur Teen 16-17,1993,71,180,-190,-190,180,100,110,-117.5,110,,160,170,180,180,470,75,M,Евгений Леонтьев,SBD
Yes,Multi-ply,1,Andrey Syunkov,Amateur Juniors 20-23,1988,75,230,245,257.5,257.5,130,140,147.5,147.5,,240,260,-270,260,665,75,M,Андрей Сюньков,SBD
Yes,Multi-ply,1,Rinat Galeev,Amateur Submasters 33-39,1974,73.2,190,200,-210,200,115,-120,120,120,,195,-205,,195,515,75,M,Ринат Галеев,SBD
Yes,Multi-ply,1,Alexei Safonov,Amateur Open,1976,82.5,265,-285,-295,265,145,155,165,165,,220,240,255,255,685,82.5,M,Алексей Сафонов,SBD
Yes,Multi-ply,2,Andrey Buglanov,Amateur Open,1978,80,185,200,-215,200,145,152.5,157.5,157.5,,180,190,-200,190,547.5,82.5,M,Андрей Бугланов,SBD
Yes,Multi-ply,3,Dmitriy Dmitriev,Amateur Open,1982,78.6,195,205,210,210,125,130,,130,,-205,205,-215,205,545,82.5,M,Дмитрий Дмитриев,SBD
Yes,Multi-ply,1,Denis Mosharov,Amateur Teen 16-17,1992,82.8,220,235,245,245,120,130,140,140,,210,-220,-220,210,595,90,M,Денис Мошаров,SBD
Yes,Multi-ply,1,Andrey Simakov,Amateur Teen 18-19,1990,88.2,230,250,260,260,125,135,-145,135,,220,240,-250,240,635,90,M,Андрей Симаков,SBD
Yes,Multi-ply,1,Ilya Selivanov,Amateur Juniors 20-23,1989,88,200,215,-225,215,145,-160,-160,145,,175,190,-200,190,550,90,M,Илья Селиванов,SBD
Yes,Multi-ply,1,Anton Lunin,Amateur Open,1980,87.4,280,-300,-300,280,190,195,-200.5,195,,220,235,-250,235,710,90,M,Антон Лунин,SBD
Yes,Multi-ply,2,Evgeniy Gorelov,Amateur Open,1984,89.4,240,260,270,270,125,-135,-135,125,,-250,260,287.5,287.5,682.5,90,M,Евгений Горелов,SBD
Yes,Multi-ply,3,Aleksandr Dorokhov,Amateur Open,1983,88.4,250,265,-280,265,-145,145,,145,,220,230,-245,230,640,90,M,Александр Дорохов,SBD
Yes,Multi-ply,DQ,Vasiliy Zhilyakov,Amateur Open,1985,89.9,250,-265,265,265,-175,-175,-175,,,,,,,,90,M,Василий Жиляков,SBD
Yes,Multi-ply,1,Denis Kuznetsov,Amateur Juniors 20-23,1987,98.9,280,300,-310,300,150,160,165,165,,245,252.5,260,260,725,100,M,Денис Кузнецов,SBD
Yes,Multi-ply,DQ,Aleksandr Chuev,Amateur Masters 40-44,1966,96.6,-350,350,375,375,190,-200,-200,190,,-300,-300,-300,,,100,M,Александр Чуев,SBD
Yes,Multi-ply,1,Oleg Pisachenko,Amateur Masters 40-44,1965,101.8,-270,-285,290,290,170,185,,185,,235,245,-255,245,720,110,M,Олег Писаченко,SBD
No,Raw,DQ,Yuliya Minibaeva,Pro Submasters 33-39,1971,63.5,,,,,-50,-50,-50,,,,,,,,67.5,F,Юлия Минибаева,B
No,Raw,1,Tatyana Kibalina,Pro Submasters 33-39,1974,81.6,,,,,80,90,-100,90,,,,,,90,82.5,F,Татьяна Кибалина,B
No,Raw,1,Semen Paley,Pro Youth,1999,36.4,,,,,27.5,32.5,35,35,,,,,,35,52,M,Семен Палей,B
No,Raw,2,Ivan Repnitsyn,Pro Youth,1998,46,,,,,20,-25,-25,20,,,,,,20,52,M,Иван Репницын,B
No,Raw,1,Boris Anfyorov,Pro Open,1983,53.6,,,,,-70,70,75,75,,,,,,75,56,M,Борис Анфёров,B
No,Raw,1,Vitaliy Chigrinskiy,Pro Teen 13-15,1994,59.3,,,,,60,70,-75,70,,,,,,70,60,M,Виталий Чигринский,B
No,Raw,1,Yuriy Lebedev,Pro Masters 70-74,1938,60,,,,,75,80,-85,80,,,,,,80,60,M,Юрий Лебедев,B
No,Raw,1,Nikita Rastegaev,Pro Teen 13-15,1994,64.6,,,,,80,-87.5,-87.5,80,,,,,,80,67.5,M,Никита Растегаев,B
No,Raw,DQ,Andrei Zhilin,Pro Open,1980,67.4,,,,,-105,,,,,,,,,,67.5,M,Андрей Жилин,B
No,Raw,1,Ivan Kudryavtsev,Pro Teen 18-19,1990,74.2,,,,,115,-120,-120,115,,,,,,115,75,M,Иван Кудрявцев,B
No,Raw,1,Maksim Boldyrev,Pro Open,1978,76.9,,,,,167.5,177.5,182.5,182.5,,,,,,182.5,82.5,M,Максим Болдырев,B
No,Raw,2,Dmitriy Alekseenko,Pro Open,1984,81.5,,,,,165,170,-177.5,170,,,,,,170,82.5,M,Дмитрий Алексеенко,B
No,Raw,3,Denis Maslakov,Pro Open,1982,78,,,,,145,152.5,157.5,157.5,,,,,,157.5,82.5,M,Денис Маслаков,B
No,Raw,4,Vladimir Borisov,Pro Open,1981,76.9,,,,,140,147.5,155,155,,,,,,155,82.5,M,Владимир Борисов,B
No,Raw,6,Roman Lepeshkin,Pro Open,1978,81.3,,,,,-150,-150,150,150,,,,,,150,82.5,M,Роман Лепешкин,B
No,Raw,7,Yuriy Reshetnikov,Pro Open,1985,81.6,,,,,-125,-130,130,130,,,,,,130,82.5,M,Юрий Решетников,B
No,Raw,DQ,Dmitriy Rusakov,Pro Open,1978,79.1,,,,,-180,-180,-180,,,,,,,,82.5,M,Дмитрий Русаков,B
No,Raw,1,Vladimir Gurov,Pro Masters 45-49,1964,76.1,,,,,-110,110,115,115,,,,,,115,82.5,M,Владимир Гуров,B
No,Raw,5,Egor Startsev,Pro Submasters 33-39,1975,80.9,,,,,140,147.5,152.5,152.5,,,,,,152.5,82.5,M,Егор Старцев,B
No,Raw,1,Aleksandr Sterzhanov,Pro Teen 18-19,1991,85.5,,,,,120,130,-135,130,,,,,,130,90,M,Александр Стержанов,B
No,Raw,1,Pavel Shurygin,Pro Juniors 20-23,1988,89.6,,,,,135,140,150,150,,,,,,150,90,M,Павел Шурыгин,B
No,Raw,1,Aleksey Ponosov,Pro Open,1983,88.4,,,,,180,-187.5,187.5,187.5,,,,,,187.5,90,M,Алексей Поносов,B
No,Raw,6,Konstantin Pasechkin,Pro Open,,90,,,,,170,-180,-180,170,,,,,,170,90,M,Константин Пасечкин,B
No,Raw,8,Aleksandr Kozionov,Pro Open,1979,88.3,,,,,145,150,-152.5,150,,,,,,150,90,M,Александр Козионов,B
No,Raw,1,Vladimir Soloboev,Pro Masters 50-54,1958,88.7,,,,,127.5,135,140,140,,,,,,140,90,M,Владимир Солобоев,B
No,Raw,2,Mikhail Khudyakov,Pro Masters 50-54,1955,89.2,,,,,130,137.5,140,140,,,,,,140,90,M,Михаил Худяков,B
No,Raw,2,Grigoriy Serebrennikov,Pro Submasters 33-39,1973,87.2,,,,,175,-185,185,185,,,,,,185,90,M,Григорий Серебренников,B
No,Raw,3,Sergey Panin,Pro Submasters 33-39,1975,88.3,,,,,185,-192.5,-192.5,185,,,,,,185,90,M,Сергей Панин,B
No,Raw,4,Igor Korzhavin,Pro Submasters 33-39,1976,90,,,,,175,185,-187.5,185,,,,,,185,90,M,Игорь Коржавин,B
No,Raw,5,Oleg Osipov,Pro Submasters 33-39,1973,89.8,,,,,175,182.5,-187.5,182.5,,,,,,182.5,90,M,Олег Осипов,B
No,Raw,7,Evgeniy Babushkin,Pro Submasters 33-39,1972,87.6,,,,,140,145,150,150,,,,,,150,90,M,Евгений Бабушкин,B
No,Raw,1,Pavel Kokh,Pro Teen 18-19,,92,,,,,55,-60,60,60,,,,,,60,100,M,Павел Кох,B
No,Raw,1,Ivan Minko,Pro Juniors 20-23,1988,99.9,,,,,160,177.5,180,180,,,,,,180,100,M,Иван Минко,B
No,Raw,1,Konstantin Otavin,Pro Open,1973,99.6,,,,,215,225,-230,225,,,,,,225,100,M,Константин Отавин,B
No,Raw,2,Vadim Smirnov,Pro Open,1982,98.1,,,,,190,195,-200,195,,,,,,195,100,M,Вадим Смирнов,B
No,Raw,4,Aleksandr Plaksin,Pro Open,1979,98.2,,,,,165,172.5,-177.5,172.5,,,,,,172.5,100,M,Александр Плаксин,B
No,Raw,1,Aleksandr Russkikh,Pro Masters 40-44,1967,99.3,,,,,-162.5,162.5,-172.5,162.5,,,,,,162.5,100,M,Александр Русских,B
No,Raw,1,Viktor Kachusov,Pro Masters 45-49,1960,99.5,,,,,140,145,147.5,147.5,,,,,,147.5,100,M,Виктор Качусов,B
No,Raw,3,Yakov Berman,Pro Submasters 33-39,1972,99.5,,,,,180,190,-200,190,,,,,,190,100,M,Яков Берман,B
No,Raw,1,Anatoliy Serbin,Pro Teen 18-19,1990,110,,,,,200,210,215,215,,,,,,215,110,M,Анатолий Сербин,B
No,Raw,2,Renat Khaziev,Pro Teen 18-19,1990,103.5,,,,,185,195,200,200,,,,,,200,110,M,Ренат Хазиев,B
No,Raw,1,Sergey Gerasimov,Pro Juniors 20-23,1989,102.5,,,,,150,160,-170,160,,,,,,160,110,M,Сергей Герасимов,B
No,Raw,1,Andrey Ovechkin,Pro Open,1979,110,,,,,-205,205,-215,205,,,,,,205,110,M,Андрей Овечкин,B
No,Raw,2,Mikhail Sibagatov,Pro Open,1984,107.6,,,,,-202.5,202.5,-207.5,202.5,,,,,,202.5,110,M,Михаил Сибагатов,B
No,Raw,3,Evgeniy Illarionov,Pro Open,1982,109.5,,,,,190,-205,-205,190,,,,,,190,110,M,Евгений Илларионов,B
No,Raw,4,Ruslan Mironov,Pro Open,1980,103,,,,,175,185,-187.5,185,,,,,,185,110,M,Руслан Миронов,B
No,Raw,DQ,Evgeniy Mironov,Pro Open,1980,107,,,,,-170,-180,-180,,,,,,,,110,M,Евгений Миронов,B
No,Raw,1,Albert Fakhretdinov,Pro Juniors 20-23,1987,115.7,,,,,-180,-180,180,180,,,,,,180,125,M,Альберт Фахретдинов,B
No,Raw,2,Aleksey Krivosheev,Pro Open,1978,122.6,,,,,-205,210,-215,210,,,,,,210,125,M,Алексей Кривошеев,B
No,Raw,3,Aleksandr Saytgalin,Pro Open,1974,114.3,,,,,190,205,-207.5,205,,,,,,205,125,M,Александр Сайтгалин,B
No,Raw,DQ,Stanislav Borisov,Pro Open,1983,120.8,,,,,-190,-192.5,-192.5,,,,,,,,125,M,Станислав Борисов,B
No,Raw,DQ,Aleksey Yakimov,Pro Open,1975,120.9,,,,,-240,-240,-240,,,,,,,,125,M,Алексей Якимов,B
No,Raw,1,Andrey Kostromin,Pro Masters 40-44,1968,119.9,,,,,210,-230,-230,210,,,,,,210,125,M,Андрей Костромин,B
No,Raw,2,Yuriy Maksimov,Pro Masters 40-44,1967,116.8,,,,,-150,150,-160,150,,,,,,150,125,M,Юрий Максимов,B
No,Raw,3,Andrey Govorukha,Pro Masters 40-44,1966,111.5,,,,,120,130,137.5,137.5,,,,,,137.5,125,M,Андрей Говоруха,B
No,Raw,1,Sergey Kapusta,Pro Submasters 33-39,1972,120.2,,,,,-220,220,-230,220,,,,,,220,125,M,Сергей Капуста,B
No,Raw,4,Roman Shevelev,Pro Submasters 33-39,1976,119.6,,,,,190,200,-210,200,,,,,,200,125,M,Роман Шевелев,B
No,Multi-ply,1,Alina Isakova,Pro Teen 16-17,1992,59.8,,,,,92.5,-102.5,102.5,102.5,,,,,,102.5,60,F,Алина Исакова,B
No,Multi-ply,1,Ekaterina Ustyuzhaninova,Pro Juniors 20-23,1988,67.3,,,,,-100,-107.5,107.5,107.5,,,,,,107.5,67.5,F,Екатерина Устюжанинова,B
No,Multi-ply,1,Olga Murakaeva,Pro Open,1977,71.5,,,,,-92.5,-92.5,95,95,,,,,,95,75,F,Ольга Муракаева,B
No,Multi-ply,1,Vadim Sokushev,Pro Teen 18-19,1990,51.3,,,,,110,115,-130,115,,,,,,115,52,M,Вадим Сокушев,B
No,Multi-ply,1,Anton Danilov,Pro Teen 18-19,1990,59.7,,,,,-135,135,145,145,,,,,,145,60,M,Антон Данилов,B
No,Multi-ply,1,Semen Filyakin,Pro Teen 18-19,1991,67,,,,,137.5,145,-152.5,145,,,,,,145,67.5,M,Семён Филякин,B
No,Multi-ply,1,Dmitriy Volkov,Pro Open,,66.5,,,,,130,-140,-145,130,,,,,,130,67.5,M,Дмитрий Волков,B
No,Multi-ply,1,Dmitriy Ovcharov,Pro Juniors 20-23,1989,74.8,,,,,170,180,-190,180,,,,,,180,75,M,Дмитрий Овчаров,B
No,Multi-ply,1,Mikhail Shesterov,Pro Open,1987,74.7,,,,,-180,185,-192.5,185,,,,,,185,75,M,Михаил Шестеров,B
No,Multi-ply,1,Igor Kuimov,Pro Masters 45-49,1962,75,,,,,195,-205,-207.5,195,,,,,,195,75,M,Игорь Куимов,B
No,Multi-ply,1,Dmitriy Alekseenko,Pro Open,1984,81.5,,,,,-185,192.5,-217.5,192.5,,,,,,192.5,82.5,M,Дмитрий Алексеенко,B
No,Multi-ply,2,Pavel Tsetsulin,Pro Open,1978,80.6,,,,,180,190,-192.5,190,,,,,,190,82.5,M,Павел Цецулин,B
No,Multi-ply,DQ,Ivan Zyablikov,Pro Masters 60-64,1948,81.8,,,,,-175.5,-175.5,-175.5,,,,,,,,82.5,M,Иван Зябликов,B
No,Multi-ply,DQ,Andrey Miroshnichenko,Pro Submasters 33-39,1975,81.8,,,,,-192.5,-192.5,-192.5,,,,,,,,82.5,M,Андрей Мирошниченко,B
No,Multi-ply,1,Andrey Guz,Pro Teen 18-19,1990,87.6,,,,,185,192.5,195,195,,,,,,195,90,M,Андрей Гузь,B
No,Multi-ply,2,Dmitriy Myasnikov,Pro Teen 18-19,1990,89.4,,,,,-180,180,195,195,,,,,,195,90,M,Дмитрий Мясников,B
No,Multi-ply,1,Roman Gorkovchuk,Pro Juniors 20-23,1988,90,,,,,192.5,202.5,207.5,207.5,,,,,,207.5,90,M,Роман Горковчук,B
No,Multi-ply,2,Aleksandr Savin,Pro Juniors 20-23,1986,89.5,,,,,-195,202.5,205,205,,,,,,205,90,M,Александр Савин,B
No,Multi-ply,3,Nikolay Novoselov,Pro Juniors 20-23,1988,88,,,,,185,202.5,-230,202.5,,,,,,202.5,90,M,Николай Новоселов,B
No,Multi-ply,3,Aleksandr Mozgunov,Pro Open,1983,86.2,,,,,-185,-195,195,195,,,,,,195,90,M,Александр Мозгунов,B
No,Multi-ply,DQ,Vladislav Pudovkin,Pro Open,1988,87,,,,,-202.5,-202.5,-202.5,,,,,,,,90,M,Владислав Пудовкин,B
No,Multi-ply,1,Igor Sergeev,Pro Masters 40-44,1966,88.4,,,,,240,-250,-250,240,,,,,,240,90,M,Игорь Сергеев,B
No,Multi-ply,2,Artur Druzhinin,Pro Masters 40-44,1968,89.6,,,,,170,180,185,185,,,,,,185,90,M,Артур Дружинин,B
No,Multi-ply,DQ,Evgeniy Basov,Pro Masters 50-54,1955,89.5,,,,,-135,-135,-135,,,,,,,,90,M,Евгений Басов,B
No,Multi-ply,1,Vladimir Chadkov,Pro Submasters 33-39,1972,90,,,,,270,285,290,290,,,,,,290,90,M,Владимир Чадков,B
No,Multi-ply,2,Sergey Panin,Pro Submasters 33-39,1975,88.3,,,,,210,220,-227.5,220,,,,,,220,90,M,Сергей Панин,B
No,Multi-ply,1,Aleksandr Filimonov,Pro Juniors 20-23,1987,100,,,,,-180,180,192.5,192.5,,,,,,192.5,100,M,Александр Филимонов,B
No,Multi-ply,1,Aleksandr Gulin,Pro Open,1984,98,,,,,240,-250,-250,240,,,,,,240,100,M,Александр Гулин,B
No,Multi-ply,3,Rustam Abdulvagidov,Pro Open,1983,99.8,,,,,180,-190,-190,180,,,,,,180,100,M,Рустам Абдулвагидов,B
No,Multi-ply,DQ,Aleksey Svatkovskiy,Pro Open,1978,97.8,,,,,-180,-180,-180,,,,,,,,100,M,Алексей Сватковский,B
No,Multi-ply,1,Andrey Martemyanov,Pro Masters 45-49,1961,99.8,,,,,175,185,200,200,,,,,,200,100,M,Андрей Мартемьянов,B
No,Multi-ply,DQ,Aleksandr Alekseenko,Pro Masters 45-49,1963,97.4,,,,,-197.5,-197.5,-197.5,,,,,,,,100,M,Александр Алексеенко,B
No,Multi-ply,1,Kalimulla Murzakhanov,Pro Masters 50-54,1955,98.3,,,,,180,192.5,200,200,,,,,,200,100,M,Калимулла Мурзаханов,B
No,Multi-ply,1,Oleg Tokarev,Pro Masters 55-59,1954,99.7,,,,,210,215,222.5,222.5,,,,,,222.5,100,M,Олег Токарев,B
No,Multi-ply,2,Andrey Fadeev,Pro Submasters 33-39,1970,99.3,,,,,210,225,-242.5,225,,,,,,225,100,M,Андрей Фадеев,B
No,Multi-ply,DQ,Eduard Khaliullin,Pro Submasters 33-39,1973,97.7,,,,,-265,-265,-265,,,,,,,,100,M,Эдуард Халиуллин,B
No,Multi-ply,DQ,Aleksey Bakharev,Pro Submasters 33-39,1973,99,,,,,-220,-220,-220,,,,,,,,100,M,Алексей Бахарев,B
No,Multi-ply,DQ,Konstantin Otavin,Pro Submasters 33-39,1973,99.6,,,,,-300,-305,,,,,,,,,100,M,Константин Отавин,B
No,Multi-ply,1,Maksim Karkavin,Pro Juniors 20-23,1986,108.2,,,,,-215,215,-225,215,,,,,,215,110,M,Максим Каркавин,B
No,Multi-ply,2,Anton Pavlov,Pro Juniors 20-23,1985,104.2,,,,,-200,200,-215,200,,,,,,200,110,M,Антон Павлов,B
No,Multi-ply,1,Kirill Ignatyev,Pro Open,1984,108.3,,,,,215,235,250,250,,,,,,250,110,M,Кирилл Игнатьев,B
No,Multi-ply,DQ,Dmitriy Khanykov,Pro Open,1983,101.7,,,,,-250,-250,-250,,,,,,,,110,M,Дмитрий Ханыков,B
No,Multi-ply,DQ,Sergey Zentsov,Pro Open,1976,104.2,,,,,-220,-220,-220,,,,,,,,110,M,Сергей Зенцов,B
No,Multi-ply,DQ,Andrey Nikonov,Pro Open,1982,107,,,,,-230,-230,-230,,,,,,,,110,M,Андрей Никонов,B
No,Multi-ply,DQ,Vladimir Fil,Pro Open,1976,108.1,,,,,-230,-250,-250,,,,,,,,110,M,Владимир Филь,B
No,Multi-ply,DQ,Artem Sedov,Pro Open,1979,109.3,,,,,-215,-220,-220,,,,,,,,110,M,Артем Седов,B
No,Multi-ply,DQ,Maksim Shabanov,Pro Open,1980,109.3,,,,,-220,-220,-220,,,,,,,,110,M,Максим Шабанов,B
No,Multi-ply,DQ,Stanislav Mordvinov,Pro Open,1983,110,,,,,-245,-245,-250,,,,,,,,110,M,Станислав Мордвинов,B
No,Multi-ply,1,Sergey Kudinov,Pro Masters 45-49,1963,107.6,,,,,250,,,250,,,,,,250,110,M,Сергей Кудинов,B
No,Multi-ply,DQ,Nikolay Mozharovskiy,Pro Submasters 33-39,1973,109.5,,,,,-220,-220,-220,,,,,,,,110,M,Николай Можаровский,B
No,Multi-ply,1,Andrey Zverev,Pro Juniors 20-23,1987,112.6,,,,,200,232.5,240,240,,,,,,240,125,M,Андрей Зверев,B
No,Multi-ply,1,Nikolay Pyshmintsev,Pro Open,1981,124.5,,,,,305,-320,320,320,,,,,,320,125,M,Николай Пышминцев,B
No,Multi-ply,1,Aleksandr Seregin,Pro Open,1980,125.2,,,,,265,-275,275,275,,,,,,275,140,M,Александр Серегин,B
No,Multi-ply,DQ,Aleksandr Chernov,Pro Open,1985,113.9,,,,,-150,-150,-150,,,,,,,,125,M,Александр Чернов,B
No,Multi-ply,DQ,Rinat Kabirov,Pro Open,1979,116.7,,,,,-292.5,-292.5,,,,,,,,,125,M,Ринат Кабиров,B
No,Multi-ply,2,Igor Balashov,Pro Submasters 33-39,1976,115.5,,,,,240,-260,-260,240,,,,,,240,125,M,Игорь Балашов,B
No,Multi-ply,1,Mikhail Zisman,Pro Juniors 20-23,1986,170,,,,,100,-180,-195,100,,,,,,100,140+,M,Михаил Зисман,B
Yes,Raw,1,Mariya Dyukova,Amateur Open,1984,50.7,,,,,-52.5,52.5,55,55,,,,,,55,52,F,Мария Дюкова,B
Yes,Raw,3,Tatyana Solonenko,Amateur Open,1981,51.2,,,,,40,-45,-47.5,40,,,,,,40,52,F,Татьяна Солоненко,B
Yes,Raw,2,Olga Lebedeva,Amateur Submasters 33-39,1971,49.8,,,,,-45,45,-50,45,,,,,,45,52,F,Ольга Лебедева,B
Yes,Raw,1,Yuliya Ponomareva,Amateur Teen 13-15,1995,55.7,,,,,35,-37.5,37.5,37.5,,,,,,37.5,56,F,Юлия Пономарева,B
Yes,Raw,1,Ziliya Chayka,Amateur Juniors 20-23,1985,55.8,,,,,60,-67.5,-67.5,60,,,,,,60,56,F,Зилия Чайка,B
Yes,Raw,1,Elena Pervushina,Amateur Open,1980,55.1,,,,,52.5,55,-57.5,55,,,,,,55,56,F,Елена Первушина,B
Yes,Raw,2,Polina Dudina,Amateur Open,1977,54.6,,,,,47.5,-52.5,52.5,52.5,,,,,,52.5,56,F,Полина Дудина,B
Yes,Raw,3,Olesya Pervyshina,Amateur Open,1980,54.2,,,,,47.5,50,-52.5,50,,,,,,50,56,F,Олеся Первышина,B
Yes,Raw,4,Tatyana Lanskikh,Amateur Submasters 33-39,1971,55.1,,,,,47.5,-52.5,-57.5,47.5,,,,,,47.5,56,F,Татьяна Ланских,B
Yes,Raw,1,Tatyana Maksimenko,Amateur Juniors 20-23,1986,58.6,,,,,-60,60,-65,60,,,,,,60,60,F,Татьяна Максименко,B
Yes,Raw,1,Natalya Ignatyeva,Amateur Open,1976,57.2,,,,,40,45,-47.5,45,,,,,,45,60,F,Наталья Игнатьева,B
Yes,Raw,2,Elena Nikolaeva,Amateur Open,1971,59.9,,,,,37.5,40,42.5,42.5,,,,,,42.5,60,F,Елена Николаева,B
Yes,Raw,1,Yelizaveta Borisova,Amateur Juniors 20-23,1989,64.8,,,,,67.5,-72.5,-72.5,67.5,,,,,,67.5,67.5,F,Елизавета Борисова,B
Yes,Raw,DQ,Evgeniya Volkova,Amateur Juniors 20-23,1987,63.9,,,,,-80,-80,-80,,,,,,,,67.5,F,Евгения Волкова,B
Yes,Raw,1,Elena Artamonova,Amateur Submasters 33-39,1971,65.4,,,,,40,45,-50,45,,,,,,45,67.5,F,Елена Артамонова,B
Yes,Raw,1,Sergey Shershnev,Amateur Youth,1997,52,,,,,35,40,42.5,42.5,,,,,,42.5,52,M,Сергей Шершнев,B
Yes,Raw,DQ,Artem Fominykh,Amateur Teen 16-17,1991,50.8,,,,,-77.5,-77.5,-77.5,,,,,,,,52,M,Артем Фоминых,B
Yes,Raw,1,Alexander Medvedchuk,Amateur Juniors 20-23,1986,51.2,,,,,-100,100,-105,100,,,,,,100,52,M,Александр Медведчук,B
Yes,Raw,1,Aleksandr Silantyev,Amateur Teen 13-15,1994,55.9,,,,,50,-52.5,-55,50,,,,,,50,56,M,Александр Силантьев,B
Yes,Raw,1,Ivan Kudryavtsev,Amateur Teen 16-17,1993,54.5,,,,,85,92.5,97.5,97.5,,,,,,97.5,56,M,Иван Кудрявцев,B
Yes,Raw,DQ,Vadim Skorodumov,Amateur Teen 16-17,1993,56,,,,,-50,-55,-57.5,,,,,,,,56,M,Вадим Скородумов,B
Yes,Raw,1,Aleksey Maklakov,Amateur Teen 16-17,1992,60,,,,,100,-115,-115,100,,,,,,100,60,M,Алексей Маклаков,B
Yes,Raw,2,Vladislav Trubin,Amateur Teen 16-17,1993,58.7,,,,,60,70,80,80,,,,,,80,60,M,Владислав Трубин,B
Yes,Raw,3,Vladislav Titov,Amateur Teen 16-17,1993,60,,,,,67.5,-75,-75,67.5,,,,,,67.5,60,M,Владислав Титов,B
Yes,Raw,4,Kirill Sharin,Amateur Teen 16-17,1992,59.8,,,,,50,55,-60,55,,,,,,55,60,M,Кирилл Шарин,B
Yes,Raw,1,Aleksey Betev,Amateur Juniors 20-23,1989,58.7,,,,,115,-125,-125,115,,,,,,115,60,M,Алексей Бетёв,B
Yes,Raw,1,Nikita Menshchikov,Amateur Open,1983,58.4,,,,,-115,125,127.5,127.5,,,,,,127.5,60,M,Никита Меньщиков,B
Yes,Raw,1,Sergey Tyapkin,Amateur Teen 13-15,1995,66.4,,,,,90,-95,95,95,100,,,,,95,67.5,M,Сергей Тяпкин,B
Yes,Raw,2,Aleksandr Chernykh,Amateur Teen 13-15,1994,66.3,,,,,-67.5,67.5,72.5,72.5,,,,,,72.5,67.5,M,Александр Черных,B
Yes,Raw,1,Kirill Nezavitin,Amateur Teen 16-17,1993,66.4,,,,,-105,105,110,110,,,,,,110,67.5,M,Кирилл Незавитин,B
Yes,Raw,2,Aleksey Opalev,Amateur Teen 16-17,1991,66.1,,,,,87.5,92.5,-95,92.5,,,,,,92.5,67.5,M,Алексей Опалев,B
Yes,Raw,1,Viktor Putintsev,Amateur Teen 18-19,1991,61.8,,,,,-115,115,117.5,117.5,,,,,,117.5,67.5,M,Виктор Путинцев,B
Yes,Raw,2,Artem Terentyev,Amateur Teen 18-19,1989,62.5,,,,,95,105,-110,105,,,,,,105,67.5,M,Артем Терентьев,B
Yes,Raw,1,Sergey Morozov,Amateur Juniors 20-23,1986,66.4,,,,,-120,120,130,130,,,,,,130,67.5,M,Сергей Морозов,B
Yes,Raw,2,Evgeniy Yunosov,Amateur Juniors 20-23,1987,66.7,,,,,105,110,-115,110,,,,,,110,67.5,M,Евгений Юносов,B
Yes,Raw,3,Ruslan Mirzoev,Amateur Open,1984,65.7,,,,,107.5,115,117.5,117.5,,,,,,117.5,67.5,M,Руслан Мирзоев,B
Yes,Raw,4,Andrei Zhilin,Amateur Open,1980,67.4,,,,,105,110,115,115,,,,,,115,67.5,M,Андрей Жилин,B
Yes,Raw,DQ,Rinat Sultanov,Amateur Open,1984,67.2,,,,,-110,-110,-110,,,,,,,,67.5,M,Ринат Султанов,B
Yes,Raw,1,Dmitriy Shalunov,Amateur Submasters 33-39,1973,66.6,,,,,-125,125,-130,125,,,,,,125,67.5,M,Дмитрий Шалунов,B
Yes,Raw,2,Aleksey Rogov,Amateur Submasters 33-39,1972,66.8,,,,,117.5,120,122.5,122.5,,,,,,122.5,67.5,M,Алексей Рогов,B
Yes,Raw,1,Artush Karapetyan,Amateur Teen 16-17,1991,74.4,,,,,-85,85,-90,85,,,,,,85,75,M,Артуш Карапетян,B
Yes,Raw,1,Aleksandr Yalunin,Amateur Teen 18-19,1989,70.5,,,,,125,130,-135,130,,,,,,130,75,M,Александр Ялунин,B
Yes,Raw,1,Aleksey Lapin,Amateur Juniors 20-23,1986,73.6,,,,,130,140,-142.5,140,,,,,,140,75,M,Алексей Лапин,B
Yes,Raw,2,Pavel Tsyrkin,Amateur Juniors 20-23,1987,74.5,,,,,105,-107.5,107.5,107.5,,,,,,107.5,75,M,Павел Цыркин,B
Yes,Raw,DQ,Dmitriy Zaporozhan,Amateur Juniors 20-23,1986,73.5,,,,,-115,-115,-125,,,,,,,,75,M,Дмитрий Запорожан,B
Yes,Raw,DQ,Stanislav Nevezhin,Amateur Juniors 20-23,1988,72.6,,,,,-120,-120,-125,,,,,,,,75,M,Станислав Невежин,B
Yes,Raw,1,Igor Dyachenko,Amateur Open,1984,72.1,,,,,140,147.5,152.5,152.5,,,,,,152.5,75,M,Игорь Дьяченко,B
Yes,Raw,4,Dmitriy Balkhovskikh,Amateur Open,1985,72.5,,,,,115,125,132.5,132.5,,,,,,132.5,75,M,Дмитрий Балховских,B
Yes,Raw,6,Sergey Ovagimyan,Amateur Open,1978,73.8,,,,,-120,120,-130,120,,,,,,120,75,M,Сергей Овагимьян,B
Yes,Raw,DD,Andrey Krasnozhon,Amateur Open,1982,74.2,,,,,125,132.5,-140,132.5,,,,,,,75,M,Андрей Красножон,B
Yes,Raw,1,Vyacheslav Ermakov,Amateur Masters 45-49,1964,70.9,,,,,130,-140,140,140,,,,,,140,75,M,Вячеслав Ермаков,B
Yes,Raw,2,Vadim Rozenfeld,Amateur Submasters 33-39,1973,74,,,,,145,147.5,-150,147.5,,,,,,147.5,75,M,Вадим Розенфельд,B
Yes,Raw,3,Valeriy Bazanov,Amateur Submasters 33-39,1971,74.5,,,,,140,-142.5,-142.5,140,,,,,,140,75,M,Валерий Базанов,B
Yes,Raw,1,Igor Zhukov,Amateur Teen 13-15,1993,80.9,,,,,110,-115,115,115,,,,,,115,82.5,M,Игорь Жуков,B
Yes,Raw,1,Nikita Rezitskiy,Amateur Teen 16-17,1993,75.9,,,,,105,-112.5,115,115,,,,,,115,82.5,M,Никита Резицкий,B
Yes,Raw,1,Egor Smirnov,Amateur Juniors 20-23,1989,79.2,,,,,132.5,137.5,-142.5,137.5,,,,,,137.5,82.5,M,Егор Смирнов,B
Yes,Raw,2,Evgeniy Seleznev,Amateur Juniors 20-23,1986,80,,,,,132.5,-135,-135,132.5,,,,,,132.5,82.5,M,Евгений Селезнев,B
Yes,Raw,3,Nikolay Borisov,Amateur Juniors 20-23,1987,76.8,,,,,-105,112.5,115,115,,,,,,115,82.5,M,Николай Борисов,B
Yes,Raw,3,Aleksey Rodak,Amateur Open,1981,82.1,,,,,-145,150,-155,150,,,,,,150,82.5,M,Алексей Родак,B
Yes,Raw,4,Konstantin Kuznetsov,Amateur Open,1983,80.5,,,,,145,-155,-155,145,,,,,,145,82.5,M,Константин Кузнецов,B
Yes,Raw,5,Petr Borisov,Amateur Open,1981,81.1,,,,,137.5,-142.5,142.5,142.5,,,,,,142.5,82.5,M,Петр Борисов,B
Yes,Raw,6,Nikolay Povalkin,Amateur Open,1984,81.5,,,,,137.5,142.5,-145,142.5,,,,,,142.5,82.5,M,Николай Повалкин,B
Yes,Raw,7,Nikita Dementyev,Amateur Open,1985,79.6,,,,,-140,140,-150,140,,,,,,140,82.5,M,Никита Дементьев,B
Yes,Raw,8,Artem Kozlov,Amateur Open,1985,80.1,,,,,125,132.5,-137.5,132.5,,,,,,132.5,82.5,M,Артем Козлов,B
Yes,Raw,DQ,Ivan Demidenko,Amateur Open,1976,80.4,,,,,-130,-132.5,-132.5,,,,,,,,82.5,M,Иван Демиденко,B
Yes,Raw,DQ,Artem Istomin,Amateur Open,1979,82.1,,,,,-115,-115,-115,,,,,,,,82.5,M,Артем Истомин,B
Yes,Raw,1,Konstantin Tikhomirov,Amateur Masters 55-59,1952,80.7,,,,,125,130,-135,130,,,,,,130,82.5,M,Константин Тихомиров,B
Yes,Raw,2,Yuriy Kotov,Amateur Masters 55-59,1951,81.1,,,,,110,112.5,-120,112.5,,,,,,112.5,82.5,M,Юрий Котов,B
Yes,Raw,1,Andrei Galaida,Amateur Submasters 33-39,1972,82.3,,,,,170,-180,180,180,,,,,,180,82.5,M,Андрей Галайда,B
Yes,Raw,2,Sergey Razzhivin,Amateur Submasters 33-39,1975,80.8,,,,,155,162.5,-165,162.5,,,,,,162.5,82.5,M,Сергей Разживин,B
Yes,Raw,1,Sergey Plakhotin,Amateur Juniors 20-23,1986,87.6,,,,,147.5,155,162.5,162.5,,,,,,162.5,90,M,Сергей Плахотин,B
Yes,Raw,2,Vyacheslav Beltyukov,Amateur Juniors 20-23,1987,89.1,,,,,130,137.5,142.5,142.5,,,,,,142.5,90,M,Вячеслав Бельтюков,B
Yes,Raw,2,Denis Frolov,Amateur Open,1979,87.6,,,,,140,155,157.5,157.5,,,,,,157.5,90,M,Денис Фролов,B
Yes,Raw,3,Maksim Takhtay,Amateur Open,1980,88.5,,,,,150,155,-162.5,155,,,,,,155,90,M,Максим Тахтай,B
Yes,Raw,5,Aleksandr Kozhevin,Amateur Open,1979,89.9,,,,,152.5,-155,-155,152.5,,,,,,152.5,90,M,Александр Кожевин,B
Yes,Raw,6,Anton Bachurin,Amateur Open,1980,83.2,,,,,145,-150,-150,145,,,,,,145,90,M,Антон Бачурин,B
Yes,Raw,7,Maksim Pechenkin,Amateur Open,1977,89.2,,,,,137.5,-155,-155,137.5,,,,,,137.5,90,M,Максим Печенкин,B
Yes,Raw,8,Valentin Nechaev,Amateur Open,1980,88.4,,,,,125,130,-137.5,130,,,,,,130,90,M,Валентин Нечаев,B
Yes,Raw,1,Pavel Galayda,Amateur Masters 40-44,1968,88.8,,,,,140,-150,-150,140,,,,,,140,90,M,Павел Галайда,B
Yes,Raw,1,Andrey Noritsyn,Amateur Masters 45-49,1963,88.9,,,,,155,-160,160,160,,,,,,160,90,M,Андрей Норицын,B
Yes,Raw,1,Gennadiy Semenov #2,Amateur Masters 50-54,1958,88.7,,,,,105,-110,-110,105,,,,,,105,90,M,Геннадий Семенов,B
Yes,Raw,1,Vladimir Galkin,Amateur Submasters 33-39,1975,85.9,,,,,145,155,160,160,,,,,,160,90,M,Владимир Галкин,B
Yes,Raw,4,Vladimir Gerasimov,Amateur Submasters 33-39,1972,89,,,,,145,150,155,155,,,,,,155,90,M,Владимир Герасимов,B
Yes,Raw,1,Ilya Pakhomov,Amateur Juniors 20-23,1988,98.2,,,,,170,-180,-180,170,,,,,,170,100,M,Илья Пахомов,B
Yes,Raw,2,Roman Kusov,Amateur Juniors 20-23,1987,97.7,,,,,137.5,-142.5,-142.5,137.5,,,,,,137.5,100,M,Роман Кусов,B
Yes,Raw,3,Sergey Malyugin,Amateur Juniors 20-23,1986,96.9,,,,,135,-142.5,-142.5,135,,,,,,135,100,M,Сергей Малюгин,B
Yes,Raw,1,Andrey Tagankin,Amateur Open,1984,98.1,,,,,160,167.5,-170,167.5,,,,,,167.5,100,M,Андрей Таганкин,B
Yes,Raw,2,Aleksey Pankratyev,Amateur Open,1983,97.4,,,,,-162.5,-162.5,162.5,162.5,,,,,,162.5,100,M,Алексей Панкратьев,B
Yes,Raw,3,Evgeniy Pozdin,Amateur Open,1981,97.1,,,,,-155,-155,155,155,,,,,,155,100,M,Евгений Поздин,B
Yes,Raw,4,Vitaliy Baranov,Amateur Open,1980,97.6,,,,,142.5,147.5,155,155,,,,,,155,100,M,Виталий Баранов,B
Yes,Raw,5,Denis Ryzhiy,Amateur Open,1977,98.7,,,,,-145,145,-162.5,145,,,,,,145,100,M,Денис Рыжий,B
Yes,Raw,DQ,Vladimir Schukin,Amateur Open,1980,96.5,,,,,-175,-175,-175,,,,,,,,100,M,Владимир Щукин,B
Yes,Raw,1,Andrey Chusovitin,Amateur Masters 40-44,1969,98,,,,,145,152.5,-155,152.5,,,,,,152.5,100,M,Андрей Чусовитин,B
Yes,Raw,2,Aleksandr Artamonov,Amateur Masters 40-44,1966,93.2,,,,,110,115,125,125,,,,,,125,100,M,Александр Артамонов,B
Yes,Raw,DQ,Konstantin Isaev,Amateur Juniors 20-23,1986,107.3,,,,,-180,-180,-180,,,,,,,,110,M,Константин Исаев,B
Yes,Raw,3,Dmitriy Zoteev,Amateur Open,1982,101.7,,,,,-170,170,-180,170,,,,,,170,110,M,Дмитрий Зотеев,B
Yes,Raw,4,Denis Ashirov,Amateur Open,1979,109,,,,,160,165,170,170,,,,,,170,110,M,Денис Аширов,B
Yes,Raw,1,Sergey Reshetnikov,Amateur Submasters 33-39,1973,106.7,,,,,150,167.5,175,175,,,,,,175,110,M,Сергей Решетников,B
Yes,Raw,2,Leonid Golovin,Amateur Submasters 33-39,1973,106.3,,,,,167.5,172.5,-177.5,172.5,,,,,,172.5,110,M,Леонид Головин,B
Yes,Raw,1,Vasiliy Petrov,Amateur Open,1975,122.5,,,,,220,227.5,-230.5,227.5,,,,,,227.5,125,M,Василий Петров,B
Yes,Raw,2,Sergey Kolesnichenko,Amateur Open,1979,123,,,,,190,197.5,202.5,202.5,,,,,,202.5,125,M,Сергей Колесниченко,B
Yes,Raw,4,Maksim Kolomitsev,Amateur Open,1979,116.7,,,,,155,162.5,167.5,167.5,,,,,,167.5,125,M,Максим Коломицев,B
Yes,Raw,5,Nikolay Seliverstov,Amateur Open,1978,117.3,,,,,165,-175,-175,165,,,,,,165,125,M,Николай Селиверстов,B
Yes,Raw,6,Pavel Romashov,Amateur Open,1982,113.3,,,,,-155,-155,155,155,,,,,,155,125,M,Павел Ромашов,B
Yes,Raw,8,Dmitriy Moiseev,Amateur Open,1978,122.7,,,,,120,135,137.5,137.5,,,,,,137.5,125,M,Дмитрий Моисеев,B
Yes,Raw,1,Maksim Vanin,Amateur Masters 45-49,1963,111.5,,,,,140,145,-150,145,,,,,,145,125,M,Максим Ванин,B
Yes,Raw,3,Dmitriy Belyy,Amateur Submasters 33-39,1972,125,,,,,172.5,175,-177.5,175,,,,,,175,125,M,Дмитрий Белый,B
Yes,Raw,7,Dmitriy Burylov,Amateur Submasters 33-39,1975,118.2,,,,,120,135,140,140,,,,,,140,125,M,Дмитрий Бурылов,B
Yes,Raw,DQ,Dmitriy Kantsev,Amateur Open,1968,135.8,,,,,-160,,,,,,,,,,140,M,Дмитрий Канцев,B
Yes,Raw,1,Mikhail Nekrasov,Amateur Submasters 33-39,1969,135.8,,,,,160,-170,170,170,,,,,,170,140,M,Михаил Некрасов,B
Yes,Raw,2,Nikolay Schukin,Amateur Submasters 33-39,1974,127.7,,,,,145,157.5,-160,157.5,,,,,,157.5,140,M,Николай Щукин,B
Yes,Raw,1,Yuriy Nosonov,Amateur Submasters 33-39,1974,160,,,,,220,-230,-235,220,,,,,,220,140+,M,Юрий Носонов,B
Yes,Multi-ply,1,Yuliya Dubrovina,Amateur Open,1983,58.4,,,,,-80,80,,80,,,,,,80,60,F,Юлия Дубровина,B
Yes,Multi-ply,1,Elena Tokareva,Amateur Juniors 20-23,1988,70.1,,,,,-82.5,-82.5,82.5,82.5,,,,,,82.5,75,F,Елена Токарева,B
Yes,Multi-ply,DQ,Anna Burylova,Amateur Juniors 20-23,1986,68.1,,,,,-85,-92.5,-92.5,,,,,,,,75,F,Анна Бурылова,B
Yes,Multi-ply,1,Nikita Telegin,Amateur Teen 13-15,1995,54.5,,,,,95,-105,-105,95,,,,,,95,56,M,Никита Телегин,B
Yes,Multi-ply,DQ,Kirill Bruev,Amateur Teen 16-17,1992,53.3,,,,,-80,-90,-90,,,,,,,,56,M,Кирилл Бруев,B
Yes,Multi-ply,DQ,Evgeniy Falkov,Amateur Teen 16-17,1992,56,,,,,-92.5,-92.5,-92.5,,,,,,,,56,M,Евгений Фальков,B
Yes,Multi-ply,1,Konstantin Nikolchenko,Amateur Teen 16-17,1992,59.9,,,,,122.5,127.5,-132.5,127.5,,,,,,127.5,60,M,Константин Никольченко,B
Yes,Multi-ply,2,Artem Fatykhov,Amateur Teen 16-17,1993,59.3,,,,,-107.5,-107.5,107.5,107.5,,,,,,107.5,60,M,Артем Фатыхов,B
Yes,Multi-ply,1,Mikhail Fateev,Amateur Juniors 20-23,1989,59.6,,,,,142.5,147.5,-150,147.5,,,,,,147.5,60,M,Михаил Фатеев,B
Yes,Multi-ply,1,Ravil Masalimov,Amateur Open,1985,66.1,,,,,130,140,-142.5,140,,,,,,140,67.5,M,Равиль Масалимов,B
Yes,Multi-ply,2,Andrey Kudryavtsev,Amateur Open,1983,66,,,,,115,-125,125,125,,,,,,125,67.5,M,Андрей Кудрявцев,B
Yes,Multi-ply,DQ,Ilya Obolenskiy,Amateur Open,1982,65.9,,,,,-125,-125,-125,,,,,,,,67.5,M,Илья Оболенский,B
Yes,Multi-ply,DQ,Sergey Baldin,Amateur Open,1978,66.8,,,,,-130,-130,-140,,,,,,,,67.5,M,Сергей Балдин,B
Yes,Multi-ply,DQ,Dmitriy Simbirtsev,Amateur Teen 16-17,1992,67.6,,,,,-130,-130,-130,,,,,,,,75,M,Дмитрий Симбирцев,B
Yes,Multi-ply,1,Artem Shalaev,Amateur Juniors 20-23,1989,70.9,,,,,-137.5,137.5,142.5,142.5,,,,,,142.5,75,M,Артем Шалаев,B
Yes,Multi-ply,1,Ruslan Allayarov,Amateur Open,1978,69.7,,,,,147.5,-157.5,-157.5,147.5,,,,,,147.5,75,M,Руслан Аллаяров,B
Yes,Multi-ply,1,Viktor Mistratov,Amateur Open,1981,81.2,,,,,185,195,205,205,,,,,,205,82.5,M,Виктор Мистратов,B
Yes,Multi-ply,2,Andrey Buglanov,Amateur Open,1978,80.8,,,,,145,152.5,160,160,,,,,,160,82.5,M,Андрей Бугланов,B
Yes,Multi-ply,1,Aleksey Savosin,Amateur Masters 40-44,1969,80.7,,,,,185,-195,195,195,,,,,,195,82.5,M,Алексей Савосин,B
Yes,Multi-ply,2,Valery Trubin,Amateur Masters 40-44,1968,81.7,,,,,150,-160,160,160,,,,,,160,82.5,M,Валерий Трубин,B
Yes,Multi-ply,1,Rinad Nizamov,Amateur Submasters 33-39,1973,89.4,,,,,-180,180,190,190,,,,,,190,90,M,Ринад Низамов,B
Yes,Multi-ply,4,Dmitriy Tsymbalistyy,Amateur Open,1978,99.5,,,,,175,-180,-180,175,,,,,,175,100,M,Дмитрий Цымбалистый,B
Yes,Multi-ply,DQ,Vladimir Schukin,Amateur Open,1980,96.5,,,,,-222.5,-222.5,-222.5,,,,,,,,100,M,Владимир Щукин,B
Yes,Multi-ply,1,Oleg Kozmirenko,Amateur Masters 40-44,1969,96.1,,,,,180,192.5,200,200,,,,,,200,100,M,Олег Козмиренко,B
Yes,Multi-ply,1,Aleksandr Belyaev,Amateur Submasters 33-39,1972,100,,,,,220,225,-230.5,225,,,,,,225,100,M,Александр Беляев,B
Yes,Multi-ply,2,Andrey Dobryakov,Amateur Submasters 33-39,1975,97.4,,,,,210,-225,-225,210,,,,,,210,100,M,Андрей Добряков,B
Yes,Multi-ply,3,Sergey Martyanov,Amateur Submasters 33-39,1975,92.7,,,,,175,192.5,-212.5,192.5,,,,,,192.5,100,M,Сергей Мартьянов,B
Yes,Multi-ply,DQ,Oleg Kozin,Amateur Submasters 33-39,1970,99.5,,,,,-192.5,-192.5,-192.5,,,,,,,,100,M,Олег Козин,B
Yes,Multi-ply,1,Denis Chernay,Amateur Juniors 20-23,1987,102.6,,,,,-190,200,-210,200,,,,,,200,110,M,Денис Чернай,B
Yes,Multi-ply,DQ,Vladislav Kovtun,Amateur Submasters 33-39,1970,102,,,,,-190,-190,-190,,,,,,,,110,M,Владислав Ковтун,B
Yes,Multi-ply,1,Evgeniy Formin,Amateur Masters 40-44,1967,122.1,,,,,-220,-220,220,220,,,,,,220,125,M,Евгений Формин,B
Yes,Multi-ply,1,Dmitriy Ryzhov,Amateur Submasters 33-39,1972,116,,,,,210,220,-232.5,220,,,,,,220,125,M,Дмитрий Рыжов,B
Yes,Multi-ply,1,Mikhail Kurkomili,Amateur Teen 16-17,1993,137.7,,,,,150,-160,-165,150,,,,,,150,140,M,Михаил Куркомели,B
Yes,Multi-ply,1,Mikhail Nekrasov,Amateur Submasters 33-39,1969,135,,,,,215,225,-230,225,,,,,,225,140,M,Михаил Некрасов,B
