Name,CyrillicName,Division,BirthDate,BodyweightKg,WeightClassKg,Sex,Squat1Kg,Squat2Kg,Squat3Kg,Best3SquatKg,Bench1Kg,Bench2Kg,Bench3Kg,Best3BenchKg,Deadlift1Kg,Deadlift2Kg,Deadlift3Kg,Best3DeadliftKg,TotalKg,Event,Equipment,Place
Georgiy Mashurov,Георгий Машуров,Pro Open,1982-11-05,81.95,82.5,M,,,,,,,,,-230,230,-240,230,230,D,Single-ply,1
Dmitriy Khoroshilov,Дмитрий Хорошилов,Pro Teen 16-17,1999-05-14,104.5,110,M,,,,,,,,,180,190,-200,190,190,D,Single-ply,1
Elena Girfanova,Елена Гирфанова,Pro Teen 13-15,2000-01-12,51.2,52,F,,,,,,,,,85,90,92.5,92.5,92.5,D,Raw,1
Nadezhda Kozhevnikova,Надежда Кожевникова,Pro Teen 13-15,2000-01-03,50.5,52,F,,,,,,,,,65,70,72.5,72.5,72.5,D,Raw,2
Anastasiya Kirillova,Анастасия Кириллова,Pro Juniors 20-23,1994-12-15,56,56,F,,,,,,,,,100,105,107.5,107.5,107.5,D,Raw,1
Anastasiya Ivanova,Анастасия Иванова,Pro Teen 16-17,1998-07-12,57.1,60,F,,,,,,,,,70,72.5,75,75,75,D,Raw,1
Aleksey Anoshkin,Алексей Аношкин,Pro Teen 13-15,2002-03-09,32.5,52,M,,,,,,,,,55,65,72.5,72.5,72.5,D,Raw,1
Avaz Abasov,Аваз Абасов,Pro Teen 16-17,1999-09-05,50.9,52,M,,,,,,,,,140,155,160,160,160,D,Raw,1
Dmitriy Chagrinskiy,Дмитрий Чагринский,Pro Teen 16-17,1998-08-20,51.9,52,M,,,,,,,,,80,-90,-100,80,80,D,Raw,2
Mikhail Proshin,Михаил Прошин,Pro Teen 16-17,1998-10-21,65.5,67.5,M,,,,,,,,,100,120,135,135,135,D,Raw,1
Egor Anoshkin,Егор Аношкин,Pro Teen 13-15,1999-12-06,61.5,67.5,M,,,,,,,,,110,125,130,130,130,D,Raw,2
Pavel Tushin,Павел Тушин,Pro Teen 16-17,1998-01-09,82.1,82.5,M,,,,,,,,,190,205,-210,205,205,D,Raw,1
Aleksandr Mavrinskiy,Александр Мавринский,Pro Open,1991-11-22,96.6,100,M,,,,,,,,,280,300,,300,300,D,Raw,1
Nadezhda Kozhevnikova,Надежда Кожевникова,Pro Teen 13-15,2000-01-03,50.5,52,F,,,,,40,42.5,-45,42.5,,,,,42.5,B,Raw,1
Ekaterina Belaya,Екатерина Белая,Pro Juniors 20-23,1995-06-20,56,56,F,,,,,22.5,27.5,-32.5,27.5,,,,,27.5,B,Raw,1
Anastasiya Ivanova,Анастасия Иванова,Pro Teen 16-17,1998-07-12,57.1,60,F,,,,,40,42.5,-45,42.5,,,,,42.5,B,Raw,1
Alla Tkachenko,Алла Ткаченко,Pro Open,1978-07-26,66.2,67.5,F,,,,,65,-67.5,-67.5,65,,,,,65,B,Raw,1
Maksim Shults,Максим Шульц,Pro Teen 13-15,2000-08-19,51.75,52,M,,,,,40,50,-55,50,,,,,50,B,Raw,1
Avaz Abasov,Аваз Абасов,Pro Teen 16-17,1999-09-05,50.9,52,M,,,,,62.5,67.5,-70,67.5,,,,,67.5,B,Raw,1
Evgeniy Boronilkin,Евгений Боронилкин,Pro Juniors 20-23,1994-11-08,55.1,56,M,,,,,90,95,100,100,,,,,100,B,Raw,1
Egor Kutyga,Егор Кутыга,Pro Teen 13-15,2000-01-08,67.5,67.5,M,,,,,-60,60,-67.5,60,,,,,60,B,Raw,1
Stanislav Ushchyokin,Станислав Ущёкин,Pro Teen 16-17,1998-05-13,67.5,67.5,M,,,,,-120,120,127.5,127.5,,,,,127.5,B,Raw,1
Egor Anoshkin,Егор Аношкин,Pro Teen 13-15,1999-12-06,61,67.5,M,,,,,65,70,-75,70,,,,,70,B,Raw,2
Andrey Grishin,Андрей Гришин,Pro Teen 18-19,1995-12-13,65.8,67.5,M,,,,,70,75,80,80,,,,,80,B,Raw,1
Evgeniy Sevryukov,Евгений Севрюков,Pro Open,1991-07-08,74.5,75,M,,,,,150,160,-170,160,,,,,160,B,Raw,1
Stanislav Isakov,Станислав Исаков,Pro Open,1991-07-27,71.5,75,M,,,,,130,135,140,140,,,,,140,B,Raw,2
Nikolay Ryazantsev,Николай Рязанцев,Pro Teen 16-17,1998-05-13,81.3,82.5,M,,,,,105,110,117.5,117.5,,,,,117.5,B,Raw,1
Evgeniy Zemlyakov,Евгений Земляков,Pro Teen 13-15,1999-12-06,77.4,82.5,M,,,,,95,105,-115,105,,,,,105,B,Raw,2
Dmitriy Kostyarkov,Дмитрий Костярков,Pro Teen 18-19,1996-06-20,77.6,82.5,M,,,,,125,135,-145,135,,,,,135,B,Raw,1
Anton Kuzin,Антон Кузин,Pro Teen 18-19,1996-06-20,81.1,82.5,M,,,,,-110,-117.5,-117.5,,,,,,,B,Raw,DQ
Georgiy Mashurov,Георгий Машуров,Pro Open,1982-11-05,81.95,82.5,M,,,,,130,-142.5,,130,,,,,130,B,Raw,1
Partev Esayan,Партев Есаян,Pro Teen 18-19,1997-01-11,83.8,90,M,,,,,-125,125,130,130,,,,,130,B,Raw,1
Roman Tsurkan,Роман Цуркан,Pro Juniors 20-23,1993-05-24,88.9,90,M,,,,,-135,142.5,-150,142.5,,,,,142.5,B,Raw,1
Vadim Chernykh,Вадим Черных,Pro Teen 16-17,1997-11-16,93.5,100,M,,,,,150,165,-180,165,,,,,165,B,Raw,1
Mikhail Baranov,Михаил Баранов,Pro Juniors 20-23,1992-05-08,97.8,100,M,,,,,185,195,205,205,,,,,205,B,Raw,1
Nikolay Sevryukov,Николай Севрюков,Pro Masters 45-49,1966-05-10,94.6,100,M,,,,,-130,135,-150,135,,,,,135,B,Raw,1
Aleksandr Martsinkevich,Александр Марцинкевич,Pro Open,1989-10-23,94.1,100,M,,,,,145,150,-160,150,,,,,150,B,Raw,1
Nikita Chakak,Никита Чакак,Pro Open,1991-04-14,94.2,100,M,,,,,115,125,130,130,,,,,130,B,Raw,2
Sergey Protsenko,Сергей Проценко,Pro Open,1988-09-13,98.6,100,M,,,,,-165,-165,-165,,,,,,,B,Raw,DQ
Anatoliy Ganyushkin,Анатолий Ганюшкин,Pro Open,1986-07-08,102.5,110,M,,,,,160,-172.5,172.5,172.5,,,,,172.5,B,Raw,1
Avaz Abasov,Аваз Абасов,Pro Teen 16-17,1999-09-05,50.8,52,M,145,-155,-160,145,80,-85,-85,80,140,-145,-152.5,140,365,SBD,Single-ply,1
Nikolay Goryaynov,Николай Горяйнов,Pro Juniors 20-23,1995-06-13,100.1,110,M,200,210,-220,210,140,-145,145,145,200,-220,220,220,575,SBD,Single-ply,1
Virsaviya Mikhaylova,Вирсавия Михайлова,Pro Teen 13-15,2000-01-03,49.3,52,F,-30,30,35,35,27.5,-30,-30,27.5,42.5,47.5,52.5,52.5,115,SBD,Raw,3
Elena Girfanova,Елена Гирфанова,Pro Teen 13-15,2000-01-12,51.2,52,F,60,65,-67.5,65,35,40,-45,40,80,85,90,90,195,SBD,Raw,1
Nadezhda Kozhevnikova,Надежда Кожевникова,Pro Teen 13-15,2000-01-03,50.5,52,F,50,55,57.5,57.5,42.5,45,-47.5,45,65,70,-72.5,70,172.5,SBD,Raw,2
Tatyana Efremova,Татьяна Ефремова,Pro Teen 16-17,1998-06-09,51.2,52,F,65,70,75,75,42.5,47.5,50,50,90,100,105,105,230,SBD,Raw,1
Alina Morkovina,Алина Морковина,Pro Teen 16-17,1999-02-05,51.2,52,F,45,50,-55,50,25,27.5,30,30,60,70,75,75,155,SBD,Raw,2
Yana Repina,Яна Репина,Pro Teen 13-15,2000-01-12,55.1,56,F,60,65,70,70,22.5,-25,27.5,27.5,70,80,85,85,182.5,SBD,Raw,1
Anastasiya Kirillova,Анастасия Кириллова,Pro Juniors 20-23,1994-12-15,56,56,F,62.5,67.5,-70,67.5,32.5,35,-40,35,102.5,-110,-110,102.5,205,SBD,Raw,1
Mariya Vishnevskaya,Мария Вишневская,Pro Juniors 20-23,1994-08-30,52.8,56,F,65,70,75,75,35,40,42.5,42.5,80,-90,-90,80,197.5,SBD,Raw,2
Olga Gorbunova,Ольга Горбунова,Pro Teen 13-15,2000-07-10,59.2,60,F,60,65,67.5,67.5,-25,27.5,30,30,55,60,65,65,162.5,SBD,Raw,1
Anastasiya Ivanova,Анастасия Иванова,Pro Teen 16-17,1998-07-12,57.1,60,F,60,65,-67.5,65,40,42.5,45,45,65,70,72.5,72.5,182.5,SBD,Raw,1
Sevil Bayramova,Севил Байрамова,Pro Teen 16-17,1998-04-14,63.8,67.5,F,-80,85,-95,85,37.5,40,-42.5,40,70,80,90,90,215,SBD,Raw,1
Elizaveta Bralgina,Елизавета Бралгина,Pro Teen 16-17,1998-11-16,62.9,67.5,F,65,70,75,75,20,25,-27.5,25,70,80,90,90,190,SBD,Raw,2
Ekaterina Shirochkina,Екатерина Широчкина,Pro Teen 16-17,1998-07-22,61.8,67.5,F,45,50,60,60,25,27.5,-32.5,27.5,60,70,80,80,167.5,SBD,Raw,3
Natalya Litvinenko,Наталья Литвиненко,Pro Teen 16-17,1999-05-08,74.6,75,F,90,100,-102.5,100,55,-62.5,-62.5,55,100,110,120,120,275,SBD,Raw,1
Aleksey Anoshkin,Алексей Аношкин,Pro Teen 13-15,2002-03-09,32.5,52,M,-40,-45,45,45,35,40,-47.5,40,40,50,-65,50,135,SBD,Raw,1
Dmitriy Chagrinskiy,Дмитрий Чагринский,Pro Teen 16-17,1998-08-20,51.9,52,M,60,62,-67,62,-50,-50,-50,,,,,,,SBD,Raw,DQ
Egor Anoshkin,Егор Аношкин,Pro Teen 13-15,1999-12-16,61,67.5,M,65,70,80,80,70,-75,-75,70,100,110,125,125,275,SBD,Raw,1
Konstatin Kurbatov,Констатин Курбатов,Pro Teen 13-15,2000-03-09,60.5,67.5,M,80,-90,-90,80,50,55,-57,55,100,105,110,110,245,SBD,Raw,1
Mikhail Proshin,Михаил Прошин,Pro Teen 16-17,1998-10-21,65.5,67.5,M,80,-100,-100,80,55,65,-75,65,95,110,-140,110,255,SBD,Raw,2
Nikolay Golyshev,Николай Голышев,Pro Teen 18-19,1996-04-03,66.25,67.5,M,100,105,110,110,90,-95,95,95,140,147.5,155,155,360,SBD,Raw,1
Maksim Antonov,Максим Антонов,Pro Teen 16-17,1998-06-24,73.2,75,M,135,140,-145,140,95,105,110,110,190,197.5,200,200,450,SBD,Raw,1
Timur Begmatov,Тимур Бегматов,Pro Teen 16-17,1999-01-19,70.9,75,M,-90,95,-100,95,70,75,-80,75,120,135,-150,135,305,SBD,Raw,2
Andrey Bugakov,Андрей Бугаков,Pro Teen 16-17,1997-12-07,74.7,75,M,130,140,145,145,105,115,-120,115,185,190,197.5,197.5,457.5,SBD,Raw,1
Maksim Mikhaylov,Максим Михайлов,Pro Juniors 20-23,1994-02-06,75,75,M,-130,-130,-130,,90,,,90,,,,,,SBD,Raw,DQ
Denis Kalinkin,Денис Калинкин,Pro Open,1982-01-29,74.1,75,M,180,190,200,200,110,115,120,120,210,225,235,235,555,SBD,Raw,1
Stanislav Isakov,Станислав Исаков,Pro Open,1991-07-27,71.5,75,M,145,155,-160,155,-135,135,,135,160,170,-185,170,460,SBD,Raw,2
Rem Melnikov,Рэм Мельников,Pro Teen 16-17,1998-11-10,77.3,82.5,M,160,170,175,175,-120,120,-125,120,180,200,-205,200,495,SBD,Raw,1
Matvey Klimenkov,Матвей Клименков,Pro Teen 16-17,1998-08-28,77.4,82.5,M,130,137.5,142.5,142.5,102.5,107.5,112.5,112.5,160,167.5,175,175,430,SBD,Raw,2
Pavel Tushin,Павел Тушин,Pro Teen 16-17,1998-01-09,82.1,82.5,M,-110,115,120,120,70,-75,-75,70,190,205,-210,205,395,SBD,Raw,3
Oleg Romanov,Олег Романов,Pro Teen 18-19,1997-07-24,76.6,82.5,M,120,130,140,140,100,110,-115,110,140,160,180,180,430,SBD,Raw,1
Daniil Mikhaylov,Даниил Михайлов,Pro Teen 16-17,1997-12-13,78.4,82.5,M,120,122.5,130,130,100,110,-115,110,150,-160,170,170,410,SBD,Raw,2
Aleksey Petukhov,Алексей Петухов,Pro Masters 40-44,1975-03-06,82.2,82.5,M,100,110,-120,110,-100,110,-117.8,110,130,140,145,145,365,SBD,Raw,1
Georgiy Mashurov,Георгий Машуров,Pro Open,1982-11-05,81.95,82.5,M,180,190,200,200,130,140,-145,140,210,220,230,230,570,SBD,Raw,1
Andrey Dvurechenskiy,Андрей Двуреченский,Pro Teen 13-15,2000-09-17,82.8,90,M,135,142.5,150,150,100,-107.5,-112.5,100,190,200,,200,450,SBD,Raw,1
Vitaliy Drebnev,Виталий Дребнев,Pro Open,1977-07-08,86.9,90,M,150,160,165,165,117.5,-122.5,-122.5,117.5,215,-220,-220,215,497.5,SBD,Raw,1
Aleksandr Mavrinskiy,Александр Мавринский,Pro Open,1991-11-22,96.6,100,M,200,220,240,240,150,160,,160,260,280,,280,680,SBD,Raw,1
Aleksandr Martsinkevich,Александр Марцинкевич,Pro Open,1991-10-23,94.1,100,M,160,170,180,180,150,-155,,150,170,-180,180,180,510,SBD,Raw,2
Dmitriy Khoroshilov,Дмитрий Хорошилов,Pro Teen 16-17,1999-05-14,104.5,110,M,-120,-130,135,135,100,-110,-110,100,150,165,182.5,182.5,417.5,SBD,Raw,1
Maksim Vasilev,Максим Васильев,Pro Teen 16-17,1999-09-24,102.1,110,M,-120,130,140,140,82.5,-90,90,90,157.5,167.5,175,175,405,SBD,Raw,2
