Place,WeightClassKg,Event,Equipment,Name,CyrillicName,Division,BirthDate,Age,BodyweightKg,Bench1Kg,Bench2Kg,Bench3Kg,Best3BenchKg,TotalKg,Sex
1,56,B,Raw,Ekaterina Matyukhina,Екатерина Матюхина,Open,1990-05-20,26,53.3,62.5,67.5,-72.5,67.5,67.5,F
2,56,B,Raw,Anzhelika Artamonova,Анжелика Артамонова,Open,1986-02-20,31,53.3,50,-55,55,55,55,F
1,67.5,B,Raw,Aleksey Davydov,Алексей Давыдов,Open,1988-06-14,28,67.5,97.5,102.5,105,105,105,M
2,67.5,B,Raw,Roman Khalmetov,Роман Хальметов,Open,1994-02-02,23,65.6,90,97.5,102.5,102.5,102.5,M
3,67.5,B,Raw,Aleksey Tyukin,Алексей Тюкин,Open,1979-10-04,37,67.4,-90,100,-110,100,100,M
4,67.5,B,Raw,Andrey Akinshin,Андрей Акиньшин,Open,2001-02-19,16,64.2,80,90,95,95,95,M
5,52,B,Raw,Ishkhan Abraamyan,Ишхан Абраамян,Open,2002-04-29,14,49.4,52.5,-57.5,57.5,57.5,57.5,M
1,75,B,Raw,Pavel Romashev,Павел Ромашев,Open,1989-04-24,27,75,135,142.5,155,155,155,M
2,75,B,Raw,Aleksandr Matveev,Александр Матвеев,Open,1994-11-17,22,70,115,120,125,125,125,M
3,75,B,Raw,Sergey Metelkin,Сергей Метелкин,Open,1983-10-04,33,72.4,117.5,120,-125,120,120,M
1,82.5,B,Raw,Aleksey Getman,Алексей Гетьман,Open,1991-08-03,25,79.7,132.5,137.5,-140,137.5,137.5,M
2,82.5,B,Raw,Aleksey Solovyev #3,Алексей Соловьев,Open,1980-05-05,36,79.4,-120,-125,135,135,135,M
3,82.5,B,Raw,Nikolay Maslov,Николай Маслов,Open,1993-04-07,24,78.8,90,95,110,110,110,M
4,82.5,B,Raw,Daniil Polyashov,Даниил Поляшов,Open,2001-07-07,15,76.1,80,82.5,-85,82.5,82.5,M
5,82.5,B,Raw,Andrey Timofeev,Андрей Тимофеев,Open,2000-12-23,16,76.6,60,65,-70,65,65,M
1,90,B,Raw,Maksim Petrichenko,Максим Петриченко,Open,1987-05-31,29,86.3,167.5,175,-177.5,175,175,M
2,90,B,Raw,Yuriy Dmitriev,Юрий Дмитриев,Open,1986-06-26,30,88.1,157.5,162.5,167.5,167.5,167.5,M
3,90,B,Raw,Andrey Grishchkov,Андрей Грищков,Open,1978-01-01,39,85.7,145,152.5,-155,152.5,152.5,M
DQ,90,B,Raw,Andrey Pantaev,Андрей Пантаев,Open,1988-08-19,28,84.4,-170,-170,-170,,,M
1,100,B,Raw,Aleksey Pikhtovnikov,Алексей Пихтовников,Open,1985-04-11,31,96.8,180,185,190,190,190,M
2,100,B,Raw,Andrey Semenkov,Андрей Семенков,Open,1987-11-25,29,99.9,170,182.5,-187.5,182.5,182.5,M
3,100,B,Raw,Nodar Tsutskiridze,Нодар Цуцкиридзе,Open,1976-09-14,40,93,140,150,155,155,155,M
4,100,B,Raw,Aleksandr Dmitriev,Александр Дмитриев,Open,1986-01-11,31,97.4,140,150,-152.5,150,150,M
5,100,B,Raw,Evgeniy Antonov,Евгений Антонов,Open,1984-01-31,33,98.4,135,-140,145,145,145,M
6,100,B,Raw,Aleksandr Shalygin,Александр Шалыгин,Open,1990-06-11,26,92.7,125,-132.5,135,135,135,M
1,110,B,Raw,Dmitriy Karelin,Дмитрий Карелин,Open,1988-06-08,28,104.1,170,180,-185,180,180,M
2,110,B,Raw,Aleksandr Molchanov,Александр Молчанов,Open,1986-11-16,30,109.1,105,110,-115,110,110,M
1,125,B,Raw,Nikita Voronov,Никита Воронов,Open,1987-02-05,30,113.5,180,190,-200,190,190,M
2,125,B,Raw,Aleksey Cherstvov,Алексей Черствов,Open,1981-04-16,35,113.9,170,-175,-175,170,170,M
