Place,Sex,Name,CyrillicName,BodyweightKg,Deadlift1Kg,Deadlift2Kg,Deadlift3Kg,Best3DeadliftKg,Deadlift4Kg,TotalKg,WeightClassKg,Event,Equipment,Tested,Bench1Kg,Bench2Kg,Bench3Kg,Best3BenchKg,Bench4Kg,Division,Age,BirthDate
1,F,Yuliya Dolgopolova,Юлия Долгополова,59,100,110,120,120,,120,60,D,Unlimited,No,,,,,,Amateur Open,30,1988-01-19
1,F,Yuliya Dolgopolova,Юлия Долгополова,59,,,,,,60,60,B,Unlimited,No,-60,60,-70,60,,Amateur Open,30,1988-01-19
1,M,Yuriy Burkov,Юрий Бурков,67.5,,,,,,107.5,67.5,B,Unlimited,No,100,107.5,-117.5,107.5,,Amateur Open,26,1991-06-03
1,M,Aleksandr Telepnev,Александр Телепнев,73.55,,,,,,155,75,B,Unlimited,No,150,155,-162.5,155,,Amateur Juniors 20-23,20,1998-01-06
2,M,Aleksandr Simkin,Александр Симкин,73,,,,,,140,75,B,Unlimited,No,125,132.5,140,140,,Amateur Juniors 20-23,22,1995-12-13
1,M,Evgeniy Paramonov,Евгений Парамонов,86.55,,,,,,220,90,B,Unlimited,No,200,-220,220,220,,Amateur Open,26,1991-12-23
1,M,Ruslan Kalakutskiy,Руслан Калакуцкий,98,,,,,,210,100,B,Unlimited,No,195,205,210,210,,Amateur Open,38,1979-04-22
1,M,Mikhail Karpachev,Михаил Карпачев,99.8,,,,,,165,100,B,Unlimited,No,-165,-165,165,165,,Amateur Masters 55-59,58,1959-11-11
1,M,Sergey Vinokhodov,Сергей Виноходов,123.4,,,,,,197.5,125,B,Unlimited,No,190,197.5,-207.5,197.5,,Amateur Open,35,1982-09-17
1,F,Elena Litvinova,Елена Литвинова,73,125,135,145,145,,145,75,D,Raw,No,,,,,,Amateur Open,26,1991-04-10
1,M,Evgeniy Chekrygin,Евгений Чекрыгин,65,150,167.5,-170,167.5,,167.5,67.5,D,Raw,No,,,,,,Amateur Juniors 20-23,20,1997-07-23
1,M,Andrey Yarchenko,Андрей Ярченко,70,180,-200,200,200,,200,75,D,Raw,No,,,,,,Amateur Teen 18-19,18,1999-08-15
1,M,Andrey Yarchenko,Андрей Ярченко,70,180,-200,200,200,,200,75,D,Raw,No,,,,,,Amateur Open,18,1999-08-15
1,M,Mikhail Mukhin,Михаил Мухин,80.5,187.5,-217.5,-217.5,187.5,,187.5,82.5,D,Raw,No,,,,,,Amateur Teen 18-19,19,1998-05-15
1,M,Ivan Oleynik,Иван Олейник,82.5,210,217.5,225,225,,225,82.5,D,Raw,No,,,,,,Amateur Open,24,1993-12-10
2,M,Roman Alyabev,Роман Алябьев,79.9,190,200,210,210,,210,82.5,D,Raw,No,,,,,,Amateur Open,24,1993-12-22
1,M,Igor Mandrikov,Игорь Мандриков,87,190,197.5,202.5,202.5,,202.5,90,D,Raw,No,,,,,,Amateur Open,24,1993-04-02
2,M,Pavel Tishin,Павел Тишин,89.9,185,197.5,-205,197.5,,197.5,90,D,Raw,No,,,,,,Amateur Open,30,1987-05-23
1,M,Andrey Pereverzev,Андрей Переверзев,96.45,220,235,-250,235,,235,100,D,Raw,No,,,,,,Amateur Open,30,1987-06-26
2,M,Vladimir Dudnik,Владимир Дудник,94,140,145,165,165,,165,100,D,Raw,No,,,,,,Amateur Open,35,1982-12-12
1,M,Denis Ivlev,Денис Ивлев,101,250,-270,270,270,,270,110,D,Raw,No,,,,,,Amateur Open,37,1980-04-13
1,M,Roman Kogut,Роман Когут,115,250,260,,260,,260,125,D,Raw,No,,,,,,Amateur Open,25,1992-10-26
2,M,Sergey Vinokhodov,Сергей Виноходов,123.4,215,220,230,230,,230,125,D,Raw,No,,,,,,Amateur Open,35,1982-09-17
1,F,Elena Litvinova,Елена Литвинова,73,,,,,,77.5,75,B,Raw,No,-70,75,77.5,77.5,,Amateur Open,26,1991-04-10
1,M,Roman Molchanov,Роман Молчанов,59.8,,,,,,117.5,60,B,Raw,No,110,115,117.5,117.5,,Amateur Juniors 20-23,22,1995-07-03
2,M,Afraim Makhfuzov,Афраим Махфузов,60,,,,,,105,60,B,Raw,No,105,-110,-115,105,,Amateur Juniors 20-23,20,1997-10-19
1,M,Aleksandr Simkin,Александр Симкин,73,,,,,,125,75,B,Raw,No,115,122.5,125,125,,Amateur Juniors 20-23,22,1995-12-13
2,M,Vitaliy Shulgin,Виталий Шульгин,74.1,,,,,,120,75,B,Raw,No,107.5,120,,120,,Amateur Juniors 20-23,20,1997-09-22
1,M,Petr Chubarykh,Петр Чубарых,73,,,,,,107.5,75,B,Raw,No,-100,107.5,-120,107.5,,Amateur Open,37,1980-04-17
1,M,Andrey Obraztsov,Андрей Образцов,82,,,,,,130,82.5,B,Raw,No,130,-147.5,,130,,Amateur Juniors 20-23,23,1995-01-26
1,M,Artem Korovin,Артем Коровин,85.5,,,,,,162.5,90,B,Raw,No,155,162.5,-170,162.5,,Amateur Juniors 20-23,20,1997-06-08
2,M,Aleksandr Fedchenko,Александр Федченко,87.5,,,,,,145,90,B,Raw,No,145,-155,-155,145,,Amateur Juniors 20-23,21,1996-05-20
1,M,Vasiliy Shekhovtsov,Василий Шеховцов,89.75,,,,,,145,90,B,Raw,No,145,,,145,,Amateur Open,31,1986-08-28
1,M,Andrey Konev,Андрей Конев,94.9,,,,,,145,100,B,Raw,No,145,-155,-155,145,,Amateur Teen 18-19,19,1998-06-01
1,M,Aleksandr Meshkovoy,Александр Мешковой,95.4,,,,,,165,100,B,Raw,No,162.5,165,,165,,Amateur Open,30,1987-12-28
2,M,Andrey Pereverzev,Андрей Переверзев,96.45,,,,,,162.5,100,B,Raw,No,150,-162.5,162.5,162.5,,Amateur Open,30,1987-06-26
DQ,M,Aleksandr Litovchenko,Александр Литовченко,98.6,,,,,,,100,B,Raw,No,-162.5,-162.5,-162.5,,,Amateur Open,31,1986-06-26
1,M,Yuriy Burkov,Юрий Бурков,67.5,,,,,,107.5,67.5,B,Unlimited,No,100,107.5,-117.5,107.5,,Pro Open,26,1991-06-03
1,M,Evgeniy Paramonov,Евгений Парамонов,86.55,,,,,,220,90,B,Unlimited,No,200,-220,220,220,,Pro Open,26,1991-12-23
1,F,Svetlana Pankratova,Светлана Панкратова,65.5,80,85,87.5,87.5,,87.5,67.5,D,Raw,No,,,,,,Pro Open,34,1983-08-31
1,F,Lyubov Podporina,Любовь Подпорина,79.5,95,105,115,115,,115,82.5,D,Raw,No,,,,,,Pro Masters 45-49,47,1970-09-30
1,M,Dmitriy Motaylo,Дмитрий Мотайло,95.7,-200,200,230,230,,230,100,D,Raw,No,,,,,,Pro Open,32,1985-06-06
DQ,M,Svetlana Binchurova,Светлана Бинчурова,69,,,,,,,75,B,Raw,No,-55,-55,,,,Pro Open,35,1982-11-25
1,M,Yuriy Burkov,Юрий Бурков,66.35,,,,,,90,67.5,B,Raw,No,-90,90,-95,90,,Pro Open,26,1991-06-03
1,M,Vladimir Gamaley,Владимир Гамалей,74.5,,,,,,72.5,75,B,Raw,No,65,72.5,-75,72.5,,Pro Teen 14-15,15,2002-07-06
1,M,Dmitriy Aniskin,Дмитрий Анискин,72.4,,,,,,107.5,75,B,Raw,No,107.5,-120,-120,107.5,,Pro Teen 18-19,19,1998-05-01
1,M,Roman Afanasev,Роман Афанасьев,72,,,,,,100,75,B,Raw,No,100,-120,-120,100,,Pro Juniors 20-23,21,1997-02-13
1,M,Andrey Kildyushev,Андрей Кильдюшев,79.65,,,,,,180,82.5,B,Raw,No,160,170,180,180,,Pro Open,29,1988-08-04
1,M,Vyacheslav Dubentsov,Вячеслав Дубенцов,81,,,,,,90,82.5,B,Raw,No,90,-115,-115,90,,Pro Juniors 20-23,21,1996-09-02
1,M,Ivan Bugorskiy,Иван Бугорский,97.3,,,,,,117.5,100,B,Raw,No,110,117.5,-120,117.5,,Pro Juniors 20-23,20,1997-04-18
1,M,Aleksandr Rublev,Александр Рублев,95.5,,,,,,135,100,B,Raw,No,130,135,-150,135,,Pro Open,28,1989-09-13
1,M,Igor Kudinov,Игорь Кудинов,108.6,,,,,,180,110,B,Raw,No,180,-190,,180,,Pro Open,36,1982-03-16
1,M,Viktor Rusinov,Виктор Русинов,104,,,,,,67.5,110,B,Raw,No,62.5,67.5,-72.5,67.5,,Pro Teen 18-19,19,1999-01-11
